ISO-10303-21;
HEADER;
FILE_DESCRIPTION (( 'STEP AP214' ),
    '1' );
FILE_NAME ('piastra thearen2.STEP',
    '2021-08-28T07:59:59',
    ( '' ),
    ( '' ),
    'SwSTEP 2.0',
    'SolidWorks 2020',
    '' );
FILE_SCHEMA (( 'AUTOMOTIVE_DESIGN' ));
ENDSEC;

DATA;
#1 = EDGE_LOOP ( 'NONE', ( #1189, #907 ) ) ;
#2 = LINE ( 'NONE', #978, #1002 ) ;
#3 = VERTEX_POINT ( 'NONE', #93 ) ;
#4 = FACE_OUTER_BOUND ( 'NONE', #765, .T. ) ;
#5 = PRODUCT ( 'piastra thearen2', 'piastra thearen2', '', ( #1011 ) ) ;
#6 = ADVANCED_FACE ( 'NONE', ( #664 ), #88, .F. ) ;
#7 = SURFACE_STYLE_FILL_AREA ( #608 ) ;
#8 = ORIENTED_EDGE ( 'NONE', *, *, #1222, .F. ) ;
#9 = CARTESIAN_POINT ( 'NONE',  ( 39.99999999999999289, 2.000000000000000000, -4.690000000000003055 ) ) ;
#10 = CLOSED_SHELL ( 'NONE', ( #988, #6, #140, #886, #1254, #231, #544, #823, #238, #574, #1017, #13, #319, #443, #794, #342, #136, #21, #45, #153, #554, #1120, #536, #508, #428, #915, #235, #422, #1100, #562, #275, #406, #874, #141, #854 ) ) ;
#11 = FILL_AREA_STYLE_COLOUR ( '', #399 ) ;
#12 = CIRCLE ( 'NONE', #413, 1.750000000000001554 ) ;
#13 = ADVANCED_FACE ( 'NONE', ( #566 ), #954, .F. ) ;
#14 = AXIS2_PLACEMENT_3D ( 'NONE', #675, #182, #1144 ) ;
#15 = EDGE_CURVE ( 'NONE', #1205, #783, #860, .T. ) ;
#16 = CIRCLE ( 'NONE', #502, 1.750000000000001554 ) ;
#17 = ORIENTED_EDGE ( 'NONE', *, *, #309, .F. ) ;
#18 = DIRECTION ( 'NONE',  ( -0.000000000000000000, 1.000000000000000000, -0.000000000000000000 ) ) ;
#19 = CARTESIAN_POINT ( 'NONE',  ( 91.00000000000000000, 2.000000000000000000, -42.24999999999998579 ) ) ;
#20 = DIRECTION ( 'NONE',  ( -0.000000000000000000, -0.000000000000000000, 1.000000000000000000 ) ) ;
#21 = ADVANCED_FACE ( 'NONE', ( #546, #1051, #867, #1135, #175, #932, #66, #452, #1227, #1244, #572 ), #857, .T. ) ;
#22 = VERTEX_POINT ( 'NONE', #181 ) ;
#23 = DIRECTION ( 'NONE',  ( -0.000000000000000000, 1.000000000000000000, -0.000000000000000000 ) ) ;
#24 = DIRECTION ( 'NONE',  ( 0.000000000000000000, 0.000000000000000000, -1.000000000000000000 ) ) ;
#25 = EDGE_LOOP ( 'NONE', ( #134, #107 ) ) ;
#26 = CARTESIAN_POINT ( 'NONE',  ( -96.00000000000001421, 2.000000000000000000, -47.00000000000000000 ) ) ;
#27 = EDGE_CURVE ( 'NONE', #1060, #400, #479, .T. ) ;
#28 = CARTESIAN_POINT ( 'NONE',  ( 35.99999999999999289, 0.000000000000000000, 3.560000000000014708 ) ) ;
#29 = AXIS2_PLACEMENT_3D ( 'NONE', #589, #1174, #207 ) ;
#30 = VECTOR ( 'NONE', #372, 1000.000000000000000 ) ;
#31 = AXIS2_PLACEMENT_3D ( 'NONE', #124, #1184, #890 ) ;
#32 = ORIENTED_EDGE ( 'NONE', *, *, #725, .T. ) ;
#33 = CARTESIAN_POINT ( 'NONE',  ( 39.99999999999998579, 2.000000000000000000, -35.00000000000000000 ) ) ;
#34 = CIRCLE ( 'NONE', #819, 1.749999999999998002 ) ;
#35 = ORIENTED_EDGE ( 'NONE', *, *, #464, .T. ) ;
#36 = CARTESIAN_POINT ( 'NONE',  ( -93.00000000000001421, 2.000000000000000000, 47.00000000000000000 ) ) ;
#37 = ORIENTED_EDGE ( 'NONE', *, *, #674, .T. ) ;
#38 = LINE ( 'NONE', #321, #94 ) ;
#39 = ORIENTED_EDGE ( 'NONE', *, *, #811, .F. ) ;
#40 = LINE ( 'NONE', #427, #76 ) ;
#41 = ORIENTED_EDGE ( 'NONE', *, *, #948, .F. ) ;
#42 = CARTESIAN_POINT ( 'NONE',  ( -91.00000000000000000, 0.000000000000000000, -43.99999999999999289 ) ) ;
#43 = VERTEX_POINT ( 'NONE', #154 ) ;
#44 = DIRECTION ( 'NONE',  ( 0.000000000000000000, -1.000000000000000000, 0.000000000000000000 ) ) ;
#45 = ADVANCED_FACE ( 'NONE', ( #766 ), #1156, .F. ) ;
#46 = DIRECTION ( 'NONE',  ( -0.000000000000000000, 1.000000000000000000, -0.000000000000000000 ) ) ;
#47 = VERTEX_POINT ( 'NONE', #745 ) ;
#48 = LINE ( 'NONE', #441, #1020 ) ;
#49 = AXIS2_PLACEMENT_3D ( 'NONE', #1045, #964, #861 ) ;
#50 = CIRCLE ( 'NONE', #703, 3.000000000000002665 ) ;
#51 = VERTEX_POINT ( 'NONE', #386 ) ;
#52 = AXIS2_PLACEMENT_3D ( 'NONE', #993, #791, #119 ) ;
#53 = CYLINDRICAL_SURFACE ( 'NONE', #379, 3.000000000000002665 ) ;
#54 = AXIS2_PLACEMENT_3D ( 'NONE', #359, #737, #542 ) ;
#55 = EDGE_CURVE ( 'NONE', #79, #51, #1234, .T. ) ;
#56 = SURFACE_SIDE_STYLE ('',( #922 ) ) ;
#57 = DIRECTION ( 'NONE',  ( 0.000000000000000000, -1.000000000000000000, 0.000000000000000000 ) ) ;
#58 = EDGE_CURVE ( 'NONE', #1205, #381, #1148, .T. ) ;
#59 = VERTEX_POINT ( 'NONE', #251 ) ;
#60 = ORIENTED_EDGE ( 'NONE', *, *, #724, .F. ) ;
#61 = DIRECTION ( 'NONE',  ( 0.000000000000000000, 0.000000000000000000, 1.000000000000000000 ) ) ;
#62 = VERTEX_POINT ( 'NONE', #643 ) ;
#63 = ORIENTED_EDGE ( 'NONE', *, *, #971, .F. ) ;
#64 = DIRECTION ( 'NONE',  ( 0.000000000000000000, 0.000000000000000000, 1.000000000000000000 ) ) ;
#65 = ORIENTED_EDGE ( 'NONE', *, *, #1044, .T. ) ;
#66 = FACE_BOUND ( 'NONE', #344, .T. ) ;
#67 = DIRECTION ( 'NONE',  ( 0.000000000000000000, 0.000000000000000000, 1.000000000000000000 ) ) ;
#68 = PRESENTATION_STYLE_ASSIGNMENT (( #609 ) ) ;
#69 = EDGE_LOOP ( 'NONE', ( #632, #911, #1050, #676 ) ) ;
#70 = LINE ( 'NONE', #1232, #1105 ) ;
#71 = ORIENTED_EDGE ( 'NONE', *, *, #1141, .F. ) ;
#72 = DIRECTION ( 'NONE',  ( 0.000000000000000000, 0.000000000000000000, 1.000000000000000000 ) ) ;
#73 = VECTOR ( 'NONE', #20, 1000.000000000000000 ) ;
#74 = FACE_OUTER_BOUND ( 'NONE', #402, .T. ) ;
#75 = ORIENTED_EDGE ( 'NONE', *, *, #516, .F. ) ;
#76 = VECTOR ( 'NONE', #1108, 1000.000000000000000 ) ;
#77 = CIRCLE ( 'NONE', #401, 3.000000000000002665 ) ;
#78 = FACE_OUTER_BOUND ( 'NONE', #1092, .T. ) ;
#79 = VERTEX_POINT ( 'NONE', #1240 ) ;
#80 = DIRECTION ( 'NONE',  ( -0.000000000000000000, 1.000000000000000000, -0.000000000000000000 ) ) ;
#81 = ORIENTED_EDGE ( 'NONE', *, *, #1162, .F. ) ;
#82 = DIRECTION ( 'NONE',  ( 0.000000000000000000, -1.000000000000000000, 0.000000000000000000 ) ) ;
#83 = DIRECTION ( 'NONE',  ( 0.000000000000000000, -1.000000000000000000, 0.000000000000000000 ) ) ;
#84 = CARTESIAN_POINT ( 'NONE',  ( 39.99999999999999289, 2.000000000000000000, -6.440000000000001279 ) ) ;
#85 = CARTESIAN_POINT ( 'NONE',  ( 10.58300524425834155, 0.000000000000000000, -50.00000000000000000 ) ) ;
#86 = EDGE_CURVE ( 'NONE', #583, #1226, #434, .T. ) ;
#87 = ORIENTED_EDGE ( 'NONE', *, *, #1217, .T. ) ;
#88 = CYLINDRICAL_SURFACE ( 'NONE', #455, 1.750000000000001554 ) ;
#89 = DIRECTION ( 'NONE',  ( 0.000000000000000000, -1.000000000000000000, 0.000000000000000000 ) ) ;
#90 = CARTESIAN_POINT ( 'NONE',  ( -93.00000000000001421, 0.000000000000000000, -47.00000000000000000 ) ) ;
#91 = EDGE_CURVE ( 'NONE', #1000, #558, #681, .T. ) ;
#92 = EDGE_LOOP ( 'NONE', ( #65, #1106, #756, #1215 ) ) ;
#93 = CARTESIAN_POINT ( 'NONE',  ( 95.99999999999998579, 2.000000000000000000, -47.00000000000000000 ) ) ;
#94 = VECTOR ( 'NONE', #713, 1000.000000000000000 ) ;
#95 = VERTEX_POINT ( 'NONE', #265 ) ;
#96 = AXIS2_PLACEMENT_3D ( 'NONE', #454, #739, #254 ) ;
#97 = CARTESIAN_POINT ( 'NONE',  ( 92.99999999999998579, 2.000000000000000000, 47.00000000000000000 ) ) ;
#98 = CIRCLE ( 'NONE', #768, 1.749999999999998002 ) ;
#99 = EDGE_LOOP ( 'NONE', ( #389, #815, #230, #75 ) ) ;
#100 = CARTESIAN_POINT ( 'NONE',  ( 10.58300524425834155, 2.000000000000000000, -50.00000000000000000 ) ) ;
#101 = EDGE_CURVE ( 'NONE', #1102, #927, #654, .T. ) ;
#102 = DIRECTION ( 'NONE',  ( -1.000000000000000000, -0.000000000000000000, -0.000000000000000000 ) ) ;
#103 = DIRECTION ( 'NONE',  ( -0.000000000000000000, 1.000000000000000000, -0.000000000000000000 ) ) ;
#104 = EDGE_LOOP ( 'NONE', ( #807, #1030, #733, #931 ) ) ;
#105 = DIRECTION ( 'NONE',  ( 0.000000000000000000, 0.000000000000000000, 1.000000000000000000 ) ) ;
#106 = PRODUCT_DEFINITION ( 'UNKNOWN', '', #842, #1198 ) ;
#107 = ORIENTED_EDGE ( 'NONE', *, *, #172, .F. ) ;
#108 = LINE ( 'NONE', #578, #435 ) ;
#109 = DIRECTION ( 'NONE',  ( -0.000000000000000000, 1.000000000000000000, -0.000000000000000000 ) ) ;
#110 = EDGE_LOOP ( 'NONE', ( #998, #461, #1048, #695 ) ) ;
#111 = CIRCLE ( 'NONE', #702, 3.000000000000002665 ) ;
#112 = EDGE_CURVE ( 'NONE', #59, #997, #617, .T. ) ;
#113 = AXIS2_PLACEMENT_3D ( 'NONE', #159, #80, #164 ) ;
#114 = AXIS2_PLACEMENT_3D ( 'NONE', #36, #44, #730 ) ;
#115 = AXIS2_PLACEMENT_3D ( 'NONE', #187, #195, #889 ) ;
#116 = ORIENTED_EDGE ( 'NONE', *, *, #112, .T. ) ;
#117 = DIRECTION ( 'NONE',  ( 0.000000000000000000, 0.000000000000000000, 1.000000000000000000 ) ) ;
#118 = LINE ( 'NONE', #579, #721 ) ;
#119 = DIRECTION ( 'NONE',  ( 0.000000000000000000, 0.000000000000000000, -1.000000000000000000 ) ) ;
#120 = VERTEX_POINT ( 'NONE', #370 ) ;
#121 = DIRECTION ( 'NONE',  ( 0.000000000000000000, 0.000000000000000000, 1.000000000000000000 ) ) ;
#122 = EDGE_CURVE ( 'NONE', #953, #595, #245, .T. ) ;
#123 = CYLINDRICAL_SURFACE ( 'NONE', #603, 1.750000000000001554 ) ;
#124 = CARTESIAN_POINT ( 'NONE',  ( -96.00000000000001421, 2.000000000000000000, 50.00000000000000000 ) ) ;
#125 = EDGE_CURVE ( 'NONE', #729, #43, #963, .T. ) ;
#126 = ORIENTED_EDGE ( 'NONE', *, *, #196, .F. ) ;
#127 = DIRECTION ( 'NONE',  ( -0.000000000000000000, 1.000000000000000000, -0.000000000000000000 ) ) ;
#128 = ORIENTED_EDGE ( 'NONE', *, *, #724, .T. ) ;
#129 = CARTESIAN_POINT ( 'NONE',  ( -1.387778780781445676E-14, 0.000000000000000000, -50.00000000000000000 ) ) ;
#130 = CIRCLE ( 'NONE', #838, 1.750000000000001554 ) ;
#131 = VECTOR ( 'NONE', #682, 1000.000000000000000 ) ;
#132 = EDGE_LOOP ( 'NONE', ( #143, #35, #407, #170, #1013, #602, #1003, #1096, #618, #523, #514, #1118, #1069 ) ) ;
#133 = CARTESIAN_POINT ( 'NONE',  ( 92.99999999999998579, 2.000000000000000000, -47.00000000000000000 ) ) ;
#134 = ORIENTED_EDGE ( 'NONE', *, *, #925, .F. ) ;
#135 = EDGE_LOOP ( 'NONE', ( #63, #410, #894, #722 ) ) ;
#136 = ADVANCED_FACE ( 'NONE', ( #784, #411, #505, #888, #308, #701, #878, #408, #1075, #1086, #789 ), #216, .F. ) ;
#137 = CARTESIAN_POINT ( 'NONE',  ( 39.99999999999999289, 0.000000000000000000, -6.440000000000001279 ) ) ;
#138 = ORIENTED_EDGE ( 'NONE', *, *, #948, .T. ) ;
#139 = DIRECTION ( 'NONE',  ( 0.000000000000000000, 0.000000000000000000, 1.000000000000000000 ) ) ;
#140 = ADVANCED_FACE ( 'NONE', ( #302 ), #793, .F. ) ;
#141 = ADVANCED_FACE ( 'NONE', ( #596 ), #1165, .T. ) ;
#142 = DIRECTION ( 'NONE',  ( 0.000000000000000000, 0.000000000000000000, -1.000000000000000000 ) ) ;
#143 = ORIENTED_EDGE ( 'NONE', *, *, #891, .F. ) ;
#144 = DIRECTION ( 'NONE',  ( -0.000000000000000000, 1.000000000000000000, -0.000000000000000000 ) ) ;
#145 = VERTEX_POINT ( 'NONE', #606 ) ;
#146 = CARTESIAN_POINT ( 'NONE',  ( -10.58300524425836997, 2.000000000000000000, -50.00000000000000000 ) ) ;
#147 = CIRCLE ( 'NONE', #311, 3.000000000000002665 ) ;
#148 = FILL_AREA_STYLE ('',( #1204 ) ) ;
#149 = CARTESIAN_POINT ( 'NONE',  ( -20.00000000000001066, 0.000000000000000000, -4.690000000000003055 ) ) ;
#150 = COLOUR_RGB ( '',1.000000000000000000, 0.000000000000000000, 0.000000000000000000 ) ;
#151 = DIRECTION ( 'NONE',  ( 0.000000000000000000, 0.000000000000000000, -1.000000000000000000 ) ) ;
#152 = DIRECTION ( 'NONE',  ( -0.000000000000000000, 1.000000000000000000, -0.000000000000000000 ) ) ;
#153 = ADVANCED_FACE ( 'NONE', ( #4 ), #1182, .F. ) ;
#154 = CARTESIAN_POINT ( 'NONE',  ( -84.00000000000000000, 2.000000000000000000, 3.560000000000011156 ) ) ;
#155 = FACE_OUTER_BOUND ( 'NONE', #847, .T. ) ;
#156 = DIRECTION ( 'NONE',  ( -0.000000000000000000, 1.000000000000000000, -0.000000000000000000 ) ) ;
#157 = DIRECTION ( 'NONE',  ( 0.000000000000000000, 0.000000000000000000, 1.000000000000000000 ) ) ;
#158 = EDGE_LOOP ( 'NONE', ( #1143, #821, #913, #924 ) ) ;
#159 = CARTESIAN_POINT ( 'NONE',  ( 10.58300524425834688, 0.000000000000000000, -47.00000000000000000 ) ) ;
#160 = ORIENTED_EDGE ( 'NONE', *, *, #336, .T. ) ;
#161 = DIRECTION ( 'NONE',  ( 0.000000000000000000, 0.000000000000000000, -1.000000000000000000 ) ) ;
#162 = DIRECTION ( 'NONE',  ( 0.000000000000000000, -1.000000000000000000, 0.000000000000000000 ) ) ;
#163 = CYLINDRICAL_SURFACE ( 'NONE', #599, 3.000000000000002665 ) ;
#164 = DIRECTION ( 'NONE',  ( 0.000000000000000000, 0.000000000000000000, 1.000000000000000000 ) ) ;
#165 = AXIS2_PLACEMENT_3D ( 'NONE', #390, #991, #121 ) ;
#166 = ORIENTED_EDGE ( 'NONE', *, *, #647, .F. ) ;
#167 = CARTESIAN_POINT ( 'NONE',  ( 39.99999999999998579, 2.000000000000000000, -35.00000000000000000 ) ) ;
#168 = VECTOR ( 'NONE', #557, 1000.000000000000000 ) ;
#169 = CARTESIAN_POINT ( 'NONE',  ( 35.99999999999999289, 0.000000000000000000, 35.31000000000000938 ) ) ;
#170 = ORIENTED_EDGE ( 'NONE', *, *, #1022, .T. ) ;
#171 = AXIS2_PLACEMENT_3D ( 'NONE', #332, #1012, #142 ) ;
#172 = EDGE_CURVE ( 'NONE', #872, #927, #718, .T. ) ;
#173 = FACE_OUTER_BOUND ( 'NONE', #1214, .T. ) ;
#174 = EDGE_LOOP ( 'NONE', ( #928, #653 ) ) ;
#175 = FACE_BOUND ( 'NONE', #509, .T. ) ;
#176 = DIRECTION ( 'NONE',  ( -0.000000000000000000, 1.000000000000000000, -0.000000000000000000 ) ) ;
#177 = EDGE_CURVE ( 'NONE', #896, #79, #584, .T. ) ;
#178 = CYLINDRICAL_SURFACE ( 'NONE', #188, 1.749999999999998002 ) ;
#179 = CARTESIAN_POINT ( 'NONE',  ( 39.99999999999998579, 0.000000000000000000, -35.00000000000000000 ) ) ;
#180 = EDGE_LOOP ( 'NONE', ( #776, #316 ) ) ;
#181 = CARTESIAN_POINT ( 'NONE',  ( -91.00000000000000000, 2.000000000000000000, -45.74999999999999289 ) ) ;
#182 = DIRECTION ( 'NONE',  ( 0.000000000000000000, -1.000000000000000000, 0.000000000000000000 ) ) ;
#183 = EDGE_CURVE ( 'NONE', #1098, #120, #186, .T. ) ;
#184 = CARTESIAN_POINT ( 'NONE',  ( -84.00000000000000000, 0.000000000000000000, 35.31000000000000938 ) ) ;
#185 = ORIENTED_EDGE ( 'NONE', *, *, #15, .T. ) ;
#186 = LINE ( 'NONE', #286, #659 ) ;
#187 = CARTESIAN_POINT ( 'NONE',  ( -91.00000000000000000, 0.000000000000000000, -43.99999999999999289 ) ) ;
#188 = AXIS2_PLACEMENT_3D ( 'NONE', #277, #156, #262 ) ;
#189 = LINE ( 'NONE', #204, #314 ) ;
#190 = AXIS2_PLACEMENT_3D ( 'NONE', #895, #1115, #999 ) ;
#191 = STYLED_ITEM ( 'NONE', ( #68 ), #550 ) ;
#192 = CARTESIAN_POINT ( 'NONE',  ( -84.00000000000000000, 2.000000000000000000, 33.56000000000000938 ) ) ;
#193 = ORIENTED_EDGE ( 'NONE', *, *, #247, .F. ) ;
#194 = DIRECTION ( 'NONE',  ( -0.000000000000000000, 1.000000000000000000, -0.000000000000000000 ) ) ;
#195 = DIRECTION ( 'NONE',  ( 0.000000000000000000, -1.000000000000000000, 0.000000000000000000 ) ) ;
#196 = EDGE_CURVE ( 'NONE', #976, #420, #375, .T. ) ;
#197 = CARTESIAN_POINT ( 'NONE',  ( -20.00000000000001066, 0.000000000000000000, -36.75000000000000711 ) ) ;
#198 = VERTEX_POINT ( 'NONE', #677 ) ;
#199 = DIRECTION ( 'NONE',  ( -0.000000000000000000, 1.000000000000000000, -0.000000000000000000 ) ) ;
#200 = ORIENTED_EDGE ( 'NONE', *, *, #1247, .T. ) ;
#201 = FACE_OUTER_BOUND ( 'NONE', #356, .T. ) ;
#202 = CARTESIAN_POINT ( 'NONE',  ( 91.00000000000000000, 0.000000000000000000, -43.99999999999999289 ) ) ;
#203 = EDGE_CURVE ( 'NONE', #1239, #3, #108, .T. ) ;
#204 = CARTESIAN_POINT ( 'NONE',  ( -93.00000000000001421, 2.000000000000000000, -50.00000000000000000 ) ) ;
#205 = ORIENTED_EDGE ( 'NONE', *, *, #281, .T. ) ;
#206 = VERTEX_POINT ( 'NONE', #100 ) ;
#207 = DIRECTION ( 'NONE',  ( 0.000000000000000000, 0.000000000000000000, -1.000000000000000000 ) ) ;
#208 = CARTESIAN_POINT ( 'NONE',  ( -84.00000000000000000, 2.000000000000000000, 3.560000000000011156 ) ) ;
#209 = AXIS2_PLACEMENT_3D ( 'NONE', #9, #18, #1079 ) ;
#210 = FACE_OUTER_BOUND ( 'NONE', #671, .T. ) ;
#211 = VECTOR ( 'NONE', #694, 1000.000000000000000 ) ;
#212 = CIRCLE ( 'NONE', #921, 1.750000000000001554 ) ;
#213 = EDGE_CURVE ( 'NONE', #198, #1164, #1082, .T. ) ;
#214 = AXIS2_PLACEMENT_3D ( 'NONE', #129, #1009, #714 ) ;
#215 = ORIENTED_EDGE ( 'NONE', *, *, #289, .T. ) ;
#216 = PLANE ( 'NONE',  #594 ) ;
#217 = CYLINDRICAL_SURFACE ( 'NONE', #114, 3.000000000000002665 ) ;
#218 = EDGE_CURVE ( 'NONE', #3, #753, #899, .T. ) ;
#219 = ORIENTED_EDGE ( 'NONE', *, *, #1183, .T. ) ;
#220 = DIRECTION ( 'NONE',  ( 0.000000000000000000, -1.000000000000000000, 0.000000000000000000 ) ) ;
#221 = DIRECTION ( 'NONE',  ( 0.000000000000000000, 0.000000000000000000, -1.000000000000000000 ) ) ;
#222 = VERTEX_POINT ( 'NONE', #395 ) ;
#223 = CYLINDRICAL_SURFACE ( 'NONE', #534, 3.000000000000002665 ) ;
#224 = EDGE_LOOP ( 'NONE', ( #41, #905 ) ) ;
#225 = CARTESIAN_POINT ( 'NONE',  ( -84.00000000000000000, 2.000000000000000000, 35.31000000000000938 ) ) ;
#226 = CIRCLE ( 'NONE', #1186, 8.000000000000000000 ) ;
#227 = ORIENTED_EDGE ( 'NONE', *, *, #1080, .F. ) ;
#228 = CARTESIAN_POINT ( 'NONE',  ( -1.387778780781445676E-14, 0.000000000000000000, -50.00000000000000000 ) ) ;
#229 = AXIS2_PLACEMENT_3D ( 'NONE', #169, #83, #1053 ) ;
#230 = ORIENTED_EDGE ( 'NONE', *, *, #1032, .T. ) ;
#231 = ADVANCED_FACE ( 'NONE', ( #201 ), #496, .F. ) ;
#232 = LINE ( 'NONE', #1035, #841 ) ;
#233 = EDGE_LOOP ( 'NONE', ( #798, #279, #541, #657 ) ) ;
#234 = CARTESIAN_POINT ( 'NONE',  ( -91.00000000000000000, 2.000000000000000000, -43.99999999999999289 ) ) ;
#235 = ADVANCED_FACE ( 'NONE', ( #717 ), #1206, .F. ) ;
#236 = VERTEX_POINT ( 'NONE', #813 ) ;
#237 = CARTESIAN_POINT ( 'NONE',  ( -20.00000000000001066, 2.000000000000000000, -35.00000000000000000 ) ) ;
#238 = ADVANCED_FACE ( 'NONE', ( #1018 ), #425, .F. ) ;
#239 =( NAMED_UNIT ( * ) PLANE_ANGLE_UNIT ( ) SI_UNIT ( $, .RADIAN. ) );
#240 = VERTEX_POINT ( 'NONE', #918 ) ;
#241 = DIRECTION ( 'NONE',  ( -0.000000000000000000, 1.000000000000000000, -0.000000000000000000 ) ) ;
#242 = ORIENTED_EDGE ( 'NONE', *, *, #472, .T. ) ;
#243 = CARTESIAN_POINT ( 'NONE',  ( -10.58300524425837530, 0.000000000000000000, -47.00000000000000000 ) ) ;
#244 = EDGE_LOOP ( 'NONE', ( #624, #205, #866, #1078 ) ) ;
#245 = CIRCLE ( 'NONE', #29, 1.749999999999998002 ) ;
#246 = AXIS2_PLACEMENT_3D ( 'NONE', #458, #755, #1220 ) ;
#247 = EDGE_CURVE ( 'NONE', #1226, #1140, #226, .T. ) ;
#248 = CARTESIAN_POINT ( 'NONE',  ( -93.00000000000001421, 0.000000000000000000, -50.00000000000000000 ) ) ;
#249 = CARTESIAN_POINT ( 'NONE',  ( -20.00000000000001066, 2.000000000000000000, -33.25000000000000000 ) ) ;
#250 = ORIENTED_EDGE ( 'NONE', *, *, #213, .T. ) ;
#251 = CARTESIAN_POINT ( 'NONE',  ( -84.00000000000000000, 0.000000000000000000, 3.560000000000011156 ) ) ;
#252 = AXIS2_PLACEMENT_3D ( 'NONE', #256, #537, #626 ) ;
#253 = CARTESIAN_POINT ( 'NONE',  ( -10.58300524425836997, 2.000000000000000000, -50.00000000000000000 ) ) ;
#254 = DIRECTION ( 'NONE',  ( 0.000000000000000000, 0.000000000000000000, -1.000000000000000000 ) ) ;
#255 = EDGE_CURVE ( 'NONE', #495, #592, #597, .T. ) ;
#256 = CARTESIAN_POINT ( 'NONE',  ( 35.99999999999999289, 0.000000000000000000, 35.31000000000000938 ) ) ;
#257 = VERTEX_POINT ( 'NONE', #910 ) ;
#258 = LINE ( 'NONE', #952, #1248 ) ;
#259 = EDGE_LOOP ( 'NONE', ( #956, #39, #712, #1114 ) ) ;
#260 = CARTESIAN_POINT ( 'NONE',  ( 0.000000000000000000, 0.000000000000000000, 0.000000000000000000 ) ) ;
#261 = CARTESIAN_POINT ( 'NONE',  ( 39.99999999999998579, 0.000000000000000000, -35.00000000000000000 ) ) ;
#262 = DIRECTION ( 'NONE',  ( 0.000000000000000000, 0.000000000000000000, 1.000000000000000000 ) ) ;
#263 = CYLINDRICAL_SURFACE ( 'NONE', #331, 1.750000000000001554 ) ;
#264 = VERTEX_POINT ( 'NONE', #996 ) ;
#265 = CARTESIAN_POINT ( 'NONE',  ( -93.00000000000001421, 2.000000000000000000, -50.00000000000000000 ) ) ;
#266 = CARTESIAN_POINT ( 'NONE',  ( -84.00000000000000000, 2.000000000000000000, 5.310000000000012932 ) ) ;
#267 = DIRECTION ( 'NONE',  ( 0.000000000000000000, 0.000000000000000000, -1.000000000000000000 ) ) ;
#268 = ORIENTED_EDGE ( 'NONE', *, *, #125, .T. ) ;
#269 = DIRECTION ( 'NONE',  ( -0.000000000000000000, 1.000000000000000000, -0.000000000000000000 ) ) ;
#270 = ORIENTED_EDGE ( 'NONE', *, *, #247, .T. ) ;
#271 = DIRECTION ( 'NONE',  ( -0.000000000000000000, 1.000000000000000000, -0.000000000000000000 ) ) ;
#272 = EDGE_CURVE ( 'NONE', #22, #1077, #456, .T. ) ;
#273 = CIRCLE ( 'NONE', #96, 3.000000000000002665 ) ;
#274 = DIRECTION ( 'NONE',  ( 0.000000000000000000, 0.000000000000000000, -1.000000000000000000 ) ) ;
#275 = ADVANCED_FACE ( 'NONE', ( #1119 ), #223, .T. ) ;
#276 = VECTOR ( 'NONE', #46, 1000.000000000000000 ) ;
#277 = CARTESIAN_POINT ( 'NONE',  ( -20.00000000000001066, 2.000000000000000000, -4.690000000000003055 ) ) ;
#278 = CARTESIAN_POINT ( 'NONE',  ( -91.00000000000000000, 2.000000000000000000, -42.24999999999998579 ) ) ;
#279 = ORIENTED_EDGE ( 'NONE', *, *, #994, .T. ) ;
#280 = DIRECTION ( 'NONE',  ( 1.000000000000000000, 0.000000000000000000, -0.000000000000000000 ) ) ;
#281 = EDGE_CURVE ( 'NONE', #753, #788, #616, .T. ) ;
#282 = CARTESIAN_POINT ( 'NONE',  ( -93.00000000000001421, 0.000000000000000000, 47.00000000000000000 ) ) ;
#283 = EDGE_CURVE ( 'NONE', #206, #1140, #111, .T. ) ;
#284 = DIRECTION ( 'NONE',  ( 0.000000000000000000, -1.000000000000000000, 0.000000000000000000 ) ) ;
#285 = ORIENTED_EDGE ( 'NONE', *, *, #1052, .F. ) ;
#286 = CARTESIAN_POINT ( 'NONE',  ( -96.00000000000001421, 2.000000000000000000, 50.00000000000000000 ) ) ;
#287 = CARTESIAN_POINT ( 'NONE',  ( -1.387778780781445676E-14, 0.000000000000000000, -42.00000000000000000 ) ) ;
#288 = EDGE_CURVE ( 'NONE', #400, #1060, #12, .T. ) ;
#289 = EDGE_CURVE ( 'NONE', #595, #953, #351, .T. ) ;
#290 = ORIENTED_EDGE ( 'NONE', *, *, #218, .T. ) ;
#291 = CARTESIAN_POINT ( 'NONE',  ( 92.99999999999998579, 2.000000000000000000, -47.00000000000000000 ) ) ;
#292 = AXIS2_PLACEMENT_3D ( 'NONE', #893, #23, #873 ) ;
#293 = VECTOR ( 'NONE', #885, 1000.000000000000000 ) ;
#294 = PRESENTATION_STYLE_ASSIGNMENT (( #1167 ) ) ;
#295 = ORIENTED_EDGE ( 'NONE', *, *, #1116, .F. ) ;
#296 = FACE_OUTER_BOUND ( 'NONE', #135, .T. ) ;
#297 = ORIENTED_EDGE ( 'NONE', *, *, #438, .T. ) ;
#298 = CARTESIAN_POINT ( 'NONE',  ( 0.000000000000000000, 2.000000000000000000, 0.000000000000000000 ) ) ;
#299 = CARTESIAN_POINT ( 'NONE',  ( -96.00000000000001421, 0.000000000000000000, -50.00000000000000000 ) ) ;
#300 = DIRECTION ( 'NONE',  ( 0.000000000000000000, 0.000000000000000000, 1.000000000000000000 ) ) ;
#301 = ORIENTED_EDGE ( 'NONE', *, *, #914, .T. ) ;
#302 = FACE_OUTER_BOUND ( 'NONE', #1112, .T. ) ;
#303 = EDGE_CURVE ( 'NONE', #788, #1085, #147, .T. ) ;
#304 = EDGE_CURVE ( 'NONE', #783, #525, #48, .T. ) ;
#305 = LINE ( 'NONE', #1163, #840 ) ;
#306 = APPLICATION_CONTEXT ( 'automotive_design' ) ;
#307 = VERTEX_POINT ( 'NONE', #1216 ) ;
#308 = FACE_BOUND ( 'NONE', #520, .T. ) ;
#309 = EDGE_CURVE ( 'NONE', #1164, #198, #396, .T. ) ;
#310 = VERTEX_POINT ( 'NONE', #513 ) ;
#311 = AXIS2_PLACEMENT_3D ( 'NONE', #325, #728, #540 ) ;
#312 = CARTESIAN_POINT ( 'NONE',  ( -84.00000000000000000, 2.000000000000000000, 5.310000000000012932 ) ) ;
#313 = AXIS2_PLACEMENT_3D ( 'NONE', #1158, #651, #1249 ) ;
#314 = VECTOR ( 'NONE', #699, 1000.000000000000000 ) ;
#315 = VECTOR ( 'NONE', #397, 1000.000000000000000 ) ;
#316 = ORIENTED_EDGE ( 'NONE', *, *, #1054, .F. ) ;
#317 = DIRECTION ( 'NONE',  ( 0.000000000000000000, 0.000000000000000000, -1.000000000000000000 ) ) ;
#318 = CARTESIAN_POINT ( 'NONE',  ( -20.00000000000001066, 2.000000000000000000, -35.00000000000000000 ) ) ;
#319 = ADVANCED_FACE ( 'NONE', ( #898 ), #1196, .F. ) ;
#320 = ORIENTED_EDGE ( 'NONE', *, *, #690, .T. ) ;
#321 = CARTESIAN_POINT ( 'NONE',  ( 95.99999999999998579, 2.000000000000000000, -47.00000000000000000 ) ) ;
#322 = APPLICATION_CONTEXT ( 'automotive_design' ) ;
#323 = DIRECTION ( 'NONE',  ( -0.000000000000000000, 1.000000000000000000, -0.000000000000000000 ) ) ;
#324 = ORIENTED_EDGE ( 'NONE', *, *, #528, .T. ) ;
#325 = CARTESIAN_POINT ( 'NONE',  ( 92.99999999999998579, 0.000000000000000000, -47.00000000000000000 ) ) ;
#326 = EDGE_CURVE ( 'NONE', #1085, #3, #38, .T. ) ;
#327 = ORIENTED_EDGE ( 'NONE', *, *, #55, .T. ) ;
#328 = CYLINDRICAL_SURFACE ( 'NONE', #864, 1.750000000000001554 ) ;
#329 = AXIS2_PLACEMENT_3D ( 'NONE', #977, #1061, #985 ) ;
#330 = AXIS2_PLACEMENT_3D ( 'NONE', #487, #403, #117 ) ;
#331 = AXIS2_PLACEMENT_3D ( 'NONE', #843, #269, #345 ) ;
#332 = CARTESIAN_POINT ( 'NONE',  ( 35.99999999999999289, 0.000000000000000000, 5.310000000000012932 ) ) ;
#333 = ORIENTED_EDGE ( 'NONE', *, *, #304, .T. ) ;
#334 = DIRECTION ( 'NONE',  ( 0.000000000000000000, 0.000000000000000000, 1.000000000000000000 ) ) ;
#335 = VECTOR ( 'NONE', #102, 1000.000000000000000 ) ;
#336 = EDGE_CURVE ( 'NONE', #715, #62, #800, .T. ) ;
#337 = FACE_OUTER_BOUND ( 'NONE', #1147, .T. ) ;
#338 = ORIENTED_EDGE ( 'NONE', *, *, #994, .F. ) ;
#339 = CARTESIAN_POINT ( 'NONE',  ( 91.00000000000000000, 2.000000000000000000, -43.99999999999999289 ) ) ;
#340 = ORIENTED_EDGE ( 'NONE', *, *, #801, .F. ) ;
#341 = CARTESIAN_POINT ( 'NONE',  ( 91.00000000000000000, 0.000000000000000000, -45.74999999999999289 ) ) ;
#342 = ADVANCED_FACE ( 'NONE', ( #661 ), #1139, .F. ) ;
#343 = CARTESIAN_POINT ( 'NONE',  ( -20.00000000000001066, 2.000000000000000000, -4.690000000000003055 ) ) ;
#344 = EDGE_LOOP ( 'NONE', ( #646, #419 ) ) ;
#345 = DIRECTION ( 'NONE',  ( 0.000000000000000000, 0.000000000000000000, 1.000000000000000000 ) ) ;
#346 = VERTEX_POINT ( 'NONE', #744 ) ;
#347 = VERTEX_POINT ( 'NONE', #1056 ) ;
#348 = EDGE_CURVE ( 'NONE', #1181, #976, #734, .T. ) ;
#349 = DIRECTION ( 'NONE',  ( 0.000000000000000000, 0.000000000000000000, -1.000000000000000000 ) ) ;
#350 = DIRECTION ( 'NONE',  ( -0.000000000000000000, 1.000000000000000000, -0.000000000000000000 ) ) ;
#351 = CIRCLE ( 'NONE', #941, 1.749999999999998002 ) ;
#352 = FACE_OUTER_BOUND ( 'NONE', #104, .T. ) ;
#353 = CARTESIAN_POINT ( 'NONE',  ( 92.99999999999998579, 0.000000000000000000, 47.00000000000000000 ) ) ;
#354 = CIRCLE ( 'NONE', #761, 1.750000000000001554 ) ;
#355 = VECTOR ( 'NONE', #524, 1000.000000000000000 ) ;
#356 = EDGE_LOOP ( 'NONE', ( #615, #1015, #809, #362 ) ) ;
#357 = DIRECTION ( 'NONE',  ( 0.000000000000000000, 0.000000000000000000, 1.000000000000000000 ) ) ;
#358 =( GEOMETRIC_REPRESENTATION_CONTEXT ( 3 ) GLOBAL_UNCERTAINTY_ASSIGNED_CONTEXT ( ( #423 ) ) GLOBAL_UNIT_ASSIGNED_CONTEXT ( ( #1203, #436, #1005 ) ) REPRESENTATION_CONTEXT ( 'NONE', 'WORKASPACE' ) );
#359 = CARTESIAN_POINT ( 'NONE',  ( 35.99999999999999289, 2.000000000000000000, 5.310000000000012932 ) ) ;
#360 = EDGE_CURVE ( 'NONE', #495, #1077, #1133, .T. ) ;
#361 = CARTESIAN_POINT ( 'NONE',  ( -91.00000000000000000, 0.000000000000000000, -42.24999999999998579 ) ) ;
#362 = ORIENTED_EDGE ( 'NONE', *, *, #348, .F. ) ;
#363 = DIRECTION ( 'NONE',  ( -0.000000000000000000, 1.000000000000000000, -0.000000000000000000 ) ) ;
#364 = CARTESIAN_POINT ( 'NONE',  ( -7.696731086733369587, 2.000000000000000000, -47.81818181818182012 ) ) ;
#365 = EDGE_CURVE ( 'NONE', #946, #1145, #130, .T. ) ;
#366 = ORIENTED_EDGE ( 'NONE', *, *, #369, .T. ) ;
#367 = LINE ( 'NONE', #945, #131 ) ;
#368 = ORIENTED_EDGE ( 'NONE', *, *, #288, .F. ) ;
#369 = EDGE_CURVE ( 'NONE', #829, #95, #258, .T. ) ;
#370 = CARTESIAN_POINT ( 'NONE',  ( 92.99999999999998579, 2.000000000000000000, 50.00000000000000000 ) ) ;
#371 = CARTESIAN_POINT ( 'NONE',  ( 91.00000000000000000, 0.000000000000000000, -43.99999999999999289 ) ) ;
#372 = DIRECTION ( 'NONE',  ( -0.000000000000000000, 1.000000000000000000, -0.000000000000000000 ) ) ;
#373 = VECTOR ( 'NONE', #774, 1000.000000000000000 ) ;
#374 = DIRECTION ( 'NONE',  ( 0.000000000000000000, 0.000000000000000000, -1.000000000000000000 ) ) ;
#375 = CIRCLE ( 'NONE', #209, 1.750000000000001554 ) ;
#376 = CIRCLE ( 'NONE', #576, 3.000000000000002665 ) ;
#377 = ORIENTED_EDGE ( 'NONE', *, *, #1162, .T. ) ;
#378 = DIRECTION ( 'NONE',  ( -0.000000000000000000, 1.000000000000000000, -0.000000000000000000 ) ) ;
#379 = AXIS2_PLACEMENT_3D ( 'NONE', #243, #1095, #920 ) ;
#380 = CARTESIAN_POINT ( 'NONE',  ( -84.00000000000000000, 0.000000000000000000, 37.06000000000000938 ) ) ;
#381 = VERTEX_POINT ( 'NONE', #249 ) ;
#382 = AXIS2_PLACEMENT_3D ( 'NONE', #837, #176, #1042 ) ;
#383 = CIRCLE ( 'NONE', #171, 1.749999999999998002 ) ;
#384 = LINE ( 'NONE', #1066, #983 ) ;
#385 = EDGE_LOOP ( 'NONE', ( #995, #716 ) ) ;
#386 = CARTESIAN_POINT ( 'NONE',  ( -96.00000000000001421, 0.000000000000000000, 47.00000000000000000 ) ) ;
#387 = CARTESIAN_POINT ( 'NONE',  ( 92.99999999999998579, 0.000000000000000000, -50.00000000000000000 ) ) ;
#388 = DIRECTION ( 'NONE',  ( 0.000000000000000000, 0.000000000000000000, 1.000000000000000000 ) ) ;
#389 = ORIENTED_EDGE ( 'NONE', *, *, #1194, .T. ) ;
#390 = CARTESIAN_POINT ( 'NONE',  ( -84.00000000000000000, 2.000000000000000000, 35.31000000000000938 ) ) ;
#391 = LINE ( 'NONE', #409, #1211 ) ;
#392 = ORIENTED_EDGE ( 'NONE', *, *, #281, .F. ) ;
#393 = DIRECTION ( 'NONE',  ( -0.000000000000000000, 1.000000000000000000, -0.000000000000000000 ) ) ;
#394 = VERTEX_POINT ( 'NONE', #85 ) ;
#395 = CARTESIAN_POINT ( 'NONE',  ( 35.99999999999999289, 0.000000000000000000, 33.56000000000000938 ) ) ;
#396 = CIRCLE ( 'NONE', #1064, 1.750000000000001554 ) ;
#397 = DIRECTION ( 'NONE',  ( -0.000000000000000000, 1.000000000000000000, -0.000000000000000000 ) ) ;
#398 = AXIS2_PLACEMENT_3D ( 'NONE', #184, #871, #876 ) ;
#399 = COLOUR_RGB ( '',1.000000000000000000, 0.000000000000000000, 0.000000000000000000 ) ;
#400 = VERTEX_POINT ( 'NONE', #1031 ) ;
#401 = AXIS2_PLACEMENT_3D ( 'NONE', #282, #1229, #151 ) ;
#402 = EDGE_LOOP ( 'NONE', ( #973, #116, #642, #268 ) ) ;
#403 = DIRECTION ( 'NONE',  ( -0.000000000000000000, 1.000000000000000000, -0.000000000000000000 ) ) ;
#404 = DIRECTION ( 'NONE',  ( 0.000000000000000000, -1.000000000000000000, 0.000000000000000000 ) ) ;
#405 = LINE ( 'NONE', #581, #211 ) ;
#406 = ADVANCED_FACE ( 'NONE', ( #173 ), #670, .T. ) ;
#407 = ORIENTED_EDGE ( 'NONE', *, *, #1044, .F. ) ;
#408 = FACE_BOUND ( 'NONE', #1057, .T. ) ;
#409 = CARTESIAN_POINT ( 'NONE',  ( -96.00000000000001421, 2.000000000000000000, 47.00000000000000000 ) ) ;
#410 = ORIENTED_EDGE ( 'NONE', *, *, #122, .T. ) ;
#411 = FACE_BOUND ( 'NONE', #736, .T. ) ;
#412 = EDGE_CURVE ( 'NONE', #43, #729, #782, .T. ) ;
#413 = AXIS2_PLACEMENT_3D ( 'NONE', #33, #127, #530 ) ;
#414 = DIRECTION ( 'NONE',  ( 0.000000000000000000, 0.000000000000000000, 1.000000000000000000 ) ) ;
#415 = ORIENTED_EDGE ( 'NONE', *, *, #711, .F. ) ;
#416 = CIRCLE ( 'NONE', #1067, 1.750000000000001554 ) ;
#417 = ORIENTED_EDGE ( 'NONE', *, *, #1176, .F. ) ;
#418 = DIRECTION ( 'NONE',  ( -1.000000000000000000, 0.000000000000000000, 0.000000000000000000 ) ) ;
#419 = ORIENTED_EDGE ( 'NONE', *, *, #122, .F. ) ;
#420 = VERTEX_POINT ( 'NONE', #959 ) ;
#421 = CARTESIAN_POINT ( 'NONE',  ( -20.00000000000001066, 0.000000000000000000, -6.440000000000001279 ) ) ;
#422 = ADVANCED_FACE ( 'NONE', ( #474 ), #641, .F. ) ;
#423 = UNCERTAINTY_MEASURE_WITH_UNIT (LENGTH_MEASURE( 1.000000000000000082E-05 ), #1203, 'distance_accuracy_value', 'NONE');
#424 = ORIENTED_EDGE ( 'NONE', *, *, #177, .T. ) ;
#425 = CYLINDRICAL_SURFACE ( 'NONE', #965, 1.749999999999998002 ) ;
#426 = ORIENTED_EDGE ( 'NONE', *, *, #570, .T. ) ;
#427 = CARTESIAN_POINT ( 'NONE',  ( -93.00000000000001421, 2.000000000000000000, 50.00000000000000000 ) ) ;
#428 = ADVANCED_FACE ( 'NONE', ( #1024 ), #263, .F. ) ;
#429 = APPLICATION_PROTOCOL_DEFINITION ( 'draft international standard', 'automotive_design', 1998, #306 ) ;
#430 = ORIENTED_EDGE ( 'NONE', *, *, #183, .T. ) ;
#431 = DIRECTION ( 'NONE',  ( -0.000000000000000000, 1.000000000000000000, -0.000000000000000000 ) ) ;
#432 = EDGE_LOOP ( 'NONE', ( #892, #320, #792, #650 ) ) ;
#433 = DIRECTION ( 'NONE',  ( 0.000000000000000000, -1.000000000000000000, 0.000000000000000000 ) ) ;
#434 = CIRCLE ( 'NONE', #836, 8.000000000000000000 ) ;
#435 = VECTOR ( 'NONE', #974, 1000.000000000000000 ) ;
#436 =( NAMED_UNIT ( * ) PLANE_ANGLE_UNIT ( ) SI_UNIT ( $, .RADIAN. ) );
#437 = AXIS2_PLACEMENT_3D ( 'NONE', #1152, #494, #870 ) ;
#438 = EDGE_CURVE ( 'NONE', #1077, #22, #637, .T. ) ;
#439 = DIRECTION ( 'NONE',  ( -0.000000000000000000, 1.000000000000000000, -0.000000000000000000 ) ) ;
#440 = ORIENTED_EDGE ( 'NONE', *, *, #1183, .F. ) ;
#441 = CARTESIAN_POINT ( 'NONE',  ( -20.00000000000001066, 2.000000000000000000, -36.75000000000000711 ) ) ;
#442 = VECTOR ( 'NONE', #704, 1000.000000000000000 ) ;
#443 = ADVANCED_FACE ( 'NONE', ( #549 ), #652, .F. ) ;
#444 = DIRECTION ( 'NONE',  ( -0.000000000000000000, 1.000000000000000000, -0.000000000000000000 ) ) ;
#445 = DIRECTION ( 'NONE',  ( -0.000000000000000000, 1.000000000000000000, -0.000000000000000000 ) ) ;
#446 = EDGE_CURVE ( 'NONE', #394, #206, #833, .T. ) ;
#447 = ORIENTED_EDGE ( 'NONE', *, *, #412, .F. ) ;
#448 = CYLINDRICAL_SURFACE ( 'NONE', #884, 8.000000000000000000 ) ;
#449 = LINE ( 'NONE', #916, #276 ) ;
#450 = DIRECTION ( 'NONE',  ( 0.000000000000000000, 0.000000000000000000, 1.000000000000000000 ) ) ;
#451 = ORIENTED_EDGE ( 'NONE', *, *, #738, .F. ) ;
#452 = FACE_BOUND ( 'NONE', #685, .T. ) ;
#453 = DIRECTION ( 'NONE',  ( -0.000000000000000000, 1.000000000000000000, -0.000000000000000000 ) ) ;
#454 = CARTESIAN_POINT ( 'NONE',  ( -10.58300524425837530, 0.000000000000000000, -47.00000000000000000 ) ) ;
#455 = AXIS2_PLACEMENT_3D ( 'NONE', #1034, #271, #482 ) ;
#456 = CIRCLE ( 'NONE', #556, 1.750000000000001554 ) ;
#457 = DIRECTION ( 'NONE',  ( -0.000000000000000000, 1.000000000000000000, -0.000000000000000000 ) ) ;
#458 = CARTESIAN_POINT ( 'NONE',  ( -96.00000000000001421, 2.000000000000000000, 50.00000000000000000 ) ) ;
#459 = CIRCLE ( 'NONE', #52, 3.000000000000002665 ) ;
#460 = AXIS2_PLACEMENT_3D ( 'NONE', #312, #1091, #1175 ) ;
#461 = ORIENTED_EDGE ( 'NONE', *, *, #1010, .T. ) ;
#462 = CARTESIAN_POINT ( 'NONE',  ( -20.00000000000001066, 2.000000000000000000, -4.690000000000003055 ) ) ;
#463 = LINE ( 'NONE', #253, #640 ) ;
#464 = EDGE_CURVE ( 'NONE', #605, #236, #376, .T. ) ;
#465 = FACE_OUTER_BOUND ( 'NONE', #773, .T. ) ;
#466 = ORIENTED_EDGE ( 'NONE', *, *, #667, .T. ) ;
#467 = CARTESIAN_POINT ( 'NONE',  ( -84.00000000000000000, 2.000000000000000000, 5.310000000000012932 ) ) ;
#468 = ORIENTED_EDGE ( 'NONE', *, *, #365, .F. ) ;
#469 = DIRECTION ( 'NONE',  ( 0.000000000000000000, -1.000000000000000000, 0.000000000000000000 ) ) ;
#470 = CARTESIAN_POINT ( 'NONE',  ( -84.00000000000000000, 0.000000000000000000, 33.56000000000000938 ) ) ;
#471 = DIRECTION ( 'NONE',  ( -0.000000000000000000, 1.000000000000000000, -0.000000000000000000 ) ) ;
#472 = EDGE_CURVE ( 'NONE', #222, #257, #1154, .T. ) ;
#473 = ORIENTED_EDGE ( 'NONE', *, *, #590, .F. ) ;
#474 = FACE_OUTER_BOUND ( 'NONE', #778, .T. ) ;
#475 = ORIENTED_EDGE ( 'NONE', *, *, #1176, .T. ) ;
#476 = DIRECTION ( 'NONE',  ( 0.000000000000000000, 0.000000000000000000, 1.000000000000000000 ) ) ;
#477 = CYLINDRICAL_SURFACE ( 'NONE', #382, 1.750000000000001554 ) ;
#478 = DIRECTION ( 'NONE',  ( 0.000000000000000000, 0.000000000000000000, 1.000000000000000000 ) ) ;
#479 = CIRCLE ( 'NONE', #981, 1.750000000000001554 ) ;
#480 = DIRECTION ( 'NONE',  ( -0.000000000000000000, 1.000000000000000000, -0.000000000000000000 ) ) ;
#481 = ORIENTED_EDGE ( 'NONE', *, *, #112, .F. ) ;
#482 = DIRECTION ( 'NONE',  ( 0.000000000000000000, 0.000000000000000000, 1.000000000000000000 ) ) ;
#483 = LINE ( 'NONE', #299, #335 ) ;
#484 = CIRCLE ( 'NONE', #1047, 1.750000000000001554 ) ;
#485 = PRODUCT_DEFINITION_SHAPE ( 'NONE', 'NONE',  #106 ) ;
#486 = ORIENTED_EDGE ( 'NONE', *, *, #1209, .T. ) ;
#487 = CARTESIAN_POINT ( 'NONE',  ( 91.00000000000000000, 2.000000000000000000, -43.99999999999999289 ) ) ;
#488 = EDGE_CURVE ( 'NONE', #264, #310, #70, .T. ) ;
#489 = CARTESIAN_POINT ( 'NONE',  ( 39.99999999999999289, 0.000000000000000000, -2.940000000000005276 ) ) ;
#490 = LINE ( 'NONE', #880, #1153 ) ;
#491 = ORIENTED_EDGE ( 'NONE', *, *, #630, .T. ) ;
#492 = DIRECTION ( 'NONE',  ( -0.000000000000000000, 1.000000000000000000, -0.000000000000000000 ) ) ;
#493 = CARTESIAN_POINT ( 'NONE',  ( 92.99999999999998579, 2.000000000000000000, 50.00000000000000000 ) ) ;
#494 = DIRECTION ( 'NONE',  ( -0.000000000000000000, 1.000000000000000000, -0.000000000000000000 ) ) ;
#495 = VERTEX_POINT ( 'NONE', #361 ) ;
#496 = CYLINDRICAL_SURFACE ( 'NONE', #1207, 1.749999999999998002 ) ;
#497 = AXIS2_PLACEMENT_3D ( 'NONE', #228, #623, #1007 ) ;
#498 = CARTESIAN_POINT ( 'NONE',  ( 7.696731086733342053, 2.000000000000000000, -47.81818181818182012 ) ) ;
#499 = CARTESIAN_POINT ( 'NONE',  ( -84.00000000000000000, 0.000000000000000000, 5.310000000000012932 ) ) ;
#500 = EDGE_LOOP ( 'NONE', ( #81, #1072 ) ) ;
#501 = EDGE_CURVE ( 'NONE', #997, #729, #367, .T. ) ;
#502 = AXIS2_PLACEMENT_3D ( 'NONE', #261, #162, #553 ) ;
#503 = EDGE_CURVE ( 'NONE', #1102, #1028, #1084, .T. ) ;
#504 = ORIENTED_EDGE ( 'NONE', *, *, #326, .F. ) ;
#505 = FACE_BOUND ( 'NONE', #224, .T. ) ;
#506 = LINE ( 'NONE', #1255, #707 ) ;
#507 = CARTESIAN_POINT ( 'NONE',  ( 35.99999999999999289, 0.000000000000000000, 7.060000000000011156 ) ) ;
#508 = ADVANCED_FACE ( 'NONE', ( #1170 ), #1251, .F. ) ;
#509 = EDGE_LOOP ( 'NONE', ( #468, #295 ) ) ;
#510 = CARTESIAN_POINT ( 'NONE',  ( -84.00000000000000000, 2.000000000000000000, 35.31000000000000938 ) ) ;
#511 = LINE ( 'NONE', #1212, #601 ) ;
#512 = ORIENTED_EDGE ( 'NONE', *, *, #1192, .T. ) ;
#513 = CARTESIAN_POINT ( 'NONE',  ( 35.99999999999999289, 2.000000000000000000, 37.06000000000000938 ) ) ;
#514 = ORIENTED_EDGE ( 'NONE', *, *, #604, .T. ) ;
#515 = AXIS2_PLACEMENT_3D ( 'NONE', #906, #418, #806 ) ;
#516 = EDGE_CURVE ( 'NONE', #780, #145, #384, .T. ) ;
#517 = AXIS2_PLACEMENT_3D ( 'NONE', #1180, #109, #300 ) ;
#518 = VECTOR ( 'NONE', #908, 1000.000000000000000 ) ;
#519 = VECTOR ( 'NONE', #1136, 1000.000000000000000 ) ;
#520 = EDGE_LOOP ( 'NONE', ( #126, #285 ) ) ;
#521 = CARTESIAN_POINT ( 'NONE',  ( 10.58300524425834688, 2.000000000000000000, -47.00000000000000000 ) ) ;
#522 = EDGE_LOOP ( 'NONE', ( #787, #504, #531, #392 ) ) ;
#523 = ORIENTED_EDGE ( 'NONE', *, *, #903, .F. ) ;
#524 = DIRECTION ( 'NONE',  ( -1.000000000000000000, -0.000000000000000000, -0.000000000000000000 ) ) ;
#525 = VERTEX_POINT ( 'NONE', #772 ) ;
#526 = DIRECTION ( 'NONE',  ( 0.000000000000000000, 0.000000000000000000, 1.000000000000000000 ) ) ;
#527 = ORIENTED_EDGE ( 'NONE', *, *, #488, .T. ) ;
#528 = EDGE_CURVE ( 'NONE', #1028, #872, #863, .T. ) ;
#529 = ORIENTED_EDGE ( 'NONE', *, *, #903, .T. ) ;
#530 = DIRECTION ( 'NONE',  ( 0.000000000000000000, 0.000000000000000000, 1.000000000000000000 ) ) ;
#531 = ORIENTED_EDGE ( 'NONE', *, *, #303, .F. ) ;
#532 = DIRECTION ( 'NONE',  ( 0.000000000000000000, 0.000000000000000000, 1.000000000000000000 ) ) ;
#533 = ORIENTED_EDGE ( 'NONE', *, *, #868, .F. ) ;
#534 = AXIS2_PLACEMENT_3D ( 'NONE', #133, #220, #317 ) ;
#535 = AXIS2_PLACEMENT_3D ( 'NONE', #587, #393, #388 ) ;
#536 = ADVANCED_FACE ( 'NONE', ( #296 ), #689, .F. ) ;
#537 = DIRECTION ( 'NONE',  ( 0.000000000000000000, -1.000000000000000000, 0.000000000000000000 ) ) ;
#538 = CIRCLE ( 'NONE', #229, 1.750000000000001554 ) ;
#539 = ORIENTED_EDGE ( 'NONE', *, *, #503, .T. ) ;
#540 = DIRECTION ( 'NONE',  ( 0.000000000000000000, 0.000000000000000000, -1.000000000000000000 ) ) ;
#541 = ORIENTED_EDGE ( 'NONE', *, *, #348, .T. ) ;
#542 = DIRECTION ( 'NONE',  ( 0.000000000000000000, 0.000000000000000000, 1.000000000000000000 ) ) ;
#543 = CARTESIAN_POINT ( 'NONE',  ( -91.00000000000000000, 2.000000000000000000, -43.99999999999999289 ) ) ;
#544 = ADVANCED_FACE ( 'NONE', ( #748 ), #178, .F. ) ;
#545 = ORIENTED_EDGE ( 'NONE', *, *, #91, .F. ) ;
#546 = FACE_OUTER_BOUND ( 'NONE', #132, .T. ) ;
#547 = CARTESIAN_POINT ( 'NONE',  ( -93.00000000000001421, 2.000000000000000000, 50.00000000000000000 ) ) ;
#548 = DIRECTION ( 'NONE',  ( 0.000000000000000000, 0.000000000000000000, -1.000000000000000000 ) ) ;
#549 = FACE_OUTER_BOUND ( 'NONE', #69, .T. ) ;
#550 = ADVANCED_BREP_SHAPE_REPRESENTATION ( 'piastra thearen2', ( #825, #1068 ), #1172 ) ;
#551 = ORIENTED_EDGE ( 'NONE', *, *, #1209, .F. ) ;
#552 = DIRECTION ( 'NONE',  ( 0.000000000000000000, -1.000000000000000000, 0.000000000000000000 ) ) ;
#553 = DIRECTION ( 'NONE',  ( 0.000000000000000000, 0.000000000000000000, -1.000000000000000000 ) ) ;
#554 = ADVANCED_FACE ( 'NONE', ( #1129 ), #771, .F. ) ;
#555 = LINE ( 'NONE', #942, #30 ) ;
#556 = AXIS2_PLACEMENT_3D ( 'NONE', #234, #1190, #628 ) ;
#557 = DIRECTION ( 'NONE',  ( -0.000000000000000000, 1.000000000000000000, 0.000000000000000000 ) ) ;
#558 = VERTEX_POINT ( 'NONE', #1036 ) ;
#559 = DIRECTION ( 'NONE',  ( -0.000000000000000000, 1.000000000000000000, -0.000000000000000000 ) ) ;
#560 = CIRCLE ( 'NONE', #688, 1.750000000000001554 ) ;
#561 = DIRECTION ( 'NONE',  ( 0.000000000000000000, -1.000000000000000000, 0.000000000000000000 ) ) ;
#562 = ADVANCED_FACE ( 'NONE', ( #78 ), #163, .T. ) ;
#563 = DIRECTION ( 'NONE',  ( 0.000000000000000000, 0.000000000000000000, -1.000000000000000000 ) ) ;
#564 = DIRECTION ( 'NONE',  ( -0.000000000000000000, 1.000000000000000000, -0.000000000000000000 ) ) ;
#565 = EDGE_LOOP ( 'NONE', ( #8, #663, #32, #828 ) ) ;
#566 = FACE_OUTER_BOUND ( 'NONE', #244, .T. ) ;
#567 = CARTESIAN_POINT ( 'NONE',  ( 95.99999999999998579, 0.000000000000000000, -47.00000000000000000 ) ) ;
#568 = CARTESIAN_POINT ( 'NONE',  ( -91.00000000000000000, 0.000000000000000000, -45.74999999999999289 ) ) ;
#569 = DIRECTION ( 'NONE',  ( 0.000000000000000000, 0.000000000000000000, 1.000000000000000000 ) ) ;
#570 = EDGE_CURVE ( 'NONE', #844, #198, #555, .T. ) ;
#571 = ORIENTED_EDGE ( 'NONE', *, *, #767, .F. ) ;
#572 = FACE_BOUND ( 'NONE', #180, .T. ) ;
#573 = CARTESIAN_POINT ( 'NONE',  ( 95.99999999999998579, 0.000000000000000000, 47.00000000000000000 ) ) ;
#574 = ADVANCED_FACE ( 'NONE', ( #465 ), #848, .F. ) ;
#575 = VECTOR ( 'NONE', #564, 1000.000000000000000 ) ;
#576 = AXIS2_PLACEMENT_3D ( 'NONE', #353, #1049, #645 ) ;
#577 = ORIENTED_EDGE ( 'NONE', *, *, #203, .T. ) ;
#578 = CARTESIAN_POINT ( 'NONE',  ( 95.99999999999998579, 2.000000000000000000, 50.00000000000000000 ) ) ;
#579 = CARTESIAN_POINT ( 'NONE',  ( 7.696731086733342053, 0.000000000000000000, -47.81818181818182012 ) ) ;
#580 = AXIS2_PLACEMENT_3D ( 'NONE', #858, #1246, #67 ) ;
#581 = CARTESIAN_POINT ( 'NONE',  ( -1.387778780781445676E-14, 0.000000000000000000, -42.00000000000000000 ) ) ;
#582 = DIRECTION ( 'NONE',  ( -0.000000000000000000, 1.000000000000000000, -0.000000000000000000 ) ) ;
#583 = VERTEX_POINT ( 'NONE', #364 ) ;
#584 = LINE ( 'NONE', #26, #1041 ) ;
#585 = LINE ( 'NONE', #493, #1109 ) ;
#586 = ORIENTED_EDGE ( 'NONE', *, *, #655, .T. ) ;
#587 = CARTESIAN_POINT ( 'NONE',  ( 39.99999999999999289, 2.000000000000000000, -4.690000000000003055 ) ) ;
#588 = ORIENTED_EDGE ( 'NONE', *, *, #58, .T. ) ;
#589 = CARTESIAN_POINT ( 'NONE',  ( -20.00000000000001066, 0.000000000000000000, -4.690000000000003055 ) ) ;
#590 = EDGE_CURVE ( 'NONE', #79, #1210, #50, .T. ) ;
#591 = CARTESIAN_POINT ( 'NONE',  ( -96.00000000000001421, 2.000000000000000000, 50.00000000000000000 ) ) ;
#592 = VERTEX_POINT ( 'NONE', #568 ) ;
#593 = EDGE_CURVE ( 'NONE', #595, #1000, #1059, .T. ) ;
#594 = AXIS2_PLACEMENT_3D ( 'NONE', #298, #1161, #1178 ) ;
#595 = VERTEX_POINT ( 'NONE', #754 ) ;
#596 = FACE_OUTER_BOUND ( 'NONE', #1006, .T. ) ;
#597 = CIRCLE ( 'NONE', #1150, 1.750000000000001554 ) ;
#598 = CARTESIAN_POINT ( 'NONE',  ( 35.99999999999999289, 0.000000000000000000, 5.310000000000012932 ) ) ;
#599 = AXIS2_PLACEMENT_3D ( 'NONE', #1137, #284, #668 ) ;
#600 = CARTESIAN_POINT ( 'NONE',  ( -84.00000000000000000, 2.000000000000000000, 7.060000000000013820 ) ) ;
#601 = VECTOR ( 'NONE', #221, 1000.000000000000000 ) ;
#602 = ORIENTED_EDGE ( 'NONE', *, *, #590, .T. ) ;
#603 = AXIS2_PLACEMENT_3D ( 'NONE', #1117, #742, #157 ) ;
#604 = EDGE_CURVE ( 'NONE', #240, #394, #763, .T. ) ;
#605 = VERTEX_POINT ( 'NONE', #573 ) ;
#606 = CARTESIAN_POINT ( 'NONE',  ( 35.99999999999999289, 2.000000000000000000, 7.060000000000013820 ) ) ;
#607 =( NAMED_UNIT ( * ) SI_UNIT ( $, .STERADIAN. ) SOLID_ANGLE_UNIT ( ) );
#608 = FILL_AREA_STYLE ('',( #11 ) ) ;
#609 = SURFACE_STYLE_USAGE ( .BOTH. , #56 ) ;
#610 = ORIENTED_EDGE ( 'NONE', *, *, #255, .F. ) ;
#611 = DIRECTION ( 'NONE',  ( -1.734723475976805517E-15, 0.000000000000000000, -1.000000000000000000 ) ) ;
#612 = EDGE_LOOP ( 'NONE', ( #770, #447 ) ) ;
#613 = CARTESIAN_POINT ( 'NONE',  ( -96.00000000000001421, 2.000000000000000000, -50.00000000000000000 ) ) ;
#614 = UNCERTAINTY_MEASURE_WITH_UNIT (LENGTH_MEASURE( 1.000000000000000082E-05 ), #975, 'distance_accuracy_value', 'NONE');
#615 = ORIENTED_EDGE ( 'NONE', *, *, #868, .T. ) ;
#616 = LINE ( 'NONE', #822, #1245 ) ;
#617 = CIRCLE ( 'NONE', #797, 1.750000000000001554 ) ;
#618 = ORIENTED_EDGE ( 'NONE', *, *, #336, .F. ) ;
#619 = CARTESIAN_POINT ( 'NONE',  ( -96.00000000000001421, 2.000000000000000000, -47.00000000000000000 ) ) ;
#620 = ORIENTED_EDGE ( 'NONE', *, *, #528, .F. ) ;
#621 = AXIS2_PLACEMENT_3D ( 'NONE', #849, #450, #1242 ) ;
#622 = EDGE_LOOP ( 'NONE', ( #545, #812 ) ) ;
#623 = DIRECTION ( 'NONE',  ( 0.000000000000000000, -1.000000000000000000, 0.000000000000000000 ) ) ;
#624 = ORIENTED_EDGE ( 'NONE', *, *, #950, .F. ) ;
#625 = EDGE_CURVE ( 'NONE', #310, #257, #900, .T. ) ;
#626 = DIRECTION ( 'NONE',  ( 0.000000000000000000, 0.000000000000000000, -1.000000000000000000 ) ) ;
#627 = EDGE_LOOP ( 'NONE', ( #705, #708, #527, #679 ) ) ;
#628 = DIRECTION ( 'NONE',  ( 0.000000000000000000, 0.000000000000000000, 1.000000000000000000 ) ) ;
#629 = ORIENTED_EDGE ( 'NONE', *, *, #446, .F. ) ;
#630 = EDGE_CURVE ( 'NONE', #120, #1239, #817, .T. ) ;
#631 = CARTESIAN_POINT ( 'NONE',  ( -20.00000000000001066, 2.000000000000000000, -35.00000000000000000 ) ) ;
#632 = ORIENTED_EDGE ( 'NONE', *, *, #369, .F. ) ;
#633 = DIRECTION ( 'NONE',  ( 0.000000000000000000, 0.000000000000000000, 1.000000000000000000 ) ) ;
#634 = EDGE_LOOP ( 'NONE', ( #60, #160, #87, #962 ) ) ;
#635 = VECTOR ( 'NONE', #1142, 1000.000000000000000 ) ;
#636 = FACE_OUTER_BOUND ( 'NONE', #735, .T. ) ;
#637 = CIRCLE ( 'NONE', #1046, 1.750000000000001554 ) ;
#638 = EDGE_CURVE ( 'NONE', #901, #420, #949, .T. ) ;
#639 = CIRCLE ( 'NONE', #818, 1.750000000000001554 ) ;
#640 = VECTOR ( 'NONE', #1151, 1000.000000000000000 ) ;
#641 = CYLINDRICAL_SURFACE ( 'NONE', #684, 1.750000000000001554 ) ;
#642 = ORIENTED_EDGE ( 'NONE', *, *, #501, .T. ) ;
#643 = CARTESIAN_POINT ( 'NONE',  ( -7.696731086733369587, 0.000000000000000000, -47.81818181818182012 ) ) ;
#644 = DIRECTION ( 'NONE',  ( 0.000000000000000000, -1.000000000000000000, 0.000000000000000000 ) ) ;
#645 = DIRECTION ( 'NONE',  ( 0.000000000000000000, 0.000000000000000000, -1.000000000000000000 ) ) ;
#646 = ORIENTED_EDGE ( 'NONE', *, *, #289, .F. ) ;
#647 = EDGE_CURVE ( 'NONE', #951, #62, #273, .T. ) ;
#648 = CARTESIAN_POINT ( 'NONE',  ( -96.00000000000001421, 0.000000000000000000, 50.00000000000000000 ) ) ;
#649 = CARTESIAN_POINT ( 'NONE',  ( 39.99999999999999289, 2.000000000000000000, -2.940000000000001723 ) ) ;
#650 = ORIENTED_EDGE ( 'NONE', *, *, #360, .F. ) ;
#651 = DIRECTION ( 'NONE',  ( -0.000000000000000000, 1.000000000000000000, -0.000000000000000000 ) ) ;
#652 = PLANE ( 'NONE',  #621 ) ;
#653 = ORIENTED_EDGE ( 'NONE', *, *, #674, .F. ) ;
#654 = LINE ( 'NONE', #1039, #1185 ) ;
#655 = EDGE_CURVE ( 'NONE', #783, #1205, #354, .T. ) ;
#656 = DIRECTION ( 'NONE',  ( -0.000000000000000000, 1.000000000000000000, -0.000000000000000000 ) ) ;
#657 = ORIENTED_EDGE ( 'NONE', *, *, #196, .T. ) ;
#658 = CARTESIAN_POINT ( 'NONE',  ( -84.00000000000000000, 2.000000000000000000, 35.31000000000000938 ) ) ;
#659 = VECTOR ( 'NONE', #779, 1000.000000000000000 ) ;
#660 = AXIS2_PLACEMENT_3D ( 'NONE', #799, #1113, #526 ) ;
#661 = FACE_OUTER_BOUND ( 'NONE', #92, .T. ) ;
#662 = VECTOR ( 'NONE', #471, 1000.000000000000000 ) ;
#663 = ORIENTED_EDGE ( 'NONE', *, *, #1116, .T. ) ;
#664 = FACE_OUTER_BOUND ( 'NONE', #432, .T. ) ;
#665 = CIRCLE ( 'NONE', #1090, 3.000000000000002665 ) ;
#666 = CARTESIAN_POINT ( 'NONE',  ( 39.99999999999999289, 2.000000000000000000, -4.690000000000003055 ) ) ;
#667 = EDGE_CURVE ( 'NONE', #347, #1098, #966, .T. ) ;
#668 = DIRECTION ( 'NONE',  ( 0.000000000000000000, 0.000000000000000000, -1.000000000000000000 ) ) ;
#669 = EDGE_CURVE ( 'NONE', #145, #346, #720, .T. ) ;
#670 = CYLINDRICAL_SURFACE ( 'NONE', #113, 3.000000000000002665 ) ;
#671 = EDGE_LOOP ( 'NONE', ( #415, #424, #327, #691 ) ) ;
#672 = DIRECTION ( 'NONE',  ( 0.000000000000000000, -0.000000000000000000, -1.000000000000000000 ) ) ;
#673 = CARTESIAN_POINT ( 'NONE',  ( -1.387778780781445676E-14, 0.000000000000000000, -50.00000000000000000 ) ) ;
#674 = EDGE_CURVE ( 'NONE', #257, #310, #1168, .T. ) ;
#675 = CARTESIAN_POINT ( 'NONE',  ( 10.58300524425834688, 0.000000000000000000, -47.00000000000000000 ) ) ;
#676 = ORIENTED_EDGE ( 'NONE', *, *, #767, .T. ) ;
#677 = CARTESIAN_POINT ( 'NONE',  ( 91.00000000000000000, 2.000000000000000000, -45.74999999999999289 ) ) ;
#678 = CARTESIAN_POINT ( 'NONE',  ( 39.99999999999998579, 0.000000000000000000, -36.75000000000000711 ) ) ;
#679 = ORIENTED_EDGE ( 'NONE', *, *, #625, .T. ) ;
#680 = CARTESIAN_POINT ( 'NONE',  ( 39.99999999999998579, 2.000000000000000000, -33.25000000000000000 ) ) ;
#681 = CIRCLE ( 'NONE', #1149, 1.749999999999998002 ) ;
#682 = DIRECTION ( 'NONE',  ( -0.000000000000000000, 1.000000000000000000, -0.000000000000000000 ) ) ;
#683 = VECTOR ( 'NONE', #152, 1000.000000000000000 ) ;
#684 = AXIS2_PLACEMENT_3D ( 'NONE', #827, #929, #1146 ) ;
#685 = EDGE_LOOP ( 'NONE', ( #340, #481 ) ) ;
#686 = DIRECTION ( 'NONE',  ( -0.000000000000000000, 1.000000000000000000, -0.000000000000000000 ) ) ;
#687 = LINE ( 'NONE', #208, #315 ) ;
#688 = AXIS2_PLACEMENT_3D ( 'NONE', #666, #926, #61 ) ;
#689 = CYLINDRICAL_SURFACE ( 'NONE', #1125, 1.749999999999998002 ) ;
#690 = EDGE_CURVE ( 'NONE', #592, #22, #305, .T. ) ;
#691 = ORIENTED_EDGE ( 'NONE', *, *, #811, .T. ) ;
#692 = CARTESIAN_POINT ( 'NONE',  ( 91.00000000000000000, 2.000000000000000000, -43.99999999999999289 ) ) ;
#693 = DIRECTION ( 'NONE',  ( 0.000000000000000000, -1.000000000000000000, 0.000000000000000000 ) ) ;
#694 = DIRECTION ( 'NONE',  ( -0.000000000000000000, 1.000000000000000000, -0.000000000000000000 ) ) ;
#695 = ORIENTED_EDGE ( 'NONE', *, *, #309, .T. ) ;
#696 = UNCERTAINTY_MEASURE_WITH_UNIT (LENGTH_MEASURE( 1.000000000000000082E-05 ), #820, 'distance_accuracy_value', 'NONE');
#697 = ORIENTED_EDGE ( 'NONE', *, *, #86, .F. ) ;
#698 = DIRECTION ( 'NONE',  ( -0.000000000000000000, -1.000000000000000000, 0.000000000000000000 ) ) ;
#699 = DIRECTION ( 'NONE',  ( -0.000000000000000000, 1.000000000000000000, -0.000000000000000000 ) ) ;
#700 = ORIENTED_EDGE ( 'NONE', *, *, #1217, .F. ) ;
#701 = FACE_BOUND ( 'NONE', #622, .T. ) ;
#702 = AXIS2_PLACEMENT_3D ( 'NONE', #521, #144, #611 ) ;
#703 = AXIS2_PLACEMENT_3D ( 'NONE', #90, #934, #267 ) ;
#704 = DIRECTION ( 'NONE',  ( -0.000000000000000000, 1.000000000000000000, -0.000000000000000000 ) ) ;
#705 = ORIENTED_EDGE ( 'NONE', *, *, #472, .F. ) ;
#706 = FACE_OUTER_BOUND ( 'NONE', #834, .T. ) ;
#707 = VECTOR ( 'NONE', #879, 1000.000000000000000 ) ;
#708 = ORIENTED_EDGE ( 'NONE', *, *, #1054, .T. ) ;
#709 = DIRECTION ( 'NONE',  ( 0.000000000000000000, -1.000000000000000000, 0.000000000000000000 ) ) ;
#710 =( NAMED_UNIT ( * ) SI_UNIT ( $, .STERADIAN. ) SOLID_ANGLE_UNIT ( ) );
#711 = EDGE_CURVE ( 'NONE', #896, #347, #987, .T. ) ;
#712 = ORIENTED_EDGE ( 'NONE', *, *, #1022, .F. ) ;
#713 = DIRECTION ( 'NONE',  ( -0.000000000000000000, 1.000000000000000000, -0.000000000000000000 ) ) ;
#714 = DIRECTION ( 'NONE',  ( 0.000000000000000000, 0.000000000000000000, -1.000000000000000000 ) ) ;
#715 = VERTEX_POINT ( 'NONE', #287 ) ;
#716 = ORIENTED_EDGE ( 'NONE', *, *, #272, .F. ) ;
#717 = FACE_OUTER_BOUND ( 'NONE', #110, .T. ) ;
#718 = CIRCLE ( 'NONE', #881, 1.750000000000001554 ) ;
#719 = LINE ( 'NONE', #613, #518 ) ;
#720 = CIRCLE ( 'NONE', #437, 1.750000000000001554 ) ;
#721 = VECTOR ( 'NONE', #970, 1000.000000000000000 ) ;
#722 = ORIENTED_EDGE ( 'NONE', *, *, #91, .T. ) ;
#723 = DIRECTION ( 'NONE',  ( 0.000000000000000000, 0.000000000000000000, -1.000000000000000000 ) ) ;
#724 = EDGE_CURVE ( 'NONE', #715, #1226, #405, .T. ) ;
#725 = EDGE_CURVE ( 'NONE', #946, #1060, #795, .T. ) ;
#726 = CARTESIAN_POINT ( 'NONE',  ( -84.00000000000000000, 2.000000000000000000, 33.56000000000000938 ) ) ;
#727 = ORIENTED_EDGE ( 'NONE', *, *, #213, .F. ) ;
#728 = DIRECTION ( 'NONE',  ( 0.000000000000000000, -1.000000000000000000, 0.000000000000000000 ) ) ;
#729 = VERTEX_POINT ( 'NONE', #600 ) ;
#730 = DIRECTION ( 'NONE',  ( 0.000000000000000000, 0.000000000000000000, -1.000000000000000000 ) ) ;
#731 = EDGE_CURVE ( 'NONE', #917, #346, #2, .T. ) ;
#732 = ORIENTED_EDGE ( 'NONE', *, *, #412, .T. ) ;
#733 = ORIENTED_EDGE ( 'NONE', *, *, #288, .T. ) ;
#734 = LINE ( 'NONE', #1122, #575 ) ;
#735 = EDGE_LOOP ( 'NONE', ( #185, #333, #301, #936 ) ) ;
#736 = EDGE_LOOP ( 'NONE', ( #17, #727 ) ) ;
#737 = DIRECTION ( 'NONE',  ( -0.000000000000000000, 1.000000000000000000, -0.000000000000000000 ) ) ;
#738 = EDGE_CURVE ( 'NONE', #95, #896, #459, .T. ) ;
#739 = DIRECTION ( 'NONE',  ( 0.000000000000000000, -1.000000000000000000, 0.000000000000000000 ) ) ;
#740 = AXIS2_PLACEMENT_3D ( 'NONE', #658, #1236, #1055 ) ;
#741 = CIRCLE ( 'NONE', #967, 1.749999999999998002 ) ;
#742 = DIRECTION ( 'NONE',  ( -0.000000000000000000, 1.000000000000000000, -0.000000000000000000 ) ) ;
#743 = CIRCLE ( 'NONE', #115, 1.750000000000001554 ) ;
#744 = CARTESIAN_POINT ( 'NONE',  ( 35.99999999999999289, 2.000000000000000000, 3.560000000000011156 ) ) ;
#745 = CARTESIAN_POINT ( 'NONE',  ( 91.00000000000000000, 0.000000000000000000, -42.24999999999998579 ) ) ;
#746 = CARTESIAN_POINT ( 'NONE',  ( -96.00000000000001421, 0.000000000000000000, 50.00000000000000000 ) ) ;
#747 = ORIENTED_EDGE ( 'NONE', *, *, #971, .T. ) ;
#748 = FACE_OUTER_BOUND ( 'NONE', #1199, .T. ) ;
#749 = DIRECTION ( 'NONE',  ( -0.000000000000000000, 1.000000000000000000, -0.000000000000000000 ) ) ;
#750 = ORIENTED_EDGE ( 'NONE', *, *, #27, .F. ) ;
#751 = DIRECTION ( 'NONE',  ( 0.000000000000000000, 0.000000000000000000, 1.000000000000000000 ) ) ;
#752 = FACE_OUTER_BOUND ( 'NONE', #634, .T. ) ;
#753 = VERTEX_POINT ( 'NONE', #1063 ) ;
#754 = CARTESIAN_POINT ( 'NONE',  ( -20.00000000000001066, 0.000000000000000000, -2.940000000000005276 ) ) ;
#755 = DIRECTION ( 'NONE',  ( 0.000000000000000000, 0.000000000000000000, -1.000000000000000000 ) ) ;
#756 = ORIENTED_EDGE ( 'NONE', *, *, #183, .F. ) ;
#757 = DIRECTION ( 'NONE',  ( -0.000000000000000000, 1.000000000000000000, -0.000000000000000000 ) ) ;
#758 = CARTESIAN_POINT ( 'NONE',  ( -91.00000000000000000, 2.000000000000000000, -42.24999999999998579 ) ) ;
#759 = ORIENTED_EDGE ( 'NONE', *, *, #801, .T. ) ;
#760 = DIRECTION ( 'NONE',  ( 0.000000000000000000, 0.000000000000000000, -1.000000000000000000 ) ) ;
#761 = AXIS2_PLACEMENT_3D ( 'NONE', #853, #1241, #548 ) ;
#762 = DIRECTION ( 'NONE',  ( -0.000000000000000000, 1.000000000000000000, -0.000000000000000000 ) ) ;
#763 = CIRCLE ( 'NONE', #14, 3.000000000000002665 ) ;
#764 = CIRCLE ( 'NONE', #214, 8.000000000000000000 ) ;
#765 = EDGE_LOOP ( 'NONE', ( #620, #1038, #1173, #909 ) ) ;
#766 = FACE_OUTER_BOUND ( 'NONE', #627, .T. ) ;
#767 = EDGE_CURVE ( 'NONE', #1210, #95, #189, .T. ) ;
#768 = AXIS2_PLACEMENT_3D ( 'NONE', #343, #439, #1111 ) ;
#769 = DIRECTION ( 'NONE',  ( 0.000000000000000000, 0.000000000000000000, -1.000000000000000000 ) ) ;
#770 = ORIENTED_EDGE ( 'NONE', *, *, #125, .F. ) ;
#771 = CYLINDRICAL_SURFACE ( 'NONE', #313, 1.749999999999998002 ) ;
#772 = CARTESIAN_POINT ( 'NONE',  ( -20.00000000000001066, 2.000000000000000000, -36.75000000000000711 ) ) ;
#773 = EDGE_LOOP ( 'NONE', ( #539, #324, #1025, #1252 ) ) ;
#774 = DIRECTION ( 'NONE',  ( -0.000000000000000000, -0.000000000000000000, 1.000000000000000000 ) ) ;
#775 = DIRECTION ( 'NONE',  ( -0.000000000000000000, 1.000000000000000000, -0.000000000000000000 ) ) ;
#776 = ORIENTED_EDGE ( 'NONE', *, *, #1192, .F. ) ;
#777 = DIRECTION ( 'NONE',  ( 0.000000000000000000, -1.000000000000000000, 0.000000000000000000 ) ) ;
#778 = EDGE_LOOP ( 'NONE', ( #897, #1233, #984, #297 ) ) ;
#779 = DIRECTION ( 'NONE',  ( 1.000000000000000000, 0.000000000000000000, 0.000000000000000000 ) ) ;
#780 = VERTEX_POINT ( 'NONE', #507 ) ;
#781 = SURFACE_SIDE_STYLE ('',( #7 ) ) ;
#782 = CIRCLE ( 'NONE', #1228, 1.750000000000001554 ) ;
#783 = VERTEX_POINT ( 'NONE', #197 ) ;
#784 = FACE_BOUND ( 'NONE', #385, .T. ) ;
#785 = AXIS2_PLACEMENT_3D ( 'NONE', #371, #644, #349 ) ;
#786 =( NAMED_UNIT ( * ) PLANE_ANGLE_UNIT ( ) SI_UNIT ( $, .RADIAN. ) );
#787 = ORIENTED_EDGE ( 'NONE', *, *, #218, .F. ) ;
#788 = VERTEX_POINT ( 'NONE', #387 ) ;
#789 = FACE_OUTER_BOUND ( 'NONE', #1237, .T. ) ;
#790 = DIRECTION ( 'NONE',  ( 0.000000000000000000, 0.000000000000000000, -1.000000000000000000 ) ) ;
#791 = DIRECTION ( 'NONE',  ( -0.000000000000000000, 1.000000000000000000, -0.000000000000000000 ) ) ;
#792 = ORIENTED_EDGE ( 'NONE', *, *, #272, .T. ) ;
#793 = CYLINDRICAL_SURFACE ( 'NONE', #938, 1.750000000000001554 ) ;
#794 = ADVANCED_FACE ( 'NONE', ( #210 ), #1076, .F. ) ;
#795 = LINE ( 'NONE', #680, #293 ) ;
#796 = CARTESIAN_POINT ( 'NONE',  ( 0.000000000000000000, 0.000000000000000000, 0.000000000000000000 ) ) ;
#797 = AXIS2_PLACEMENT_3D ( 'NONE', #947, #469, #851 ) ;
#798 = ORIENTED_EDGE ( 'NONE', *, *, #638, .F. ) ;
#799 = CARTESIAN_POINT ( 'NONE',  ( 91.00000000000000000, 2.000000000000000000, -43.99999999999999289 ) ) ;
#800 = CIRCLE ( 'NONE', #497, 8.000000000000000000 ) ;
#801 = EDGE_CURVE ( 'NONE', #997, #59, #639, .T. ) ;
#802 = AXIS2_PLACEMENT_3D ( 'NONE', #225, #444, #1004 ) ;
#803 = DIRECTION ( 'NONE',  ( -0.000000000000000000, 1.000000000000000000, -0.000000000000000000 ) ) ;
#804 = CIRCLE ( 'NONE', #986, 1.750000000000001554 ) ;
#805 = ORIENTED_EDGE ( 'NONE', *, *, #464, .F. ) ;
#806 = DIRECTION ( 'NONE',  ( 0.000000000000000000, 0.000000000000000000, 1.000000000000000000 ) ) ;
#807 = ORIENTED_EDGE ( 'NONE', *, *, #365, .T. ) ;
#808 = DIRECTION ( 'NONE',  ( 0.000000000000000000, 1.000000000000000000, 0.000000000000000000 ) ) ;
#809 = ORIENTED_EDGE ( 'NONE', *, *, #1052, .T. ) ;
#810 = DIRECTION ( 'NONE',  ( 0.000000000000000000, 0.000000000000000000, -1.000000000000000000 ) ) ;
#811 = EDGE_CURVE ( 'NONE', #51, #347, #391, .T. ) ;
#812 = ORIENTED_EDGE ( 'NONE', *, *, #1247, .F. ) ;
#813 = CARTESIAN_POINT ( 'NONE',  ( 92.99999999999998579, 0.000000000000000000, 50.00000000000000000 ) ) ;
#814 = EDGE_CURVE ( 'NONE', #47, #1164, #490, .T. ) ;
#815 = ORIENTED_EDGE ( 'NONE', *, *, #731, .T. ) ;
#816 = CYLINDRICAL_SURFACE ( 'NONE', #190, 1.750000000000001554 ) ;
#817 = CIRCLE ( 'NONE', #1208, 3.000000000000002665 ) ;
#818 = AXIS2_PLACEMENT_3D ( 'NONE', #499, #777, #24 ) ;
#819 = AXIS2_PLACEMENT_3D ( 'NONE', #598, #693, #790 ) ;
#820 =( LENGTH_UNIT ( ) NAMED_UNIT ( * ) SI_UNIT ( .MILLI., .METRE. ) );
#821 = ORIENTED_EDGE ( 'NONE', *, *, #1169, .T. ) ;
#822 = CARTESIAN_POINT ( 'NONE',  ( 92.99999999999998579, 2.000000000000000000, -50.00000000000000000 ) ) ;
#823 = ADVANCED_FACE ( 'NONE', ( #706 ), #1071, .F. ) ;
#824 = CARTESIAN_POINT ( 'NONE',  ( -84.00000000000000000, 2.000000000000000000, 37.06000000000000938 ) ) ;
#825 = MANIFOLD_SOLID_BREP ( 'Fillet1', #10 ) ;
#826 = CARTESIAN_POINT ( 'NONE',  ( -1.387778780781445676E-14, 2.000000000000000000, -42.00000000000000000 ) ) ;
#827 = CARTESIAN_POINT ( 'NONE',  ( -91.00000000000000000, 2.000000000000000000, -43.99999999999999289 ) ) ;
#828 = ORIENTED_EDGE ( 'NONE', *, *, #27, .T. ) ;
#829 = VERTEX_POINT ( 'NONE', #146 ) ;
#830 = DIRECTION ( 'NONE',  ( -0.000000000000000000, 1.000000000000000000, -0.000000000000000000 ) ) ;
#831 = ORIENTED_EDGE ( 'NONE', *, *, #15, .F. ) ;
#832 = DIRECTION ( 'NONE',  ( -8.095376221225092411E-15, 0.000000000000000000, -1.000000000000000000 ) ) ;
#833 = LINE ( 'NONE', #1224, #168 ) ;
#834 = EDGE_LOOP ( 'NONE', ( #759, #856, #732, #1134 ) ) ;
#835 = CARTESIAN_POINT ( 'NONE',  ( -20.00000000000001066, 2.000000000000000000, -33.25000000000000000 ) ) ;
#836 = AXIS2_PLACEMENT_3D ( 'NONE', #1026, #937, #72 ) ;
#837 = CARTESIAN_POINT ( 'NONE',  ( 35.99999999999999289, 2.000000000000000000, 35.31000000000000938 ) ) ;
#838 = AXIS2_PLACEMENT_3D ( 'NONE', #179, #855, #374 ) ;
#839 = CARTESIAN_POINT ( 'NONE',  ( -93.00000000000001421, 2.000000000000000000, 47.00000000000000000 ) ) ;
#840 = VECTOR ( 'NONE', #1081, 1000.000000000000000 ) ;
#841 = VECTOR ( 'NONE', #453, 1000.000000000000000 ) ;
#842 = PRODUCT_DEFINITION_FORMATION_WITH_SPECIFIED_SOURCE ( 'ANY', '', #5, .NOT_KNOWN. ) ;
#843 = CARTESIAN_POINT ( 'NONE',  ( 39.99999999999998579, 2.000000000000000000, -35.00000000000000000 ) ) ;
#844 = VERTEX_POINT ( 'NONE', #341 ) ;
#845 = CARTESIAN_POINT ( 'NONE',  ( -96.00000000000001421, 2.000000000000000000, -50.00000000000000000 ) ) ;
#846 = CYLINDRICAL_SURFACE ( 'NONE', #944, 1.750000000000001554 ) ;
#847 = EDGE_LOOP ( 'NONE', ( #512, #242, #37, #1008 ) ) ;
#848 = CYLINDRICAL_SURFACE ( 'NONE', #740, 1.750000000000001554 ) ;
#849 = CARTESIAN_POINT ( 'NONE',  ( -96.00000000000001421, 2.000000000000000000, -50.00000000000000000 ) ) ;
#850 = EDGE_LOOP ( 'NONE', ( #610, #1033 ) ) ;
#851 = DIRECTION ( 'NONE',  ( 0.000000000000000000, 0.000000000000000000, -1.000000000000000000 ) ) ;
#852 = LINE ( 'NONE', #746, #519 ) ;
#853 = CARTESIAN_POINT ( 'NONE',  ( -20.00000000000001066, 0.000000000000000000, -35.00000000000000000 ) ) ;
#854 = ADVANCED_FACE ( 'NONE', ( #912 ), #217, .T. ) ;
#855 = DIRECTION ( 'NONE',  ( 0.000000000000000000, -1.000000000000000000, 0.000000000000000000 ) ) ;
#856 = ORIENTED_EDGE ( 'NONE', *, *, #1130, .T. ) ;
#857 = PLANE ( 'NONE',  #1166 ) ;
#858 = CARTESIAN_POINT ( 'NONE',  ( -1.387778780781445676E-14, 0.000000000000000000, -50.00000000000000000 ) ) ;
#859 = ORIENTED_EDGE ( 'NONE', *, *, #814, .F. ) ;
#860 = CIRCLE ( 'NONE', #1019, 1.750000000000001554 ) ;
#861 = DIRECTION ( 'NONE',  ( 0.000000000000000000, 0.000000000000000000, 1.000000000000000000 ) ) ;
#862 = VECTOR ( 'NONE', #582, 1000.000000000000000 ) ;
#863 = LINE ( 'NONE', #192, #862 ) ;
#864 = AXIS2_PLACEMENT_3D ( 'NONE', #237, #803, #532 ) ;
#865 = PRESENTATION_LAYER_ASSIGNMENT (  '', '', ( #191 ) ) ;
#866 = ORIENTED_EDGE ( 'NONE', *, *, #930, .T. ) ;
#867 = FACE_BOUND ( 'NONE', #500, .T. ) ;
#868 = EDGE_CURVE ( 'NONE', #1181, #901, #741, .T. ) ;
#869 = EDGE_LOOP ( 'NONE', ( #533, #338 ) ) ;
#870 = DIRECTION ( 'NONE',  ( 0.000000000000000000, 0.000000000000000000, 1.000000000000000000 ) ) ;
#871 = DIRECTION ( 'NONE',  ( 0.000000000000000000, -1.000000000000000000, 0.000000000000000000 ) ) ;
#872 = VERTEX_POINT ( 'NONE', #726 ) ;
#873 = DIRECTION ( 'NONE',  ( 0.000000000000000000, 0.000000000000000000, 1.000000000000000000 ) ) ;
#874 = ADVANCED_FACE ( 'NONE', ( #1197 ), #53, .T. ) ;
#875 = DIRECTION ( 'NONE',  ( -0.000000000000000000, 1.000000000000000000, -0.000000000000000000 ) ) ;
#876 = DIRECTION ( 'NONE',  ( 0.000000000000000000, 0.000000000000000000, -1.000000000000000000 ) ) ;
#877 = ORIENTED_EDGE ( 'NONE', *, *, #283, .T. ) ;
#878 = FACE_BOUND ( 'NONE', #612, .T. ) ;
#879 = DIRECTION ( 'NONE',  ( 0.000000000000000000, -1.000000000000000000, 0.000000000000000000 ) ) ;
#880 = CARTESIAN_POINT ( 'NONE',  ( 91.00000000000000000, 2.000000000000000000, -42.24999999999998579 ) ) ;
#881 = AXIS2_PLACEMENT_3D ( 'NONE', #510, #492, #969 ) ;
#882 = ORIENTED_EDGE ( 'NONE', *, *, #711, .T. ) ;
#883 = CARTESIAN_POINT ( 'NONE',  ( 39.99999999999999289, 2.000000000000000000, -4.690000000000003055 ) ) ;
#884 = AXIS2_PLACEMENT_3D ( 'NONE', #673, #830, #1221 ) ;
#885 = DIRECTION ( 'NONE',  ( -0.000000000000000000, 1.000000000000000000, -0.000000000000000000 ) ) ;
#886 = ADVANCED_FACE ( 'NONE', ( #636 ), #816, .F. ) ;
#887 = ORIENTED_EDGE ( 'NONE', *, *, #630, .F. ) ;
#888 = FACE_BOUND ( 'NONE', #960, .T. ) ;
#889 = DIRECTION ( 'NONE',  ( 0.000000000000000000, 0.000000000000000000, -1.000000000000000000 ) ) ;
#890 = DIRECTION ( 'NONE',  ( 0.000000000000000000, 0.000000000000000000, -1.000000000000000000 ) ) ;
#891 = EDGE_CURVE ( 'NONE', #605, #1085, #511, .T. ) ;
#892 = ORIENTED_EDGE ( 'NONE', *, *, #255, .T. ) ;
#893 = CARTESIAN_POINT ( 'NONE',  ( -84.00000000000000000, 2.000000000000000000, 5.310000000000012932 ) ) ;
#894 = ORIENTED_EDGE ( 'NONE', *, *, #593, .T. ) ;
#895 = CARTESIAN_POINT ( 'NONE',  ( -20.00000000000001066, 2.000000000000000000, -35.00000000000000000 ) ) ;
#896 = VERTEX_POINT ( 'NONE', #619 ) ;
#897 = ORIENTED_EDGE ( 'NONE', *, *, #690, .F. ) ;
#898 = FACE_OUTER_BOUND ( 'NONE', #1124, .T. ) ;
#899 = CIRCLE ( 'NONE', #1104, 3.000000000000002665 ) ;
#900 = CIRCLE ( 'NONE', #49, 1.750000000000001554 ) ;
#901 = VERTEX_POINT ( 'NONE', #137 ) ;
#902 = ORIENTED_EDGE ( 'NONE', *, *, #283, .F. ) ;
#903 = EDGE_CURVE ( 'NONE', #240, #715, #764, .T. ) ;
#904 = CARTESIAN_POINT ( 'NONE',  ( -10.58300524425836997, 0.000000000000000000, -50.00000000000000000 ) ) ;
#905 = ORIENTED_EDGE ( 'NONE', *, *, #914, .F. ) ;
#906 = CARTESIAN_POINT ( 'NONE',  ( 95.99999999999998579, 2.000000000000000000, 50.00000000000000000 ) ) ;
#907 = ORIENTED_EDGE ( 'NONE', *, *, #1040, .F. ) ;
#908 = DIRECTION ( 'NONE',  ( -1.000000000000000000, -0.000000000000000000, -0.000000000000000000 ) ) ;
#909 = ORIENTED_EDGE ( 'NONE', *, *, #925, .T. ) ;
#910 = CARTESIAN_POINT ( 'NONE',  ( 35.99999999999999289, 2.000000000000000000, 33.56000000000000938 ) ) ;
#911 = ORIENTED_EDGE ( 'NONE', *, *, #1080, .T. ) ;
#912 = FACE_OUTER_BOUND ( 'NONE', #259, .T. ) ;
#913 = ORIENTED_EDGE ( 'NONE', *, *, #516, .T. ) ;
#914 = EDGE_CURVE ( 'NONE', #525, #381, #212, .T. ) ;
#915 = ADVANCED_FACE ( 'NONE', ( #337 ), #328, .F. ) ;
#916 = CARTESIAN_POINT ( 'NONE',  ( -7.696731086733369587, 0.000000000000000000, -47.81818181818182012 ) ) ;
#917 = VERTEX_POINT ( 'NONE', #28 ) ;
#918 = CARTESIAN_POINT ( 'NONE',  ( 7.696731086733342053, 0.000000000000000000, -47.81818181818182012 ) ) ;
#919 = ORIENTED_EDGE ( 'NONE', *, *, #891, .T. ) ;
#920 = DIRECTION ( 'NONE',  ( 0.000000000000000000, 0.000000000000000000, 1.000000000000000000 ) ) ;
#921 = AXIS2_PLACEMENT_3D ( 'NONE', #631, #1016, #1201 ) ;
#922 = SURFACE_STYLE_FILL_AREA ( #148 ) ;
#923 = CARTESIAN_POINT ( 'NONE',  ( -1.387778780781445676E-14, 2.000000000000000000, -50.00000000000000000 ) ) ;
#924 = ORIENTED_EDGE ( 'NONE', *, *, #669, .T. ) ;
#925 = EDGE_CURVE ( 'NONE', #927, #872, #1188, .T. ) ;
#926 = DIRECTION ( 'NONE',  ( -0.000000000000000000, 1.000000000000000000, -0.000000000000000000 ) ) ;
#927 = VERTEX_POINT ( 'NONE', #824 ) ;
#928 = ORIENTED_EDGE ( 'NONE', *, *, #625, .F. ) ;
#929 = DIRECTION ( 'NONE',  ( -0.000000000000000000, 1.000000000000000000, -0.000000000000000000 ) ) ;
#930 = EDGE_CURVE ( 'NONE', #788, #394, #1218, .T. ) ;
#931 = ORIENTED_EDGE ( 'NONE', *, *, #725, .F. ) ;
#932 = FACE_BOUND ( 'NONE', #869, .T. ) ;
#933 = CARTESIAN_POINT ( 'NONE',  ( -84.00000000000000000, 0.000000000000000000, 7.060000000000013820 ) ) ;
#934 = DIRECTION ( 'NONE',  ( 0.000000000000000000, -1.000000000000000000, 0.000000000000000000 ) ) ;
#935 = CARTESIAN_POINT ( 'NONE',  ( 35.99999999999999289, 2.000000000000000000, 33.56000000000000938 ) ) ;
#936 = ORIENTED_EDGE ( 'NONE', *, *, #58, .F. ) ;
#937 = DIRECTION ( 'NONE',  ( 0.000000000000000000, 1.000000000000000000, 0.000000000000000000 ) ) ;
#938 = AXIS2_PLACEMENT_3D ( 'NONE', #692, #194, #105 ) ;
#939 = CARTESIAN_POINT ( 'NONE',  ( 39.99999999999999289, 0.000000000000000000, -4.690000000000003055 ) ) ;
#940 = ORIENTED_EDGE ( 'NONE', *, *, #177, .F. ) ;
#941 = AXIS2_PLACEMENT_3D ( 'NONE', #149, #57, #1200 ) ;
#942 = CARTESIAN_POINT ( 'NONE',  ( 91.00000000000000000, 2.000000000000000000, -45.74999999999999289 ) ) ;
#943 = VECTOR ( 'NONE', #749, 1000.000000000000000 ) ;
#944 = AXIS2_PLACEMENT_3D ( 'NONE', #266, #656, #1179 ) ;
#945 = CARTESIAN_POINT ( 'NONE',  ( -84.00000000000000000, 2.000000000000000000, 7.060000000000013820 ) ) ;
#946 = VERTEX_POINT ( 'NONE', #1101 ) ;
#947 = CARTESIAN_POINT ( 'NONE',  ( -84.00000000000000000, 0.000000000000000000, 5.310000000000012932 ) ) ;
#948 = EDGE_CURVE ( 'NONE', #381, #525, #416, .T. ) ;
#949 = LINE ( 'NONE', #84, #662 ) ;
#950 = EDGE_CURVE ( 'NONE', #753, #206, #719, .T. ) ;
#951 = VERTEX_POINT ( 'NONE', #904 ) ;
#952 = CARTESIAN_POINT ( 'NONE',  ( -96.00000000000001421, 2.000000000000000000, -50.00000000000000000 ) ) ;
#953 = VERTEX_POINT ( 'NONE', #421 ) ;
#954 = PLANE ( 'NONE',  #1225 ) ;
#955 = FACE_OUTER_BOUND ( 'NONE', #1177, .T. ) ;
#956 = ORIENTED_EDGE ( 'NONE', *, *, #667, .F. ) ;
#957 = DIRECTION ( 'NONE',  ( -0.000000000000000000, 1.000000000000000000, -0.000000000000000000 ) ) ;
#958 = EDGE_CURVE ( 'NONE', #1098, #307, #40, .T. ) ;
#959 = CARTESIAN_POINT ( 'NONE',  ( 39.99999999999999289, 2.000000000000000000, -6.440000000000004832 ) ) ;
#960 = EDGE_LOOP ( 'NONE', ( #750, #368 ) ) ;
#961 = DIRECTION ( 'NONE',  ( 0.000000000000000000, 0.000000000000000000, 1.000000000000000000 ) ) ;
#962 = ORIENTED_EDGE ( 'NONE', *, *, #86, .T. ) ;
#963 = CIRCLE ( 'NONE', #292, 1.750000000000001554 ) ;
#964 = DIRECTION ( 'NONE',  ( -0.000000000000000000, 1.000000000000000000, -0.000000000000000000 ) ) ;
#965 = AXIS2_PLACEMENT_3D ( 'NONE', #1099, #1001, #1093 ) ;
#966 = CIRCLE ( 'NONE', #1065, 3.000000000000002665 ) ;
#967 = AXIS2_PLACEMENT_3D ( 'NONE', #1121, #433, #810 ) ;
#968 = ORIENTED_EDGE ( 'NONE', *, *, #1194, .F. ) ;
#969 = DIRECTION ( 'NONE',  ( 0.000000000000000000, 0.000000000000000000, 1.000000000000000000 ) ) ;
#970 = DIRECTION ( 'NONE',  ( 0.000000000000000000, -1.000000000000000000, 0.000000000000000000 ) ) ;
#971 = EDGE_CURVE ( 'NONE', #953, #558, #232, .T. ) ;
#972 = DIRECTION ( 'NONE',  ( 0.000000000000000000, 1.000000000000000000, -0.000000000000000000 ) ) ;
#973 = ORIENTED_EDGE ( 'NONE', *, *, #1130, .F. ) ;
#974 = DIRECTION ( 'NONE',  ( 0.000000000000000000, 0.000000000000000000, -1.000000000000000000 ) ) ;
#975 =( LENGTH_UNIT ( ) NAMED_UNIT ( * ) SI_UNIT ( .MILLI., .METRE. ) );
#976 = VERTEX_POINT ( 'NONE', #649 ) ;
#977 = CARTESIAN_POINT ( 'NONE',  ( -93.00000000000001421, 2.000000000000000000, -47.00000000000000000 ) ) ;
#978 = CARTESIAN_POINT ( 'NONE',  ( 35.99999999999999289, 2.000000000000000000, 3.560000000000014708 ) ) ;
#979 = ORIENTED_EDGE ( 'NONE', *, *, #669, .F. ) ;
#980 = AXIS2_PLACEMENT_3D ( 'NONE', #1253, #757, #961 ) ;
#981 = AXIS2_PLACEMENT_3D ( 'NONE', #167, #378, #357 ) ;
#982 = PRODUCT_RELATED_PRODUCT_CATEGORY ( 'part', '', ( #5 ) ) ;
#983 = VECTOR ( 'NONE', #480, 1000.000000000000000 ) ;
#984 = ORIENTED_EDGE ( 'NONE', *, *, #360, .T. ) ;
#985 = DIRECTION ( 'NONE',  ( 0.000000000000000000, 0.000000000000000000, -1.000000000000000000 ) ) ;
#986 = AXIS2_PLACEMENT_3D ( 'NONE', #1235, #561, #274 ) ;
#987 = LINE ( 'NONE', #591, #73 ) ;
#988 = ADVANCED_FACE ( 'NONE', ( #955 ), #448, .F. ) ;
#989 = APPLICATION_PROTOCOL_DEFINITION ( 'draft international standard', 'automotive_design', 1998, #322 ) ;
#990 = ORIENTED_EDGE ( 'NONE', *, *, #304, .F. ) ;
#991 = DIRECTION ( 'NONE',  ( -0.000000000000000000, 1.000000000000000000, -0.000000000000000000 ) ) ;
#992 = CARTESIAN_POINT ( 'NONE',  ( -10.58300524425837530, 2.000000000000000000, -47.00000000000000000 ) ) ;
#993 = CARTESIAN_POINT ( 'NONE',  ( -93.00000000000001421, 2.000000000000000000, -47.00000000000000000 ) ) ;
#994 = EDGE_CURVE ( 'NONE', #901, #1181, #1213, .T. ) ;
#995 = ORIENTED_EDGE ( 'NONE', *, *, #438, .F. ) ;
#996 = CARTESIAN_POINT ( 'NONE',  ( 35.99999999999999289, 0.000000000000000000, 37.06000000000000938 ) ) ;
#997 = VERTEX_POINT ( 'NONE', #933 ) ;
#998 = ORIENTED_EDGE ( 'NONE', *, *, #570, .F. ) ;
#999 = DIRECTION ( 'NONE',  ( 0.000000000000000000, 0.000000000000000000, 1.000000000000000000 ) ) ;
#1000 = VERTEX_POINT ( 'NONE', #1157 ) ;
#1001 = DIRECTION ( 'NONE',  ( -0.000000000000000000, 1.000000000000000000, -0.000000000000000000 ) ) ;
#1002 = VECTOR ( 'NONE', #103, 1000.000000000000000 ) ;
#1003 = ORIENTED_EDGE ( 'NONE', *, *, #1159, .F. ) ;
#1004 = DIRECTION ( 'NONE',  ( 0.000000000000000000, 0.000000000000000000, 1.000000000000000000 ) ) ;
#1005 =( NAMED_UNIT ( * ) SI_UNIT ( $, .STERADIAN. ) SOLID_ANGLE_UNIT ( ) );
#1006 = EDGE_LOOP ( 'NONE', ( #451, #571, #473, #940 ) ) ;
#1007 = DIRECTION ( 'NONE',  ( 0.000000000000000000, 0.000000000000000000, -1.000000000000000000 ) ) ;
#1008 = ORIENTED_EDGE ( 'NONE', *, *, #488, .F. ) ;
#1009 = DIRECTION ( 'NONE',  ( 0.000000000000000000, -1.000000000000000000, 0.000000000000000000 ) ) ;
#1010 = EDGE_CURVE ( 'NONE', #844, #47, #1087, .T. ) ;
#1011 = PRODUCT_CONTEXT ( 'NONE', #322, 'mechanical' ) ;
#1012 = DIRECTION ( 'NONE',  ( 0.000000000000000000, -1.000000000000000000, 0.000000000000000000 ) ) ;
#1013 = ORIENTED_EDGE ( 'NONE', *, *, #55, .F. ) ;
#1014 = DIRECTION ( 'NONE',  ( 0.000000000000000000, -1.000000000000000000, 0.000000000000000000 ) ) ;
#1015 = ORIENTED_EDGE ( 'NONE', *, *, #638, .T. ) ;
#1016 = DIRECTION ( 'NONE',  ( -0.000000000000000000, 1.000000000000000000, -0.000000000000000000 ) ) ;
#1017 = ADVANCED_FACE ( 'NONE', ( #155 ), #477, .F. ) ;
#1018 = FACE_OUTER_BOUND ( 'NONE', #99, .T. ) ;
#1019 = AXIS2_PLACEMENT_3D ( 'NONE', #1058, #82, #161 ) ;
#1020 = VECTOR ( 'NONE', #1103, 1000.000000000000000 ) ;
#1021 = MECHANICAL_DESIGN_GEOMETRIC_PRESENTATION_REPRESENTATION (  '', ( #191 ), #358 ) ;
#1022 = EDGE_CURVE ( 'NONE', #307, #51, #77, .T. ) ;
#1023 = LINE ( 'NONE', #1131, #442 ) ;
#1024 = FACE_OUTER_BOUND ( 'NONE', #565, .T. ) ;
#1025 = ORIENTED_EDGE ( 'NONE', *, *, #172, .T. ) ;
#1026 = CARTESIAN_POINT ( 'NONE',  ( -1.387778780781445676E-14, 2.000000000000000000, -50.00000000000000000 ) ) ;
#1027 = CYLINDRICAL_SURFACE ( 'NONE', #580, 8.000000000000000000 ) ;
#1028 = VERTEX_POINT ( 'NONE', #470 ) ;
#1029 = CARTESIAN_POINT ( 'NONE',  ( -20.00000000000001066, 0.000000000000000000, -33.25000000000000000 ) ) ;
#1030 = ORIENTED_EDGE ( 'NONE', *, *, #1222, .T. ) ;
#1031 = CARTESIAN_POINT ( 'NONE',  ( 39.99999999999998579, 2.000000000000000000, -36.75000000000000711 ) ) ;
#1032 = EDGE_CURVE ( 'NONE', #346, #145, #1128, .T. ) ;
#1033 = ORIENTED_EDGE ( 'NONE', *, *, #1138, .F. ) ;
#1034 = CARTESIAN_POINT ( 'NONE',  ( -91.00000000000000000, 2.000000000000000000, -43.99999999999999289 ) ) ;
#1035 = CARTESIAN_POINT ( 'NONE',  ( -20.00000000000001066, 2.000000000000000000, -6.440000000000001279 ) ) ;
#1036 = CARTESIAN_POINT ( 'NONE',  ( -20.00000000000001066, 2.000000000000000000, -6.440000000000001279 ) ) ;
#1037 = DIRECTION ( 'NONE',  ( -1.000000000000000000, -0.000000000000000000, -0.000000000000000000 ) ) ;
#1038 = ORIENTED_EDGE ( 'NONE', *, *, #1040, .T. ) ;
#1039 = CARTESIAN_POINT ( 'NONE',  ( -84.00000000000000000, 2.000000000000000000, 37.06000000000000938 ) ) ;
#1040 = EDGE_CURVE ( 'NONE', #1028, #1102, #804, .T. ) ;
#1041 = VECTOR ( 'NONE', #698, 1000.000000000000000 ) ;
#1042 = DIRECTION ( 'NONE',  ( 0.000000000000000000, 0.000000000000000000, 1.000000000000000000 ) ) ;
#1043 = ORIENTED_EDGE ( 'NONE', *, *, #326, .T. ) ;
#1044 = EDGE_CURVE ( 'NONE', #307, #236, #852, .T. ) ;
#1045 = CARTESIAN_POINT ( 'NONE',  ( 35.99999999999999289, 2.000000000000000000, 35.31000000000000938 ) ) ;
#1046 = AXIS2_PLACEMENT_3D ( 'NONE', #543, #445, #64 ) ;
#1047 = AXIS2_PLACEMENT_3D ( 'NONE', #202, #404, #1062 ) ;
#1048 = ORIENTED_EDGE ( 'NONE', *, *, #814, .T. ) ;
#1049 = DIRECTION ( 'NONE',  ( 0.000000000000000000, -1.000000000000000000, 0.000000000000000000 ) ) ;
#1050 = ORIENTED_EDGE ( 'NONE', *, *, #1159, .T. ) ;
#1051 = FACE_BOUND ( 'NONE', #850, .T. ) ;
#1052 = EDGE_CURVE ( 'NONE', #420, #976, #560, .T. ) ;
#1053 = DIRECTION ( 'NONE',  ( 0.000000000000000000, 0.000000000000000000, -1.000000000000000000 ) ) ;
#1054 = EDGE_CURVE ( 'NONE', #222, #264, #538, .T. ) ;
#1055 = DIRECTION ( 'NONE',  ( 0.000000000000000000, 0.000000000000000000, 1.000000000000000000 ) ) ;
#1056 = CARTESIAN_POINT ( 'NONE',  ( -96.00000000000001421, 2.000000000000000000, 47.00000000000000000 ) ) ;
#1057 = EDGE_LOOP ( 'NONE', ( #979, #1219 ) ) ;
#1058 = CARTESIAN_POINT ( 'NONE',  ( -20.00000000000001066, 0.000000000000000000, -35.00000000000000000 ) ) ;
#1059 = LINE ( 'NONE', #1223, #1187 ) ;
#1060 = VERTEX_POINT ( 'NONE', #1126 ) ;
#1061 = DIRECTION ( 'NONE',  ( -0.000000000000000000, -1.000000000000000000, 0.000000000000000000 ) ) ;
#1062 = DIRECTION ( 'NONE',  ( 0.000000000000000000, 0.000000000000000000, -1.000000000000000000 ) ) ;
#1063 = CARTESIAN_POINT ( 'NONE',  ( 92.99999999999998579, 2.000000000000000000, -50.00000000000000000 ) ) ;
#1064 = AXIS2_PLACEMENT_3D ( 'NONE', #339, #241, #633 ) ;
#1065 = AXIS2_PLACEMENT_3D ( 'NONE', #839, #1231, #760 ) ;
#1066 = CARTESIAN_POINT ( 'NONE',  ( 35.99999999999999289, 2.000000000000000000, 7.060000000000011156 ) ) ;
#1067 = AXIS2_PLACEMENT_3D ( 'NONE', #318, #323, #414 ) ;
#1068 = AXIS2_PLACEMENT_3D ( 'NONE', #796, #1083, #1110 ) ;
#1069 = ORIENTED_EDGE ( 'NONE', *, *, #303, .T. ) ;
#1070 = DIRECTION ( 'NONE',  ( 0.000000000000000000, 0.000000000000000000, -1.000000000000000000 ) ) ;
#1071 = CYLINDRICAL_SURFACE ( 'NONE', #460, 1.750000000000001554 ) ;
#1072 = ORIENTED_EDGE ( 'NONE', *, *, #1010, .F. ) ;
#1073 = CARTESIAN_POINT ( 'NONE',  ( -20.00000000000001066, 2.000000000000000000, -4.690000000000003055 ) ) ;
#1074 = EDGE_LOOP ( 'NONE', ( #968, #1123 ) ) ;
#1075 = FACE_BOUND ( 'NONE', #25, .T. ) ;
#1076 = PLANE ( 'NONE',  #31 ) ;
#1077 = VERTEX_POINT ( 'NONE', #758 ) ;
#1078 = ORIENTED_EDGE ( 'NONE', *, *, #446, .T. ) ;
#1079 = DIRECTION ( 'NONE',  ( 0.000000000000000000, 0.000000000000000000, 1.000000000000000000 ) ) ;
#1080 = EDGE_CURVE ( 'NONE', #829, #951, #463, .T. ) ;
#1081 = DIRECTION ( 'NONE',  ( -0.000000000000000000, 1.000000000000000000, -0.000000000000000000 ) ) ;
#1082 = CIRCLE ( 'NONE', #330, 1.750000000000001554 ) ;
#1083 = DIRECTION ( 'NONE',  ( 0.000000000000000000, 0.000000000000000000, 1.000000000000000000 ) ) ;
#1084 = CIRCLE ( 'NONE', #398, 1.750000000000001554 ) ;
#1085 = VERTEX_POINT ( 'NONE', #567 ) ;
#1086 = FACE_BOUND ( 'NONE', #174, .T. ) ;
#1087 = CIRCLE ( 'NONE', #785, 1.750000000000001554 ) ;
#1088 = CARTESIAN_POINT ( 'NONE',  ( 95.99999999999998579, 2.000000000000000000, 47.00000000000000000 ) ) ;
#1089 = ORIENTED_EDGE ( 'NONE', *, *, #604, .F. ) ;
#1090 = AXIS2_PLACEMENT_3D ( 'NONE', #992, #457, #832 ) ;
#1091 = DIRECTION ( 'NONE',  ( -0.000000000000000000, 1.000000000000000000, -0.000000000000000000 ) ) ;
#1092 = EDGE_LOOP ( 'NONE', ( #887, #71, #805, #440 ) ) ;
#1093 = DIRECTION ( 'NONE',  ( 0.000000000000000000, 0.000000000000000000, 1.000000000000000000 ) ) ;
#1094 = ORIENTED_EDGE ( 'NONE', *, *, #593, .F. ) ;
#1095 = DIRECTION ( 'NONE',  ( -0.000000000000000000, 1.000000000000000000, -0.000000000000000000 ) ) ;
#1096 = ORIENTED_EDGE ( 'NONE', *, *, #647, .T. ) ;
#1097 = SHAPE_DEFINITION_REPRESENTATION ( #485, #550 ) ;
#1098 = VERTEX_POINT ( 'NONE', #547 ) ;
#1099 = CARTESIAN_POINT ( 'NONE',  ( 35.99999999999999289, 2.000000000000000000, 5.310000000000012932 ) ) ;
#1100 = ADVANCED_FACE ( 'NONE', ( #752 ), #1027, .F. ) ;
#1101 = CARTESIAN_POINT ( 'NONE',  ( 39.99999999999998579, 0.000000000000000000, -33.25000000000000000 ) ) ;
#1102 = VERTEX_POINT ( 'NONE', #380 ) ;
#1103 = DIRECTION ( 'NONE',  ( -0.000000000000000000, 1.000000000000000000, -0.000000000000000000 ) ) ;
#1104 = AXIS2_PLACEMENT_3D ( 'NONE', #291, #686, #1070 ) ;
#1105 = VECTOR ( 'NONE', #1238, 1000.000000000000000 ) ;
#1106 = ORIENTED_EDGE ( 'NONE', *, *, #1141, .T. ) ;
#1107 = STYLED_ITEM ( 'NONE', ( #294 ), #825 ) ;
#1108 = DIRECTION ( 'NONE',  ( 0.000000000000000000, -1.000000000000000000, 0.000000000000000000 ) ) ;
#1109 = VECTOR ( 'NONE', #775, 1000.000000000000000 ) ;
#1110 = DIRECTION ( 'NONE',  ( 1.000000000000000000, 0.000000000000000000, 0.000000000000000000 ) ) ;
#1111 = DIRECTION ( 'NONE',  ( 0.000000000000000000, 0.000000000000000000, 1.000000000000000000 ) ) ;
#1112 = EDGE_LOOP ( 'NONE', ( #377, #426, #250, #859 ) ) ;
#1113 = DIRECTION ( 'NONE',  ( -0.000000000000000000, 1.000000000000000000, -0.000000000000000000 ) ) ;
#1114 = ORIENTED_EDGE ( 'NONE', *, *, #958, .F. ) ;
#1115 = DIRECTION ( 'NONE',  ( -0.000000000000000000, 1.000000000000000000, -0.000000000000000000 ) ) ;
#1116 = EDGE_CURVE ( 'NONE', #1145, #946, #16, .T. ) ;
#1117 = CARTESIAN_POINT ( 'NONE',  ( 39.99999999999998579, 2.000000000000000000, -35.00000000000000000 ) ) ;
#1118 = ORIENTED_EDGE ( 'NONE', *, *, #930, .F. ) ;
#1119 = FACE_OUTER_BOUND ( 'NONE', #522, .T. ) ;
#1120 = ADVANCED_FACE ( 'NONE', ( #74 ), #846, .F. ) ;
#1121 = CARTESIAN_POINT ( 'NONE',  ( 39.99999999999999289, 0.000000000000000000, -4.690000000000003055 ) ) ;
#1122 = CARTESIAN_POINT ( 'NONE',  ( 39.99999999999999289, 2.000000000000000000, -2.940000000000005276 ) ) ;
#1123 = ORIENTED_EDGE ( 'NONE', *, *, #1169, .F. ) ;
#1124 = EDGE_LOOP ( 'NONE', ( #1160, #219, #919, #1043 ) ) ;
#1125 = AXIS2_PLACEMENT_3D ( 'NONE', #1073, #199, #478 ) ;
#1126 = CARTESIAN_POINT ( 'NONE',  ( 39.99999999999998579, 2.000000000000000000, -33.25000000000000000 ) ) ;
#1127 = PRESENTATION_LAYER_ASSIGNMENT (  '', '', ( #1107 ) ) ;
#1128 = CIRCLE ( 'NONE', #54, 1.750000000000001554 ) ;
#1129 = FACE_OUTER_BOUND ( 'NONE', #158, .T. ) ;
#1130 = EDGE_CURVE ( 'NONE', #59, #43, #687, .T. ) ;
#1131 = CARTESIAN_POINT ( 'NONE',  ( 39.99999999999998579, 2.000000000000000000, -36.75000000000000711 ) ) ;
#1132 = ORIENTED_EDGE ( 'NONE', *, *, #655, .F. ) ;
#1133 = LINE ( 'NONE', #278, #683 ) ;
#1134 = ORIENTED_EDGE ( 'NONE', *, *, #501, .F. ) ;
#1135 = FACE_BOUND ( 'NONE', #1202, .T. ) ;
#1136 = DIRECTION ( 'NONE',  ( 1.000000000000000000, 0.000000000000000000, 0.000000000000000000 ) ) ;
#1137 = CARTESIAN_POINT ( 'NONE',  ( 92.99999999999998579, 2.000000000000000000, 47.00000000000000000 ) ) ;
#1138 = EDGE_CURVE ( 'NONE', #592, #495, #743, .T. ) ;
#1139 = PLANE ( 'NONE',  #246 ) ;
#1140 = VERTEX_POINT ( 'NONE', #498 ) ;
#1141 = EDGE_CURVE ( 'NONE', #236, #120, #585, .T. ) ;
#1142 = DIRECTION ( 'NONE',  ( -0.000000000000000000, 1.000000000000000000, -0.000000000000000000 ) ) ;
#1143 = ORIENTED_EDGE ( 'NONE', *, *, #731, .F. ) ;
#1144 = DIRECTION ( 'NONE',  ( 0.000000000000000000, 0.000000000000000000, -1.000000000000000000 ) ) ;
#1145 = VERTEX_POINT ( 'NONE', #678 ) ;
#1146 = DIRECTION ( 'NONE',  ( 0.000000000000000000, 0.000000000000000000, 1.000000000000000000 ) ) ;
#1147 = EDGE_LOOP ( 'NONE', ( #990, #586, #588, #138 ) ) ;
#1148 = LINE ( 'NONE', #835, #635 ) ;
#1149 = AXIS2_PLACEMENT_3D ( 'NONE', #462, #363, #751 ) ;
#1150 = AXIS2_PLACEMENT_3D ( 'NONE', #42, #1014, #723 ) ;
#1151 = DIRECTION ( 'NONE',  ( 0.000000000000000000, -1.000000000000000000, -0.000000000000000000 ) ) ;
#1152 = CARTESIAN_POINT ( 'NONE',  ( 35.99999999999999289, 2.000000000000000000, 5.310000000000012932 ) ) ;
#1153 = VECTOR ( 'NONE', #875, 1000.000000000000000 ) ;
#1154 = LINE ( 'NONE', #935, #943 ) ;
#1155 = ORIENTED_EDGE ( 'NONE', *, *, #738, .T. ) ;
#1156 = CYLINDRICAL_SURFACE ( 'NONE', #980, 1.750000000000001554 ) ;
#1157 = CARTESIAN_POINT ( 'NONE',  ( -20.00000000000001066, 2.000000000000000000, -2.940000000000005276 ) ) ;
#1158 = CARTESIAN_POINT ( 'NONE',  ( 35.99999999999999289, 2.000000000000000000, 5.310000000000012932 ) ) ;
#1159 = EDGE_CURVE ( 'NONE', #951, #1210, #483, .T. ) ;
#1160 = ORIENTED_EDGE ( 'NONE', *, *, #203, .F. ) ;
#1161 = DIRECTION ( 'NONE',  ( 0.000000000000000000, -1.000000000000000000, 0.000000000000000000 ) ) ;
#1162 = EDGE_CURVE ( 'NONE', #47, #844, #484, .T. ) ;
#1163 = CARTESIAN_POINT ( 'NONE',  ( -91.00000000000000000, 2.000000000000000000, -45.74999999999999289 ) ) ;
#1164 = VERTEX_POINT ( 'NONE', #19 ) ;
#1165 = CYLINDRICAL_SURFACE ( 'NONE', #329, 3.000000000000002665 ) ;
#1166 = AXIS2_PLACEMENT_3D ( 'NONE', #260, #552, #672 ) ;
#1167 = SURFACE_STYLE_USAGE ( .BOTH. , #781 ) ;
#1168 = CIRCLE ( 'NONE', #517, 1.750000000000001554 ) ;
#1169 = EDGE_CURVE ( 'NONE', #917, #780, #34, .T. ) ;
#1170 = FACE_OUTER_BOUND ( 'NONE', #233, .T. ) ;
#1171 = MECHANICAL_DESIGN_GEOMETRIC_PRESENTATION_REPRESENTATION (  '', ( #1107 ), #1250 ) ;
#1172 =( GEOMETRIC_REPRESENTATION_CONTEXT ( 3 ) GLOBAL_UNCERTAINTY_ASSIGNED_CONTEXT ( ( #696 ) ) GLOBAL_UNIT_ASSIGNED_CONTEXT ( ( #820, #239, #607 ) ) REPRESENTATION_CONTEXT ( 'NONE', 'WORKASPACE' ) );
#1173 = ORIENTED_EDGE ( 'NONE', *, *, #101, .T. ) ;
#1174 = DIRECTION ( 'NONE',  ( 0.000000000000000000, -1.000000000000000000, 0.000000000000000000 ) ) ;
#1175 = DIRECTION ( 'NONE',  ( 0.000000000000000000, 0.000000000000000000, 1.000000000000000000 ) ) ;
#1176 = EDGE_CURVE ( 'NONE', #1140, #240, #118, .T. ) ;
#1177 = EDGE_LOOP ( 'NONE', ( #529, #128, #270, #475 ) ) ;
#1178 = DIRECTION ( 'NONE',  ( 0.000000000000000000, -0.000000000000000000, -1.000000000000000000 ) ) ;
#1179 = DIRECTION ( 'NONE',  ( 0.000000000000000000, 0.000000000000000000, 1.000000000000000000 ) ) ;
#1180 = CARTESIAN_POINT ( 'NONE',  ( 35.99999999999999289, 2.000000000000000000, 35.31000000000000938 ) ) ;
#1181 = VERTEX_POINT ( 'NONE', #489 ) ;
#1182 = CYLINDRICAL_SURFACE ( 'NONE', #165, 1.750000000000001554 ) ;
#1183 = EDGE_CURVE ( 'NONE', #1239, #605, #506, .T. ) ;
#1184 = DIRECTION ( 'NONE',  ( 1.000000000000000000, -0.000000000000000000, 0.000000000000000000 ) ) ;
#1185 = VECTOR ( 'NONE', #559, 1000.000000000000000 ) ;
#1186 = AXIS2_PLACEMENT_3D ( 'NONE', #923, #808, #334 ) ;
#1187 = VECTOR ( 'NONE', #957, 1000.000000000000000 ) ;
#1188 = CIRCLE ( 'NONE', #802, 1.750000000000001554 ) ;
#1189 = ORIENTED_EDGE ( 'NONE', *, *, #503, .F. ) ;
#1190 = DIRECTION ( 'NONE',  ( -0.000000000000000000, 1.000000000000000000, -0.000000000000000000 ) ) ;
#1191 = CIRCLE ( 'NONE', #252, 1.750000000000001554 ) ;
#1192 = EDGE_CURVE ( 'NONE', #264, #222, #1191, .T. ) ;
#1193 = CARTESIAN_POINT ( 'NONE',  ( -96.00000000000001421, 0.000000000000000000, -50.00000000000000000 ) ) ;
#1194 = EDGE_CURVE ( 'NONE', #780, #917, #383, .T. ) ;
#1195 = EDGE_LOOP ( 'NONE', ( #551, #700, #166, #227 ) ) ;
#1196 = PLANE ( 'NONE',  #515 ) ;
#1197 = FACE_OUTER_BOUND ( 'NONE', #1195, .T. ) ;
#1198 = PRODUCT_DEFINITION_CONTEXT ( 'detailed design', #306, 'design' ) ;
#1199 = EDGE_LOOP ( 'NONE', ( #215, #747, #200, #1094 ) ) ;
#1200 = DIRECTION ( 'NONE',  ( 0.000000000000000000, 0.000000000000000000, -1.000000000000000000 ) ) ;
#1201 = DIRECTION ( 'NONE',  ( 0.000000000000000000, 0.000000000000000000, 1.000000000000000000 ) ) ;
#1202 = EDGE_LOOP ( 'NONE', ( #831, #1132 ) ) ;
#1203 =( LENGTH_UNIT ( ) NAMED_UNIT ( * ) SI_UNIT ( .MILLI., .METRE. ) );
#1204 = FILL_AREA_STYLE_COLOUR ( '', #150 ) ;
#1205 = VERTEX_POINT ( 'NONE', #1029 ) ;
#1206 = CYLINDRICAL_SURFACE ( 'NONE', #660, 1.750000000000001554 ) ;
#1207 = AXIS2_PLACEMENT_3D ( 'NONE', #883, #431, #139 ) ;
#1208 = AXIS2_PLACEMENT_3D ( 'NONE', #97, #350, #563 ) ;
#1209 = EDGE_CURVE ( 'NONE', #583, #829, #665, .T. ) ;
#1210 = VERTEX_POINT ( 'NONE', #248 ) ;
#1211 = VECTOR ( 'NONE', #972, 1000.000000000000000 ) ;
#1212 = CARTESIAN_POINT ( 'NONE',  ( 95.99999999999998579, 0.000000000000000000, 50.00000000000000000 ) ) ;
#1213 = CIRCLE ( 'NONE', #1230, 1.749999999999998002 ) ;
#1214 = EDGE_LOOP ( 'NONE', ( #1089, #417, #902, #629 ) ) ;
#1215 = ORIENTED_EDGE ( 'NONE', *, *, #958, .T. ) ;
#1216 = CARTESIAN_POINT ( 'NONE',  ( -93.00000000000001421, 0.000000000000000000, 50.00000000000000000 ) ) ;
#1217 = EDGE_CURVE ( 'NONE', #62, #583, #449, .T. ) ;
#1218 = LINE ( 'NONE', #1193, #355 ) ;
#1219 = ORIENTED_EDGE ( 'NONE', *, *, #1032, .F. ) ;
#1220 = DIRECTION ( 'NONE',  ( -1.000000000000000000, 0.000000000000000000, -0.000000000000000000 ) ) ;
#1221 = DIRECTION ( 'NONE',  ( 0.000000000000000000, 0.000000000000000000, 1.000000000000000000 ) ) ;
#1222 = EDGE_CURVE ( 'NONE', #1145, #400, #1023, .T. ) ;
#1223 = CARTESIAN_POINT ( 'NONE',  ( -20.00000000000001066, 2.000000000000000000, -2.940000000000005276 ) ) ;
#1224 = CARTESIAN_POINT ( 'NONE',  ( 10.58300524425834155, 2.000000000000000000, -50.00000000000000000 ) ) ;
#1225 = AXIS2_PLACEMENT_3D ( 'NONE', #845, #476, #280 ) ;
#1226 = VERTEX_POINT ( 'NONE', #826 ) ;
#1227 = FACE_BOUND ( 'NONE', #1074, .T. ) ;
#1228 = AXIS2_PLACEMENT_3D ( 'NONE', #467, #762, #569 ) ;
#1229 = DIRECTION ( 'NONE',  ( 0.000000000000000000, -1.000000000000000000, 0.000000000000000000 ) ) ;
#1230 = AXIS2_PLACEMENT_3D ( 'NONE', #939, #89, #769 ) ;
#1231 = DIRECTION ( 'NONE',  ( -0.000000000000000000, 1.000000000000000000, -0.000000000000000000 ) ) ;
#1232 = CARTESIAN_POINT ( 'NONE',  ( 35.99999999999999289, 2.000000000000000000, 37.06000000000000938 ) ) ;
#1233 = ORIENTED_EDGE ( 'NONE', *, *, #1138, .T. ) ;
#1234 = LINE ( 'NONE', #648, #373 ) ;
#1235 = CARTESIAN_POINT ( 'NONE',  ( -84.00000000000000000, 0.000000000000000000, 35.31000000000000938 ) ) ;
#1236 = DIRECTION ( 'NONE',  ( -0.000000000000000000, 1.000000000000000000, -0.000000000000000000 ) ) ;
#1237 = EDGE_LOOP ( 'NONE', ( #430, #491, #577, #290, #1243, #877, #193, #697, #486, #366, #1155, #882, #466 ) ) ;
#1238 = DIRECTION ( 'NONE',  ( -0.000000000000000000, 1.000000000000000000, -0.000000000000000000 ) ) ;
#1239 = VERTEX_POINT ( 'NONE', #1088 ) ;
#1240 = CARTESIAN_POINT ( 'NONE',  ( -96.00000000000001421, 0.000000000000000000, -47.00000000000000000 ) ) ;
#1241 = DIRECTION ( 'NONE',  ( 0.000000000000000000, -1.000000000000000000, 0.000000000000000000 ) ) ;
#1242 = DIRECTION ( 'NONE',  ( 1.000000000000000000, 0.000000000000000000, -0.000000000000000000 ) ) ;
#1243 = ORIENTED_EDGE ( 'NONE', *, *, #950, .T. ) ;
#1244 = FACE_BOUND ( 'NONE', #1, .T. ) ;
#1245 = VECTOR ( 'NONE', #709, 1000.000000000000000 ) ;
#1246 = DIRECTION ( 'NONE',  ( -0.000000000000000000, 1.000000000000000000, -0.000000000000000000 ) ) ;
#1247 = EDGE_CURVE ( 'NONE', #558, #1000, #98, .T. ) ;
#1248 = VECTOR ( 'NONE', #1037, 1000.000000000000000 ) ;
#1249 = DIRECTION ( 'NONE',  ( 0.000000000000000000, 0.000000000000000000, 1.000000000000000000 ) ) ;
#1250 =( GEOMETRIC_REPRESENTATION_CONTEXT ( 3 ) GLOBAL_UNCERTAINTY_ASSIGNED_CONTEXT ( ( #614 ) ) GLOBAL_UNIT_ASSIGNED_CONTEXT ( ( #975, #786, #710 ) ) REPRESENTATION_CONTEXT ( 'NONE', 'WORKASPACE' ) );
#1251 = CYLINDRICAL_SURFACE ( 'NONE', #535, 1.749999999999998002 ) ;
#1252 = ORIENTED_EDGE ( 'NONE', *, *, #101, .F. ) ;
#1253 = CARTESIAN_POINT ( 'NONE',  ( 35.99999999999999289, 2.000000000000000000, 35.31000000000000938 ) ) ;
#1254 = ADVANCED_FACE ( 'NONE', ( #352 ), #123, .F. ) ;
#1255 = CARTESIAN_POINT ( 'NONE',  ( 95.99999999999998579, 2.000000000000000000, 47.00000000000000000 ) ) ;
ENDSEC;
END-ISO-10303-21;
