ISO-10303-21;
HEADER;
FILE_DESCRIPTION (( 'STEP AP214' ),
    '1' );
FILE_NAME ('tubo.STEP',
    '2021-03-12T17:21:57',
    ( '' ),
    ( '' ),
    'SwSTEP 2.0',
    'SolidWorks 2020',
    '' );
FILE_SCHEMA (( 'AUTOMOTIVE_DESIGN' ));
ENDSEC;

DATA;
#1 = CARTESIAN_POINT ( 'NONE',  ( 0.000000000000000000, 0.000000000000000000, 38.35068955811993874 ) ) ;
#2 = ORIENTED_EDGE ( 'NONE', *, *, #72, .T. ) ;
#3 = CARTESIAN_POINT ( 'NONE',  ( 0.000000000000000000, 0.000000000000000000, -63.22499999999998721 ) ) ;
#4 = CARTESIAN_POINT ( 'NONE',  ( 8.500000000000000000, 1.040949779275250140E-15, -65.22500000000000853 ) ) ;
#5 = DIRECTION ( 'NONE',  ( 1.000000000000000000, 0.000000000000000000, 0.000000000000000000 ) ) ;
#6 = EDGE_CURVE ( 'NONE', #93, #271, #295, .T. ) ;
#7 = DIRECTION ( 'NONE',  ( -1.000000000000000000, 0.000000000000000000, 0.000000000000000000 ) ) ;
#8 = ADVANCED_FACE ( 'NONE', ( #371 ), #112, .F. ) ;
#9 = DIRECTION ( 'NONE',  ( -0.000000000000000000, -0.000000000000000000, 1.000000000000000000 ) ) ;
#10 = DIRECTION ( 'NONE',  ( -1.000000000000000000, 0.000000000000000000, 0.000000000000000000 ) ) ;
#11 = EDGE_LOOP ( 'NONE', ( #356, #560, #49, #247 ) ) ;
#12 = DIRECTION ( 'NONE',  ( 1.000000000000000000, 0.000000000000000000, 0.000000000000000000 ) ) ;
#13 = CARTESIAN_POINT ( 'NONE',  ( 0.000000000000000000, 0.000000000000000000, -63.72499999999998721 ) ) ;
#14 = ORIENTED_EDGE ( 'NONE', *, *, #524, .T. ) ;
#15 = CARTESIAN_POINT ( 'NONE',  ( 0.000000000000000000, 0.000000000000000000, -65.22499999999999432 ) ) ;
#16 = CIRCLE ( 'NONE', #47, 12.00000000000000178 ) ;
#17 = FACE_OUTER_BOUND ( 'NONE', #103, .T. ) ;
#18 = ORIENTED_EDGE ( 'NONE', *, *, #161, .F. ) ;
#19 = DIRECTION ( 'NONE',  ( 1.000000000000000000, 0.000000000000000000, 0.000000000000000000 ) ) ;
#20 = TOROIDAL_SURFACE ( 'NONE', #452, 11.50000000000000178, 0.5000000000000000000 ) ;
#21 = ORIENTED_EDGE ( 'NONE', *, *, #428, .F. ) ;
#22 = EDGE_CURVE ( 'NONE', #324, #388, #460, .T. ) ;
#23 = DIRECTION ( 'NONE',  ( -0.000000000000000000, -0.000000000000000000, 1.000000000000000000 ) ) ;
#24 = AXIS2_PLACEMENT_3D ( 'NONE', #328, #282, #46 ) ;
#25 = VERTEX_POINT ( 'NONE', #631 ) ;
#26 = VECTOR ( 'NONE', #121, 1000.000000000000000 ) ;
#27 = CARTESIAN_POINT ( 'NONE',  ( 11.50000000000000178, 0.000000000000000000, 64.72499999999999432 ) ) ;
#28 = ORIENTED_EDGE ( 'NONE', *, *, #64, .F. ) ;
#29 = SURFACE_STYLE_USAGE ( .BOTH. , #40 ) ;
#30 = CARTESIAN_POINT ( 'NONE',  ( 0.000000000000000000, 0.000000000000000000, 64.72499999999999432 ) ) ;
#31 = ORIENTED_EDGE ( 'NONE', *, *, #555, .T. ) ;
#32 = CARTESIAN_POINT ( 'NONE',  ( 0.000000000000000000, 0.000000000000000000, 65.22499999999999432 ) ) ;
#33 = VERTEX_POINT ( 'NONE', #577 ) ;
#34 = TOROIDAL_SURFACE ( 'NONE', #498, 11.50000000000000178, 0.5000000000000000000 ) ;
#35 = ADVANCED_FACE ( 'NONE', ( #582 ), #234, .F. ) ;
#36 = AXIS2_PLACEMENT_3D ( 'NONE', #619, #92, #130 ) ;
#37 =( GEOMETRIC_REPRESENTATION_CONTEXT ( 3 ) GLOBAL_UNCERTAINTY_ASSIGNED_CONTEXT ( ( #375 ) ) GLOBAL_UNIT_ASSIGNED_CONTEXT ( ( #567, #368, #601 ) ) REPRESENTATION_CONTEXT ( 'NONE', 'WORKASPACE' ) );
#38 = DIRECTION ( 'NONE',  ( -0.000000000000000000, -0.000000000000000000, 1.000000000000000000 ) ) ;
#39 = CARTESIAN_POINT ( 'NONE',  ( 0.000000000000000000, 0.000000000000000000, -65.22500000000000853 ) ) ;
#40 = SURFACE_SIDE_STYLE ('',( #176 ) ) ;
#41 = LINE ( 'NONE', #474, #115 ) ;
#42 = DIRECTION ( 'NONE',  ( 0.02299123801957251093, 0.000000000000000000, 0.9997356665510775953 ) ) ;
#43 = TOROIDAL_SURFACE ( 'NONE', #73, 11.50000000000000178, 0.5000000000000000000 ) ;
#44 = DIRECTION ( 'NONE',  ( 1.224646799147353207E-16, 1.000000000000000000, 0.000000000000000000 ) ) ;
#45 = EDGE_CURVE ( 'NONE', #269, #127, #519, .T. ) ;
#46 = DIRECTION ( 'NONE',  ( 0.000000000000000000, 0.000000000000000000, -1.000000000000000000 ) ) ;
#47 = AXIS2_PLACEMENT_3D ( 'NONE', #290, #484, #486 ) ;
#48 = FACE_OUTER_BOUND ( 'NONE', #81, .T. ) ;
#49 = ORIENTED_EDGE ( 'NONE', *, *, #6, .T. ) ;
#50 = DIRECTION ( 'NONE',  ( -1.000000000000000000, 0.000000000000000000, 0.000000000000000000 ) ) ;
#51 = EDGE_CURVE ( 'NONE', #424, #407, #254, .T. ) ;
#52 = DIRECTION ( 'NONE',  ( -1.000000000000000000, 0.000000000000000000, 0.000000000000000000 ) ) ;
#53 = DIRECTION ( 'NONE',  ( 1.000000000000000000, 0.000000000000000000, 0.000000000000000000 ) ) ;
#54 = ORIENTED_EDGE ( 'NONE', *, *, #572, .T. ) ;
#55 = EDGE_CURVE ( 'NONE', #388, #579, #475, .T. ) ;
#56 = FACE_OUTER_BOUND ( 'NONE', #548, .T. ) ;
#57 = DIRECTION ( 'NONE',  ( 0.000000000000000000, 0.000000000000000000, -1.000000000000000000 ) ) ;
#58 = ORIENTED_EDGE ( 'NONE', *, *, #385, .F. ) ;
#59 = CARTESIAN_POINT ( 'NONE',  ( 0.000000000000000000, 0.000000000000000000, -63.22499999999998721 ) ) ;
#60 = CARTESIAN_POINT ( 'NONE',  ( 0.000000000000000000, 0.000000000000000000, 0.000000000000000000 ) ) ;
#61 = ORIENTED_EDGE ( 'NONE', *, *, #142, .F. ) ;
#62 =( LENGTH_UNIT ( ) NAMED_UNIT ( * ) SI_UNIT ( .MILLI., .METRE. ) );
#63 = DIRECTION ( 'NONE',  ( 1.000000000000000000, 0.000000000000000000, 0.000000000000000000 ) ) ;
#64 = EDGE_CURVE ( 'NONE', #613, #25, #231, .T. ) ;
#65 = EDGE_LOOP ( 'NONE', ( #562, #266, #441, #374 ) ) ;
#66 = TOROIDAL_SURFACE ( 'NONE', #533, 11.50000000000000178, 0.5000000000000000000 ) ;
#67 = AXIS2_PLACEMENT_3D ( 'NONE', #39, #187, #381 ) ;
#68 = FACE_OUTER_BOUND ( 'NONE', #134, .T. ) ;
#69 = CIRCLE ( 'NONE', #150, 12.00000000000000178 ) ;
#70 = FACE_OUTER_BOUND ( 'NONE', #125, .T. ) ;
#71 = ORIENTED_EDGE ( 'NONE', *, *, #99, .T. ) ;
#72 = EDGE_CURVE ( 'NONE', #388, #324, #145, .T. ) ;
#73 = AXIS2_PLACEMENT_3D ( 'NONE', #83, #278, #628 ) ;
#74 = ORIENTED_EDGE ( 'NONE', *, *, #297, .F. ) ;
#75 = DIRECTION ( 'NONE',  ( 0.000000000000000000, 0.000000000000000000, -1.000000000000000000 ) ) ;
#76 = ORIENTED_EDGE ( 'NONE', *, *, #135, .T. ) ;
#77 = DIRECTION ( 'NONE',  ( 1.000000000000000000, 0.000000000000000000, 0.000000000000000000 ) ) ;
#78 = PRODUCT_DEFINITION ( 'UNKNOWN', '', #280, #91 ) ;
#79 = ORIENTED_EDGE ( 'NONE', *, *, #445, .F. ) ;
#80 = DIRECTION ( 'NONE',  ( 1.000000000000000000, 0.000000000000000000, 0.000000000000000000 ) ) ;
#81 = EDGE_LOOP ( 'NONE', ( #95, #465 ) ) ;
#82 = SHAPE_DEFINITION_REPRESENTATION ( #129, #434 ) ;
#83 = CARTESIAN_POINT ( 'NONE',  ( 0.000000000000000000, 0.000000000000000000, 64.72499999999999432 ) ) ;
#84 = DIRECTION ( 'NONE',  ( -1.000000000000000000, 0.000000000000000000, 0.000000000000000000 ) ) ;
#85 = STYLED_ITEM ( 'NONE', ( #372 ), #434 ) ;
#86 = DIRECTION ( 'NONE',  ( -0.000000000000000000, -0.000000000000000000, 1.000000000000000000 ) ) ;
#87 = ORIENTED_EDGE ( 'NONE', *, *, #453, .T. ) ;
#88 = EDGE_CURVE ( 'NONE', #459, #242, #201, .T. ) ;
#89 = PLANE ( 'NONE',  #314 ) ;
#90 = ORIENTED_EDGE ( 'NONE', *, *, #622, .F. ) ;
#91 = PRODUCT_DEFINITION_CONTEXT ( 'detailed design', #216, 'design' ) ;
#92 = DIRECTION ( 'NONE',  ( -0.000000000000000000, -1.000000000000000000, -0.000000000000000000 ) ) ;
#93 = VERTEX_POINT ( 'NONE', #245 ) ;
#94 = DIRECTION ( 'NONE',  ( -1.000000000000000000, 0.000000000000000000, 0.000000000000000000 ) ) ;
#95 = ORIENTED_EDGE ( 'NONE', *, *, #520, .T. ) ;
#96 = TOROIDAL_SURFACE ( 'NONE', #570, 11.50000000000000178, 0.5000000000000000000 ) ;
#97 = AXIS2_PLACEMENT_3D ( 'NONE', #327, #230, #522 ) ;
#98 = CARTESIAN_POINT ( 'NONE',  ( 11.50000000000000178, 1.408343819019456373E-15, -64.72499999999999432 ) ) ;
#99 = EDGE_CURVE ( 'NONE', #536, #579, #336, .T. ) ;
#100 = EDGE_LOOP ( 'NONE', ( #415, #163, #321, #605 ) ) ;
#101 = CARTESIAN_POINT ( 'NONE',  ( 0.000000000000000000, 0.000000000000000000, 63.72499999999998721 ) ) ;
#102 = CARTESIAN_POINT ( 'NONE',  ( 10.50000000000000178, 0.000000000000000000, 38.35068955811993874 ) ) ;
#103 = EDGE_LOOP ( 'NONE', ( #237, #178, #584, #122 ) ) ;
#104 = CARTESIAN_POINT ( 'NONE',  ( 0.000000000000000000, 0.000000000000000000, -64.72499999999999432 ) ) ;
#105 = DIRECTION ( 'NONE',  ( 0.000000000000000000, 0.000000000000000000, -1.000000000000000000 ) ) ;
#106 = AXIS2_PLACEMENT_3D ( 'NONE', #114, #210, #162 ) ;
#107 = ORIENTED_EDGE ( 'NONE', *, *, #546, .T. ) ;
#108 = DIRECTION ( 'NONE',  ( 0.000000000000000000, 0.000000000000000000, 1.000000000000000000 ) ) ;
#109 = DIRECTION ( 'NONE',  ( 0.000000000000000000, 0.000000000000000000, 1.000000000000000000 ) ) ;
#110 = DIRECTION ( 'NONE',  ( -0.000000000000000000, -0.000000000000000000, 1.000000000000000000 ) ) ;
#111 = ORIENTED_EDGE ( 'NONE', *, *, #120, .F. ) ;
#112 = CONICAL_SURFACE ( 'NONE', #470, 8.500000000000000000, 0.02299326401820336874 ) ;
#113 = DIRECTION ( 'NONE',  ( 0.000000000000000000, 0.000000000000000000, 1.000000000000000000 ) ) ;
#114 = CARTESIAN_POINT ( 'NONE',  ( 0.000000000000000000, 0.000000000000000000, 63.22499999999998721 ) ) ;
#115 = VECTOR ( 'NONE', #273, 1000.000000000000000 ) ;
#116 = ORIENTED_EDGE ( 'NONE', *, *, #207, .T. ) ;
#117 = EDGE_CURVE ( 'NONE', #595, #263, #16, .T. ) ;
#118 = LINE ( 'NONE', #205, #26 ) ;
#119 = VERTEX_POINT ( 'NONE', #249 ) ;
#120 = EDGE_CURVE ( 'NONE', #263, #360, #340, .T. ) ;
#121 = DIRECTION ( 'NONE',  ( -0.02299123801957250399, 0.000000000000000000, -0.9997356665510775953 ) ) ;
#122 = ORIENTED_EDGE ( 'NONE', *, *, #285, .F. ) ;
#123 = AXIS2_PLACEMENT_3D ( 'NONE', #13, #302, #53 ) ;
#124 = FACE_OUTER_BOUND ( 'NONE', #313, .T. ) ;
#125 = EDGE_LOOP ( 'NONE', ( #286, #620 ) ) ;
#126 = DIRECTION ( 'NONE',  ( -1.000000000000000000, 0.000000000000000000, 0.000000000000000000 ) ) ;
#127 = VERTEX_POINT ( 'NONE', #398 ) ;
#128 =( NAMED_UNIT ( * ) SI_UNIT ( $, .STERADIAN. ) SOLID_ANGLE_UNIT ( ) );
#129 = PRODUCT_DEFINITION_SHAPE ( 'NONE', 'NONE',  #78 ) ;
#130 = DIRECTION ( 'NONE',  ( 0.000000000000000000, 0.000000000000000000, -1.000000000000000000 ) ) ;
#131 = ORIENTED_EDGE ( 'NONE', *, *, #207, .F. ) ;
#132 = CARTESIAN_POINT ( 'NONE',  ( 0.000000000000000000, 0.000000000000000000, 0.000000000000000000 ) ) ;
#133 = CYLINDRICAL_SURFACE ( 'NONE', #97, 12.00000000000000178 ) ;
#134 = EDGE_LOOP ( 'NONE', ( #400, #217, #211, #131 ) ) ;
#135 = EDGE_CURVE ( 'NONE', #119, #588, #154, .T. ) ;
#136 = AXIS2_PLACEMENT_3D ( 'NONE', #559, #602, #450 ) ;
#137 = LINE ( 'NONE', #177, #586 ) ;
#138 = ORIENTED_EDGE ( 'NONE', *, *, #552, .F. ) ;
#139 = FACE_OUTER_BOUND ( 'NONE', #600, .T. ) ;
#140 = CARTESIAN_POINT ( 'NONE',  ( 0.000000000000000000, 0.000000000000000000, 63.22499999999998721 ) ) ;
#141 = DIRECTION ( 'NONE',  ( 0.000000000000000000, 0.000000000000000000, -1.000000000000000000 ) ) ;
#142 = EDGE_CURVE ( 'NONE', #25, #588, #499, .T. ) ;
#143 = ORIENTED_EDGE ( 'NONE', *, *, #428, .T. ) ;
#144 = CIRCLE ( 'NONE', #219, 0.5000000000000004441 ) ;
#145 = CIRCLE ( 'NONE', #615, 7.000000000000000000 ) ;
#146 = AXIS2_PLACEMENT_3D ( 'NONE', #624, #44, #430 ) ;
#147 = SURFACE_SIDE_STYLE ('',( #289 ) ) ;
#148 = CYLINDRICAL_SURFACE ( 'NONE', #543, 12.00000000000000178 ) ;
#149 = ORIENTED_EDGE ( 'NONE', *, *, #22, .T. ) ;
#150 = AXIS2_PLACEMENT_3D ( 'NONE', #180, #373, #432 ) ;
#151 = CIRCLE ( 'NONE', #507, 11.50000000000000178 ) ;
#152 = TOROIDAL_SURFACE ( 'NONE', #198, 11.50000000000000178, 0.5000000000000000000 ) ;
#153 = FILL_AREA_STYLE ('',( #593 ) ) ;
#154 = LINE ( 'NONE', #402, #418 ) ;
#155 = EDGE_LOOP ( 'NONE', ( #517, #87, #107, #326 ) ) ;
#156 = EDGE_CURVE ( 'NONE', #269, #93, #365, .T. ) ;
#157 = CARTESIAN_POINT ( 'NONE',  ( 0.000000000000000000, 0.000000000000000000, -63.72499999999998721 ) ) ;
#158 = CARTESIAN_POINT ( 'NONE',  ( 0.000000000000000000, 0.000000000000000000, 63.22499999999998721 ) ) ;
#159 = DIRECTION ( 'NONE',  ( 1.000000000000000000, 0.000000000000000000, 0.000000000000000000 ) ) ;
#160 = EDGE_LOOP ( 'NONE', ( #349, #451, #143, #481 ) ) ;
#161 = EDGE_CURVE ( 'NONE', #360, #407, #479, .T. ) ;
#162 = DIRECTION ( 'NONE',  ( -1.000000000000000000, 0.000000000000000000, -0.000000000000000000 ) ) ;
#163 = ORIENTED_EDGE ( 'NONE', *, *, #466, .T. ) ;
#164 = EDGE_CURVE ( 'NONE', #456, #252, #396, .T. ) ;
#165 = CARTESIAN_POINT ( 'NONE',  ( 0.000000000000000000, 0.000000000000000000, 63.72499999999998721 ) ) ;
#166 = ORIENTED_EDGE ( 'NONE', *, *, #55, .T. ) ;
#167 = CIRCLE ( 'NONE', #277, 8.500000000000000000 ) ;
#168 = DIRECTION ( 'NONE',  ( -0.000000000000000000, -0.000000000000000000, 1.000000000000000000 ) ) ;
#169 = ORIENTED_EDGE ( 'NONE', *, *, #142, .T. ) ;
#170 = DIRECTION ( 'NONE',  ( -1.000000000000000000, 0.000000000000000000, 0.000000000000000000 ) ) ;
#171 = ORIENTED_EDGE ( 'NONE', *, *, #332, .T. ) ;
#172 = CARTESIAN_POINT ( 'NONE',  ( 0.000000000000000000, 0.000000000000000000, 65.23499999999999943 ) ) ;
#173 = AXIS2_PLACEMENT_3D ( 'NONE', #195, #345, #553 ) ;
#174 = CARTESIAN_POINT ( 'NONE',  ( 0.000000000000000000, 0.000000000000000000, 0.000000000000000000 ) ) ;
#175 = EDGE_LOOP ( 'NONE', ( #303, #197, #166, #413 ) ) ;
#176 = SURFACE_STYLE_FILL_AREA ( #617 ) ;
#177 = CARTESIAN_POINT ( 'NONE',  ( -7.000000000000000000, 8.572527594031473190E-16, 0.000000000000000000 ) ) ;
#178 = ORIENTED_EDGE ( 'NONE', *, *, #88, .T. ) ;
#179 = CIRCLE ( 'NONE', #204, 11.50000000000000178 ) ;
#180 = CARTESIAN_POINT ( 'NONE',  ( 0.000000000000000000, 0.000000000000000000, -64.72499999999999432 ) ) ;
#181 = ADVANCED_FACE ( 'NONE', ( #200 ), #148, .T. ) ;
#182 = DIRECTION ( 'NONE',  ( -0.000000000000000000, -0.000000000000000000, 1.000000000000000000 ) ) ;
#183 = AXIS2_PLACEMENT_3D ( 'NONE', #598, #599, #159 ) ;
#184 = DIRECTION ( 'NONE',  ( -0.000000000000000000, -0.000000000000000000, -1.000000000000000000 ) ) ;
#185 = EDGE_LOOP ( 'NONE', ( #149, #54, #311, #557 ) ) ;
#186 = DIRECTION ( 'NONE',  ( -0.000000000000000000, -0.000000000000000000, 1.000000000000000000 ) ) ;
#187 = DIRECTION ( 'NONE',  ( 0.000000000000000000, 0.000000000000000000, -1.000000000000000000 ) ) ;
#188 = FACE_OUTER_BOUND ( 'NONE', #353, .T. ) ;
#189 = VERTEX_POINT ( 'NONE', #4 ) ;
#190 = CARTESIAN_POINT ( 'NONE',  ( 0.000000000000000000, 0.000000000000000000, 65.22499999999999432 ) ) ;
#191 = DIRECTION ( 'NONE',  ( -0.000000000000000000, -0.000000000000000000, 1.000000000000000000 ) ) ;
#192 = FACE_OUTER_BOUND ( 'NONE', #65, .T. ) ;
#193 = CARTESIAN_POINT ( 'NONE',  ( 0.000000000000000000, 0.000000000000000000, -63.72499999999998721 ) ) ;
#194 = DIRECTION ( 'NONE',  ( -0.000000000000000000, -0.000000000000000000, -1.000000000000000000 ) ) ;
#195 = CARTESIAN_POINT ( 'NONE',  ( 0.000000000000000000, 0.000000000000000000, 65.22499999999999432 ) ) ;
#196 = EDGE_CURVE ( 'NONE', #588, #25, #261, .T. ) ;
#197 = ORIENTED_EDGE ( 'NONE', *, *, #72, .F. ) ;
#198 = AXIS2_PLACEMENT_3D ( 'NONE', #193, #109, #63 ) ;
#199 = CARTESIAN_POINT ( 'NONE',  ( 8.500000000000000000, 1.040949779275250140E-15, -65.22500000000000853 ) ) ;
#200 = FACE_OUTER_BOUND ( 'NONE', #160, .T. ) ;
#201 = CIRCLE ( 'NONE', #448, 0.5000000000000004441 ) ;
#202 = DIRECTION ( 'NONE',  ( 1.000000000000000000, 0.000000000000000000, 0.000000000000000000 ) ) ;
#203 = FACE_OUTER_BOUND ( 'NONE', #206, .T. ) ;
#204 = AXIS2_PLACEMENT_3D ( 'NONE', #59, #108, #5 ) ;
#205 = CARTESIAN_POINT ( 'NONE',  ( -8.500000000000000000, 0.000000000000000000, -65.22500000000000853 ) ) ;
#206 = EDGE_LOOP ( 'NONE', ( #274, #515, #331, #58 ) ) ;
#207 = EDGE_CURVE ( 'NONE', #242, #565, #627, .T. ) ;
#208 = DIRECTION ( 'NONE',  ( 0.000000000000000000, 0.000000000000000000, -1.000000000000000000 ) ) ;
#209 = ORIENTED_EDGE ( 'NONE', *, *, #622, .T. ) ;
#210 = DIRECTION ( 'NONE',  ( 0.000000000000000000, 0.000000000000000000, -1.000000000000000000 ) ) ;
#211 = ORIENTED_EDGE ( 'NONE', *, *, #285, .T. ) ;
#212 = CARTESIAN_POINT ( 'NONE',  ( -12.00000000000000178, 0.000000000000000000, -63.72499999999998721 ) ) ;
#213 = ORIENTED_EDGE ( 'NONE', *, *, #563, .T. ) ;
#214 = ADVANCED_FACE ( 'NONE', ( #251 ), #152, .T. ) ;
#215 =( NAMED_UNIT ( * ) PLANE_ANGLE_UNIT ( ) SI_UNIT ( $, .RADIAN. ) );
#216 = APPLICATION_CONTEXT ( 'automotive_design' ) ;
#217 = ORIENTED_EDGE ( 'NONE', *, *, #492, .F. ) ;
#218 = PRODUCT_CONTEXT ( 'NONE', #361, 'mechanical' ) ;
#219 = AXIS2_PLACEMENT_3D ( 'NONE', #304, #514, #262 ) ;
#220 = VECTOR ( 'NONE', #544, 1000.000000000000000 ) ;
#221 = DIRECTION ( 'NONE',  ( -1.000000000000000000, 0.000000000000000000, 0.000000000000000000 ) ) ;
#222 = AXIS2_PLACEMENT_3D ( 'NONE', #380, #186, #126 ) ;
#223 = PRODUCT ( 'tubo', 'tubo', '', ( #218 ) ) ;
#224 = ORIENTED_EDGE ( 'NONE', *, *, #164, .F. ) ;
#225 = DIRECTION ( 'NONE',  ( 1.000000000000000000, 0.000000000000000000, 0.000000000000000000 ) ) ;
#226 = CARTESIAN_POINT ( 'NONE',  ( -12.00000000000000178, 0.000000000000000000, 65.23499999999999943 ) ) ;
#227 = CONICAL_SURFACE ( 'NONE', #258, 7.000000000000000000, 0.02299326401820337568 ) ;
#228 = EDGE_CURVE ( 'NONE', #613, #119, #232, .T. ) ;
#229 = AXIS2_PLACEMENT_3D ( 'NONE', #578, #516, #221 ) ;
#230 = DIRECTION ( 'NONE',  ( 0.000000000000000000, 0.000000000000000000, -1.000000000000000000 ) ) ;
#231 = LINE ( 'NONE', #102, #220 ) ;
#232 = CIRCLE ( 'NONE', #477, 10.50000000000000178 ) ;
#233 = CARTESIAN_POINT ( 'NONE',  ( -11.50000000000000178, 1.438959988998140357E-15, 65.22499999999999432 ) ) ;
#234 = CONICAL_SURFACE ( 'NONE', #67, 8.500000000000000000, 0.02299326401820336874 ) ;
#235 = CARTESIAN_POINT ( 'NONE',  ( 0.000000000000000000, 0.000000000000000000, 0.000000000000000000 ) ) ;
#236 = PLANE ( 'NONE',  #229 ) ;
#237 = ORIENTED_EDGE ( 'NONE', *, *, #546, .F. ) ;
#238 = DIRECTION ( 'NONE',  ( -1.000000000000000000, 0.000000000000000000, 0.000000000000000000 ) ) ;
#239 = DIRECTION ( 'NONE',  ( 0.000000000000000000, 0.000000000000000000, -1.000000000000000000 ) ) ;
#240 = CARTESIAN_POINT ( 'NONE',  ( -10.50000000000000178, 1.285879139104721028E-15, 63.22499999999998721 ) ) ;
#241 = CARTESIAN_POINT ( 'NONE',  ( 12.00000000000000178, 1.469576158976824144E-15, 65.23499999999999943 ) ) ;
#242 = VERTEX_POINT ( 'NONE', #392 ) ;
#243 = CARTESIAN_POINT ( 'NONE',  ( 0.000000000000000000, 0.000000000000000000, 65.22499999999999432 ) ) ;
#244 = ADVANCED_FACE ( 'NONE', ( #17 ), #34, .T. ) ;
#245 = CARTESIAN_POINT ( 'NONE',  ( 12.00000000000000178, 1.469576158976824144E-15, -63.72499999999998721 ) ) ;
#246 = PRESENTATION_LAYER_ASSIGNMENT (  '', '', ( #439 ) ) ;
#247 = ORIENTED_EDGE ( 'NONE', *, *, #555, .F. ) ;
#248 = CARTESIAN_POINT ( 'NONE',  ( 0.000000000000000000, 0.000000000000000000, -63.22499999999998721 ) ) ;
#249 = CARTESIAN_POINT ( 'NONE',  ( -10.50000000000000178, 1.285879139104721028E-15, -63.22499999999998721 ) ) ;
#250 = DIRECTION ( 'NONE',  ( 0.000000000000000000, 0.000000000000000000, 1.000000000000000000 ) ) ;
#251 = FACE_OUTER_BOUND ( 'NONE', #11, .T. ) ;
#252 = VERTEX_POINT ( 'NONE', #435 ) ;
#253 = CIRCLE ( 'NONE', #614, 0.5000000000000004441 ) ;
#254 = CIRCLE ( 'NONE', #534, 11.50000000000000178 ) ;
#255 = DIRECTION ( 'NONE',  ( 1.000000000000000000, 0.000000000000000000, 0.000000000000000000 ) ) ;
#256 = CIRCLE ( 'NONE', #389, 12.00000000000000178 ) ;
#257 = CYLINDRICAL_SURFACE ( 'NONE', #425, 12.00000000000000178 ) ;
#258 = AXIS2_PLACEMENT_3D ( 'NONE', #480, #393, #535 ) ;
#259 = ORIENTED_EDGE ( 'NONE', *, *, #445, .T. ) ;
#260 = AXIS2_PLACEMENT_3D ( 'NONE', #165, #320, #607 ) ;
#261 = CIRCLE ( 'NONE', #509, 10.50000000000000178 ) ;
#262 = DIRECTION ( 'NONE',  ( 0.000000000000000000, 0.000000000000000000, -1.000000000000000000 ) ) ;
#263 = VERTEX_POINT ( 'NONE', #351 ) ;
#264 = ADVANCED_FACE ( 'NONE', ( #203 ), #417, .T. ) ;
#265 = FACE_OUTER_BOUND ( 'NONE', #503, .T. ) ;
#266 = ORIENTED_EDGE ( 'NONE', *, *, #275, .T. ) ;
#267 = APPLICATION_PROTOCOL_DEFINITION ( 'draft international standard', 'automotive_design', 1998, #361 ) ;
#268 = CARTESIAN_POINT ( 'NONE',  ( 0.000000000000000000, 0.000000000000000000, 64.72499999999999432 ) ) ;
#269 = VERTEX_POINT ( 'NONE', #212 ) ;
#270 = DIRECTION ( 'NONE',  ( -0.02299123801957251093, 2.815614604910440873E-18, 0.9997356665510775953 ) ) ;
#271 = VERTEX_POINT ( 'NONE', #414 ) ;
#272 = ADVANCED_FACE ( 'NONE', ( #68 ), #66, .T. ) ;
#273 = DIRECTION ( 'NONE',  ( 0.000000000000000000, 0.000000000000000000, -1.000000000000000000 ) ) ;
#274 = ORIENTED_EDGE ( 'NONE', *, *, #117, .F. ) ;
#275 = EDGE_CURVE ( 'NONE', #269, #33, #253, .T. ) ;
#276 = AXIS2_PLACEMENT_3D ( 'NONE', #172, #551, #364 ) ;
#277 = AXIS2_PLACEMENT_3D ( 'NONE', #243, #491, #202 ) ;
#278 = DIRECTION ( 'NONE',  ( -0.000000000000000000, -0.000000000000000000, 1.000000000000000000 ) ) ;
#279 = DIRECTION ( 'NONE',  ( 0.000000000000000000, 0.000000000000000000, -1.000000000000000000 ) ) ;
#280 = PRODUCT_DEFINITION_FORMATION_WITH_SPECIFIED_SOURCE ( 'ANY', '', #223, .NOT_KNOWN. ) ;
#281 = CARTESIAN_POINT ( 'NONE',  ( 0.000000000000000000, 0.000000000000000000, -65.22500000000000853 ) ) ;
#282 = DIRECTION ( 'NONE',  ( 0.000000000000000000, -1.000000000000000000, 0.000000000000000000 ) ) ;
#283 = FACE_OUTER_BOUND ( 'NONE', #603, .T. ) ;
#284 = VECTOR ( 'NONE', #42, 1000.000000000000000 ) ;
#285 = EDGE_CURVE ( 'NONE', #127, #565, #144, .T. ) ;
#286 = ORIENTED_EDGE ( 'NONE', *, *, #51, .T. ) ;
#287 = EDGE_LOOP ( 'NONE', ( #61, #540 ) ) ;
#288 = VECTOR ( 'NONE', #585, 1000.000000000000000 ) ;
#289 = SURFACE_STYLE_FILL_AREA ( #153 ) ;
#290 = CARTESIAN_POINT ( 'NONE',  ( 0.000000000000000000, 0.000000000000000000, 64.72499999999999432 ) ) ;
#291 = ORIENTED_EDGE ( 'NONE', *, *, #325, .T. ) ;
#292 = ADVANCED_FACE ( 'NONE', ( #561 ), #568, .T. ) ;
#293 = DIRECTION ( 'NONE',  ( -0.000000000000000000, -0.000000000000000000, 1.000000000000000000 ) ) ;
#294 = DIRECTION ( 'NONE',  ( -1.000000000000000000, 0.000000000000000000, 0.000000000000000000 ) ) ;
#295 = CIRCLE ( 'NONE', #24, 0.5000000000000004441 ) ;
#296 = ORIENTED_EDGE ( 'NONE', *, *, #64, .T. ) ;
#297 = EDGE_CURVE ( 'NONE', #263, #595, #379, .T. ) ;
#298 = PRESENTATION_STYLE_ASSIGNMENT (( #347 ) ) ;
#299 = AXIS2_PLACEMENT_3D ( 'NONE', #406, #168, #19 ) ;
#300 = DIRECTION ( 'NONE',  ( -1.000000000000000000, -1.224646799147353454E-16, 0.000000000000000000 ) ) ;
#301 = DIRECTION ( 'NONE',  ( 0.000000000000000000, 0.000000000000000000, -1.000000000000000000 ) ) ;
#302 = DIRECTION ( 'NONE',  ( -0.000000000000000000, -0.000000000000000000, -1.000000000000000000 ) ) ;
#303 = ORIENTED_EDGE ( 'NONE', *, *, #436, .F. ) ;
#304 = CARTESIAN_POINT ( 'NONE',  ( -11.50000000000000178, 0.000000000000000000, -64.72499999999999432 ) ) ;
#305 = VERTEX_POINT ( 'NONE', #362 ) ;
#306 = CIRCLE ( 'NONE', #222, 12.00000000000000178 ) ;
#307 = CIRCLE ( 'NONE', #36, 0.5000000000000004441 ) ;
#308 = DIRECTION ( 'NONE',  ( 1.000000000000000000, 0.000000000000000000, 0.000000000000000000 ) ) ;
#309 = FACE_OUTER_BOUND ( 'NONE', #175, .T. ) ;
#310 = MECHANICAL_DESIGN_GEOMETRIC_PRESENTATION_REPRESENTATION (  '', ( #85 ), #529 ) ;
#311 = ORIENTED_EDGE ( 'NONE', *, *, #457, .F. ) ;
#312 = CARTESIAN_POINT ( 'NONE',  ( 0.000000000000000000, 0.000000000000000000, 38.35068955811993874 ) ) ;
#313 = EDGE_LOOP ( 'NONE', ( #21, #337, #569, #79 ) ) ;
#314 = AXIS2_PLACEMENT_3D ( 'NONE', #32, #471, #80 ) ;
#315 = ADVANCED_FACE ( 'NONE', ( #309 ), #549, .F. ) ;
#316 = AXIS2_PLACEMENT_3D ( 'NONE', #489, #550, #590 ) ;
#317 = PLANE ( 'NONE',  #106 ) ;
#318 = ORIENTED_EDGE ( 'NONE', *, *, #22, .F. ) ;
#319 = VECTOR ( 'NONE', #493, 1000.000000000000000 ) ;
#320 = DIRECTION ( 'NONE',  ( 0.000000000000000000, 0.000000000000000000, -1.000000000000000000 ) ) ;
#321 = ORIENTED_EDGE ( 'NONE', *, *, #45, .T. ) ;
#322 = FACE_BOUND ( 'NONE', #496, .T. ) ;
#323 = ADVANCED_FACE ( 'NONE', ( #265, #354 ), #403, .T. ) ;
#324 = VERTEX_POINT ( 'NONE', #502 ) ;
#325 = EDGE_CURVE ( 'NONE', #189, #487, #580, .T. ) ;
#326 = ORIENTED_EDGE ( 'NONE', *, *, #45, .F. ) ;
#327 = CARTESIAN_POINT ( 'NONE',  ( 0.000000000000000000, 0.000000000000000000, 65.23499999999999943 ) ) ;
#328 = CARTESIAN_POINT ( 'NONE',  ( 11.50000000000000178, 0.000000000000000000, -63.72499999999998721 ) ) ;
#329 = MECHANICAL_DESIGN_GEOMETRIC_PRESENTATION_REPRESENTATION (  '', ( #439 ), #357 ) ;
#330 = DIRECTION ( 'NONE',  ( -1.000000000000000000, 0.000000000000000000, 0.000000000000000000 ) ) ;
#331 = ORIENTED_EDGE ( 'NONE', *, *, #520, .F. ) ;
#332 = EDGE_CURVE ( 'NONE', #324, #487, #118, .T. ) ;
#333 = CYLINDRICAL_SURFACE ( 'NONE', #454, 10.50000000000000178 ) ;
#334 = DIRECTION ( 'NONE',  ( 0.000000000000000000, 0.000000000000000000, -1.000000000000000000 ) ) ;
#335 = AXIS2_PLACEMENT_3D ( 'NONE', #268, #564, #556 ) ;
#336 = CIRCLE ( 'NONE', #173, 8.500000000000000000 ) ;
#337 = ORIENTED_EDGE ( 'NONE', *, *, #161, .T. ) ;
#338 = AXIS2_PLACEMENT_3D ( 'NONE', #422, #184, #476 ) ;
#339 = FACE_OUTER_BOUND ( 'NONE', #395, .T. ) ;
#340 = LINE ( 'NONE', #241, #319 ) ;
#341 = ADVANCED_FACE ( 'NONE', ( #70, #604 ), #317, .T. ) ;
#342 = ORIENTED_EDGE ( 'NONE', *, *, #572, .F. ) ;
#343 = AXIS2_PLACEMENT_3D ( 'NONE', #3, #194, #238 ) ;
#344 = CIRCLE ( 'NONE', #626, 0.5000000000000004441 ) ;
#345 = DIRECTION ( 'NONE',  ( -0.000000000000000000, -0.000000000000000000, 1.000000000000000000 ) ) ;
#346 = ADVANCED_FACE ( 'NONE', ( #352 ), #257, .T. ) ;
#347 = SURFACE_STYLE_USAGE ( .BOTH. , #147 ) ;
#348 = CARTESIAN_POINT ( 'NONE',  ( 0.000000000000000000, 0.000000000000000000, -64.72499999999999432 ) ) ;
#349 = ORIENTED_EDGE ( 'NONE', *, *, #117, .T. ) ;
#350 = DIRECTION ( 'NONE',  ( 0.000000000000000000, 0.000000000000000000, 1.000000000000000000 ) ) ;
#351 = CARTESIAN_POINT ( 'NONE',  ( 12.00000000000000178, 1.469576158976824144E-15, 64.72499999999999432 ) ) ;
#352 = FACE_OUTER_BOUND ( 'NONE', #100, .T. ) ;
#353 = EDGE_LOOP ( 'NONE', ( #213, #31 ) ) ;
#354 = FACE_BOUND ( 'NONE', #469, .T. ) ;
#355 = COLOUR_RGB ( '',0.8980392156862745390, 0.9176470588235293713, 0.9294117647058823817 ) ;
#356 = ORIENTED_EDGE ( 'NONE', *, *, #275, .F. ) ;
#357 =( GEOMETRIC_REPRESENTATION_CONTEXT ( 3 ) GLOBAL_UNCERTAINTY_ASSIGNED_CONTEXT ( ( #467 ) ) GLOBAL_UNIT_ASSIGNED_CONTEXT ( ( #62, #482, #583 ) ) REPRESENTATION_CONTEXT ( 'NONE', 'WORKASPACE' ) );
#358 = ADVANCED_FACE ( 'NONE', ( #124 ), #541, .T. ) ;
#359 = LINE ( 'NONE', #510, #592 ) ;
#360 = VERTEX_POINT ( 'NONE', #461 ) ;
#361 = APPLICATION_CONTEXT ( 'automotive_design' ) ;
#362 = CARTESIAN_POINT ( 'NONE',  ( -12.00000000000000178, 0.000000000000000000, 63.72499999999998721 ) ) ;
#363 = EDGE_LOOP ( 'NONE', ( #342, #2, #171, #545 ) ) ;
#364 = DIRECTION ( 'NONE',  ( -1.000000000000000000, 0.000000000000000000, 0.000000000000000000 ) ) ;
#365 = CIRCLE ( 'NONE', #123, 12.00000000000000178 ) ;
#366 = DIRECTION ( 'NONE',  ( 0.000000000000000000, 0.000000000000000000, -1.000000000000000000 ) ) ;
#367 = ORIENTED_EDGE ( 'NONE', *, *, #297, .T. ) ;
#368 =( NAMED_UNIT ( * ) PLANE_ANGLE_UNIT ( ) SI_UNIT ( $, .RADIAN. ) );
#369 = FACE_OUTER_BOUND ( 'NONE', #433, .T. ) ;
#370 = CIRCLE ( 'NONE', #538, 11.50000000000000178 ) ;
#371 = FACE_OUTER_BOUND ( 'NONE', #363, .T. ) ;
#372 = PRESENTATION_STYLE_ASSIGNMENT (( #29 ) ) ;
#373 = DIRECTION ( 'NONE',  ( -0.000000000000000000, -0.000000000000000000, 1.000000000000000000 ) ) ;
#374 = ORIENTED_EDGE ( 'NONE', *, *, #6, .F. ) ;
#375 = UNCERTAINTY_MEASURE_WITH_UNIT (LENGTH_MEASURE( 1.000000000000000082E-05 ), #567, 'distance_accuracy_value', 'NONE');
#376 = CARTESIAN_POINT ( 'NONE',  ( 12.00000000000000178, 1.469576158976824144E-15, -64.72499999999999432 ) ) ;
#377 = ORIENTED_EDGE ( 'NONE', *, *, #228, .F. ) ;
#378 = EDGE_CURVE ( 'NONE', #595, #305, #359, .T. ) ;
#379 = CIRCLE ( 'NONE', #490, 12.00000000000000178 ) ;
#380 = CARTESIAN_POINT ( 'NONE',  ( 0.000000000000000000, 0.000000000000000000, 63.72499999999998721 ) ) ;
#381 = DIRECTION ( 'NONE',  ( -1.000000000000000000, 0.000000000000000000, 0.000000000000000000 ) ) ;
#382 = CARTESIAN_POINT ( 'NONE',  ( 11.50000000000000178, 1.438959988998140357E-15, 63.22499999999998721 ) ) ;
#383 = ORIENTED_EDGE ( 'NONE', *, *, #135, .F. ) ;
#384 = DIRECTION ( 'NONE',  ( -0.000000000000000000, -0.000000000000000000, 1.000000000000000000 ) ) ;
#385 = EDGE_CURVE ( 'NONE', #263, #252, #344, .T. ) ;
#386 = DIRECTION ( 'NONE',  ( -1.000000000000000000, 0.000000000000000000, 0.000000000000000000 ) ) ;
#387 = CIRCLE ( 'NONE', #618, 8.500000000000000000 ) ;
#388 = VERTEX_POINT ( 'NONE', #518 ) ;
#389 = AXIS2_PLACEMENT_3D ( 'NONE', #101, #293, #488 ) ;
#390 = EDGE_CURVE ( 'NONE', #407, #424, #151, .T. ) ;
#391 = DIRECTION ( 'NONE',  ( 1.000000000000000000, 0.000000000000000000, 0.000000000000000000 ) ) ;
#392 = CARTESIAN_POINT ( 'NONE',  ( 11.50000000000000178, 1.438959988998140357E-15, -65.22499999999999432 ) ) ;
#393 = DIRECTION ( 'NONE',  ( -0.000000000000000000, -0.000000000000000000, 1.000000000000000000 ) ) ;
#394 = DIRECTION ( 'NONE',  ( 0.000000000000000000, 0.000000000000000000, -1.000000000000000000 ) ) ;
#395 = EDGE_LOOP ( 'NONE', ( #18, #90, #259, #511 ) ) ;
#396 = CIRCLE ( 'NONE', #183, 11.50000000000000178 ) ;
#397 = CARTESIAN_POINT ( 'NONE',  ( 8.500000000000000000, 0.000000000000000000, 65.22499999999999432 ) ) ;
#398 = CARTESIAN_POINT ( 'NONE',  ( -12.00000000000000178, 0.000000000000000000, -64.72499999999999432 ) ) ;
#399 = AXIS2_PLACEMENT_3D ( 'NONE', #235, #182, #523 ) ;
#400 = ORIENTED_EDGE ( 'NONE', *, *, #88, .F. ) ;
#401 = ADVANCED_FACE ( 'NONE', ( #48, #468 ), #89, .T. ) ;
#402 = CARTESIAN_POINT ( 'NONE',  ( -10.50000000000000178, 1.285879139104721028E-15, 38.35068955811993874 ) ) ;
#403 = PLANE ( 'NONE',  #136 ) ;
#404 = ORIENTED_EDGE ( 'NONE', *, *, #436, .T. ) ;
#405 = ADVANCED_FACE ( 'NONE', ( #188, #322 ), #236, .T. ) ;
#406 = CARTESIAN_POINT ( 'NONE',  ( 0.000000000000000000, 0.000000000000000000, -65.22500000000000853 ) ) ;
#407 = VERTEX_POINT ( 'NONE', #382 ) ;
#408 = ADVANCED_FACE ( 'NONE', ( #369 ), #43, .T. ) ;
#409 = DIRECTION ( 'NONE',  ( 0.000000000000000000, 0.000000000000000000, -1.000000000000000000 ) ) ;
#410 = AXIS2_PLACEMENT_3D ( 'NONE', #174, #23, #464 ) ;
#411 = ORIENTED_EDGE ( 'NONE', *, *, #473, .F. ) ;
#412 = CARTESIAN_POINT ( 'NONE',  ( 0.000000000000000000, 0.000000000000000000, -64.72499999999999432 ) ) ;
#413 = ORIENTED_EDGE ( 'NONE', *, *, #552, .T. ) ;
#414 = CARTESIAN_POINT ( 'NONE',  ( 11.50000000000000178, 0.000000000000000000, -63.22499999999998721 ) ) ;
#415 = ORIENTED_EDGE ( 'NONE', *, *, #453, .F. ) ;
#416 = FILL_AREA_STYLE_COLOUR ( '', #355 ) ;
#417 = TOROIDAL_SURFACE ( 'NONE', #335, 11.50000000000000178, 0.5000000000000000000 ) ;
#418 = VECTOR ( 'NONE', #191, 1000.000000000000000 ) ;
#419 = CIRCLE ( 'NONE', #338, 12.00000000000000178 ) ;
#420 = CARTESIAN_POINT ( 'NONE',  ( 0.000000000000000000, 0.000000000000000000, 63.22499999999998721 ) ) ;
#421 = ORIENTED_EDGE ( 'NONE', *, *, #99, .F. ) ;
#422 = CARTESIAN_POINT ( 'NONE',  ( 0.000000000000000000, 0.000000000000000000, -63.72499999999998721 ) ) ;
#423 = AXIS2_PLACEMENT_3D ( 'NONE', #190, #9, #12 ) ;
#424 = VERTEX_POINT ( 'NONE', #571 ) ;
#425 = AXIS2_PLACEMENT_3D ( 'NONE', #455, #409, #170 ) ;
#426 = DIRECTION ( 'NONE',  ( 0.000000000000000000, 0.000000000000000000, -1.000000000000000000 ) ) ;
#427 = AXIS2_PLACEMENT_3D ( 'NONE', #495, #437, #7 ) ;
#428 = EDGE_CURVE ( 'NONE', #360, #305, #306, .T. ) ;
#429 = ORIENTED_EDGE ( 'NONE', *, *, #55, .F. ) ;
#430 = DIRECTION ( 'NONE',  ( -1.000000000000000000, 1.224646799147353454E-16, 0.000000000000000000 ) ) ;
#431 = EDGE_LOOP ( 'NONE', ( #138, #421 ) ) ;
#432 = DIRECTION ( 'NONE',  ( -1.000000000000000000, 0.000000000000000000, 0.000000000000000000 ) ) ;
#433 = EDGE_LOOP ( 'NONE', ( #411, #74, #611, #224 ) ) ;
#434 = ADVANCED_BREP_SHAPE_REPRESENTATION ( 'tubo', ( #526, #443 ), #37 ) ;
#435 = CARTESIAN_POINT ( 'NONE',  ( 11.50000000000000178, 0.000000000000000000, 65.22499999999999432 ) ) ;
#436 = EDGE_CURVE ( 'NONE', #324, #536, #137, .T. ) ;
#437 = DIRECTION ( 'NONE',  ( 0.000000000000000000, 0.000000000000000000, -1.000000000000000000 ) ) ;
#438 = PRESENTATION_LAYER_ASSIGNMENT (  '', '', ( #85 ) ) ;
#439 = STYLED_ITEM ( 'NONE', ( #298 ), #526 ) ;
#440 = CARTESIAN_POINT ( 'NONE',  ( 0.000000000000000000, 0.000000000000000000, -63.22499999999998721 ) ) ;
#441 = ORIENTED_EDGE ( 'NONE', *, *, #563, .F. ) ;
#442 = CARTESIAN_POINT ( 'NONE',  ( 0.000000000000000000, 0.000000000000000000, 63.72499999999998721 ) ) ;
#443 = AXIS2_PLACEMENT_3D ( 'NONE', #132, #113, #308 ) ;
#444 = CARTESIAN_POINT ( 'NONE',  ( 0.000000000000000000, 0.000000000000000000, 63.22499999999998721 ) ) ;
#445 = EDGE_CURVE ( 'NONE', #305, #424, #307, .T. ) ;
#446 = DIRECTION ( 'NONE',  ( 1.000000000000000000, 0.000000000000000000, 0.000000000000000000 ) ) ;
#447 = DIRECTION ( 'NONE',  ( 1.000000000000000000, 0.000000000000000000, 0.000000000000000000 ) ) ;
#448 = AXIS2_PLACEMENT_3D ( 'NONE', #98, #587, #300 ) ;
#449 = ORIENTED_EDGE ( 'NONE', *, *, #378, .T. ) ;
#450 = DIRECTION ( 'NONE',  ( -1.000000000000000000, 0.000000000000000000, -0.000000000000000000 ) ) ;
#451 = ORIENTED_EDGE ( 'NONE', *, *, #120, .T. ) ;
#452 = AXIS2_PLACEMENT_3D ( 'NONE', #157, #350, #391 ) ;
#453 = EDGE_CURVE ( 'NONE', #93, #459, #41, .T. ) ;
#454 = AXIS2_PLACEMENT_3D ( 'NONE', #1, #86, #530 ) ;
#455 = CARTESIAN_POINT ( 'NONE',  ( 0.000000000000000000, 0.000000000000000000, 65.23499999999999943 ) ) ;
#456 = VERTEX_POINT ( 'NONE', #233 ) ;
#457 = EDGE_CURVE ( 'NONE', #487, #189, #387, .T. ) ;
#458 = DIRECTION ( 'NONE',  ( -1.000000000000000000, 0.000000000000000000, 0.000000000000000000 ) ) ;
#459 = VERTEX_POINT ( 'NONE', #376 ) ;
#460 = CIRCLE ( 'NONE', #399, 7.000000000000000000 ) ;
#461 = CARTESIAN_POINT ( 'NONE',  ( 12.00000000000000178, 1.469576158976824144E-15, 63.72499999999998721 ) ) ;
#462 = AXIS2_PLACEMENT_3D ( 'NONE', #312, #612, #77 ) ;
#463 = ORIENTED_EDGE ( 'NONE', *, *, #196, .T. ) ;
#464 = DIRECTION ( 'NONE',  ( 1.000000000000000000, 0.000000000000000000, 0.000000000000000000 ) ) ;
#465 = ORIENTED_EDGE ( 'NONE', *, *, #164, .T. ) ;
#466 = EDGE_CURVE ( 'NONE', #93, #269, #419, .T. ) ;
#467 = UNCERTAINTY_MEASURE_WITH_UNIT (LENGTH_MEASURE( 1.000000000000000082E-05 ), #62, 'distance_accuracy_value', 'NONE');
#468 = FACE_BOUND ( 'NONE', #431, .T. ) ;
#469 = EDGE_LOOP ( 'NONE', ( #629, #291 ) ) ;
#470 = AXIS2_PLACEMENT_3D ( 'NONE', #478, #625, #573 ) ;
#471 = DIRECTION ( 'NONE',  ( 0.000000000000000000, -0.000000000000000000, 1.000000000000000000 ) ) ;
#472 = ORIENTED_EDGE ( 'NONE', *, *, #524, .F. ) ;
#473 = EDGE_CURVE ( 'NONE', #595, #456, #501, .T. ) ;
#474 = CARTESIAN_POINT ( 'NONE',  ( 12.00000000000000178, 1.469576158976824144E-15, 65.23499999999999943 ) ) ;
#475 = LINE ( 'NONE', #532, #284 ) ;
#476 = DIRECTION ( 'NONE',  ( 1.000000000000000000, 0.000000000000000000, 0.000000000000000000 ) ) ;
#477 = AXIS2_PLACEMENT_3D ( 'NONE', #440, #539, #10 ) ;
#478 = CARTESIAN_POINT ( 'NONE',  ( 0.000000000000000000, 0.000000000000000000, -65.22500000000000853 ) ) ;
#479 = CIRCLE ( 'NONE', #316, 0.5000000000000004441 ) ;
#480 = CARTESIAN_POINT ( 'NONE',  ( 0.000000000000000000, 0.000000000000000000, 0.000000000000000000 ) ) ;
#481 = ORIENTED_EDGE ( 'NONE', *, *, #378, .F. ) ;
#482 =( NAMED_UNIT ( * ) PLANE_ANGLE_UNIT ( ) SI_UNIT ( $, .RADIAN. ) );
#483 = AXIS2_PLACEMENT_3D ( 'NONE', #15, #301, #494 ) ;
#484 = DIRECTION ( 'NONE',  ( 0.000000000000000000, 0.000000000000000000, -1.000000000000000000 ) ) ;
#485 = CARTESIAN_POINT ( 'NONE',  ( -8.500000000000000000, 1.040949779275250140E-15, 65.22499999999999432 ) ) ;
#486 = DIRECTION ( 'NONE',  ( 1.000000000000000000, 0.000000000000000000, 0.000000000000000000 ) ) ;
#487 = VERTEX_POINT ( 'NONE', #630 ) ;
#488 = DIRECTION ( 'NONE',  ( -1.000000000000000000, 0.000000000000000000, 0.000000000000000000 ) ) ;
#489 = CARTESIAN_POINT ( 'NONE',  ( 11.50000000000000178, 1.408343819019456373E-15, 63.72499999999998721 ) ) ;
#490 = AXIS2_PLACEMENT_3D ( 'NONE', #30, #208, #255 ) ;
#491 = DIRECTION ( 'NONE',  ( -0.000000000000000000, -0.000000000000000000, 1.000000000000000000 ) ) ;
#492 = EDGE_CURVE ( 'NONE', #127, #459, #69, .T. ) ;
#493 = DIRECTION ( 'NONE',  ( 0.000000000000000000, 0.000000000000000000, -1.000000000000000000 ) ) ;
#494 = DIRECTION ( 'NONE',  ( -1.000000000000000000, 0.000000000000000000, 0.000000000000000000 ) ) ;
#495 = CARTESIAN_POINT ( 'NONE',  ( 0.000000000000000000, 0.000000000000000000, -65.22499999999999432 ) ) ;
#496 = EDGE_LOOP ( 'NONE', ( #528, #14 ) ) ;
#497 = DIRECTION ( 'NONE',  ( -1.000000000000000000, 1.224646799147353454E-16, 0.000000000000000000 ) ) ;
#498 = AXIS2_PLACEMENT_3D ( 'NONE', #348, #105, #547 ) ;
#499 = CIRCLE ( 'NONE', #566, 10.50000000000000178 ) ;
#500 = ADVANCED_FACE ( 'NONE', ( #575 ), #133, .T. ) ;
#501 = CIRCLE ( 'NONE', #146, 0.5000000000000004441 ) ;
#502 = CARTESIAN_POINT ( 'NONE',  ( -7.000000000000000000, 9.491012693391987787E-16, 0.000000000000000000 ) ) ;
#503 = EDGE_LOOP ( 'NONE', ( #608, #116 ) ) ;
#504 = ADVANCED_FACE ( 'NONE', ( #139 ), #333, .T. ) ;
#505 = CIRCLE ( 'NONE', #423, 11.50000000000000178 ) ;
#506 = DIRECTION ( 'NONE',  ( 1.224646799147353207E-16, 1.000000000000000000, -0.000000000000000000 ) ) ;
#507 = AXIS2_PLACEMENT_3D ( 'NONE', #420, #581, #330 ) ;
#508 = EDGE_LOOP ( 'NONE', ( #383, #377, #296, #169 ) ) ;
#509 = AXIS2_PLACEMENT_3D ( 'NONE', #158, #239, #386 ) ;
#510 = CARTESIAN_POINT ( 'NONE',  ( -12.00000000000000178, 0.000000000000000000, 65.23499999999999943 ) ) ;
#511 = ORIENTED_EDGE ( 'NONE', *, *, #390, .F. ) ;
#512 = APPLICATION_PROTOCOL_DEFINITION ( 'draft international standard', 'automotive_design', 1998, #216 ) ;
#513 = ADVANCED_FACE ( 'NONE', ( #283 ), #227, .F. ) ;
#514 = DIRECTION ( 'NONE',  ( -0.000000000000000000, -1.000000000000000000, -0.000000000000000000 ) ) ;
#515 = ORIENTED_EDGE ( 'NONE', *, *, #473, .T. ) ;
#516 = DIRECTION ( 'NONE',  ( 0.000000000000000000, 0.000000000000000000, 1.000000000000000000 ) ) ;
#517 = ORIENTED_EDGE ( 'NONE', *, *, #156, .T. ) ;
#518 = CARTESIAN_POINT ( 'NONE',  ( 7.000000000000000000, 0.000000000000000000, 0.000000000000000000 ) ) ;
#519 = LINE ( 'NONE', #226, #597 ) ;
#520 = EDGE_CURVE ( 'NONE', #252, #456, #505, .T. ) ;
#521 = CLOSED_SHELL ( 'NONE', ( #264, #358, #591, #244, #504, #35, #513, #181, #500, #346, #632, #292, #323, #8, #401, #315, #341, #405, #272, #214, #576, #408 ) ) ;
#522 = DIRECTION ( 'NONE',  ( -1.000000000000000000, 0.000000000000000000, 0.000000000000000000 ) ) ;
#523 = DIRECTION ( 'NONE',  ( 1.000000000000000000, 0.000000000000000000, 0.000000000000000000 ) ) ;
#524 = EDGE_CURVE ( 'NONE', #119, #613, #623, .T. ) ;
#525 = COLOUR_RGB ( '',0.8980392156862745390, 0.9176470588235293713, 0.9294117647058823817 ) ;
#526 = MANIFOLD_SOLID_BREP ( 'Fillet1', #521 ) ;
#527 = DIRECTION ( 'NONE',  ( 0.000000000000000000, -1.000000000000000000, 0.000000000000000000 ) ) ;
#528 = ORIENTED_EDGE ( 'NONE', *, *, #228, .T. ) ;
#529 =( GEOMETRIC_REPRESENTATION_CONTEXT ( 3 ) GLOBAL_UNCERTAINTY_ASSIGNED_CONTEXT ( ( #616 ) ) GLOBAL_UNIT_ASSIGNED_CONTEXT ( ( #554, #215, #128 ) ) REPRESENTATION_CONTEXT ( 'NONE', 'WORKASPACE' ) );
#530 = DIRECTION ( 'NONE',  ( 1.000000000000000000, 0.000000000000000000, 0.000000000000000000 ) ) ;
#531 = PRODUCT_RELATED_PRODUCT_CATEGORY ( 'part', '', ( #223 ) ) ;
#532 = CARTESIAN_POINT ( 'NONE',  ( 7.000000000000000000, 0.000000000000000000, 0.000000000000000000 ) ) ;
#533 = AXIS2_PLACEMENT_3D ( 'NONE', #412, #366, #458 ) ;
#534 = AXIS2_PLACEMENT_3D ( 'NONE', #140, #334, #84 ) ;
#535 = DIRECTION ( 'NONE',  ( 1.000000000000000000, 0.000000000000000000, 0.000000000000000000 ) ) ;
#536 = VERTEX_POINT ( 'NONE', #485 ) ;
#537 = CARTESIAN_POINT ( 'NONE',  ( -12.00000000000000178, 0.000000000000000000, 64.72499999999999432 ) ) ;
#538 = AXIS2_PLACEMENT_3D ( 'NONE', #248, #250, #446 ) ;
#539 = DIRECTION ( 'NONE',  ( -0.000000000000000000, -0.000000000000000000, -1.000000000000000000 ) ) ;
#540 = ORIENTED_EDGE ( 'NONE', *, *, #196, .F. ) ;
#541 = TOROIDAL_SURFACE ( 'NONE', #260, 11.50000000000000178, 0.5000000000000000000 ) ;
#542 = CARTESIAN_POINT ( 'NONE',  ( -11.50000000000000178, 0.000000000000000000, -65.22499999999999432 ) ) ;
#543 = AXIS2_PLACEMENT_3D ( 'NONE', #594, #57, #50 ) ;
#544 = DIRECTION ( 'NONE',  ( -0.000000000000000000, -0.000000000000000000, 1.000000000000000000 ) ) ;
#545 = ORIENTED_EDGE ( 'NONE', *, *, #325, .F. ) ;
#546 = EDGE_CURVE ( 'NONE', #459, #127, #558, .T. ) ;
#547 = DIRECTION ( 'NONE',  ( -1.000000000000000000, 0.000000000000000000, 0.000000000000000000 ) ) ;
#548 = EDGE_LOOP ( 'NONE', ( #111, #367, #449, #209 ) ) ;
#549 = CONICAL_SURFACE ( 'NONE', #410, 7.000000000000000000, 0.02299326401820337568 ) ;
#550 = DIRECTION ( 'NONE',  ( -1.224646799147353207E-16, 1.000000000000000000, 0.000000000000000000 ) ) ;
#551 = DIRECTION ( 'NONE',  ( 0.000000000000000000, 0.000000000000000000, -1.000000000000000000 ) ) ;
#552 = EDGE_CURVE ( 'NONE', #579, #536, #167, .T. ) ;
#553 = DIRECTION ( 'NONE',  ( 1.000000000000000000, 0.000000000000000000, 0.000000000000000000 ) ) ;
#554 =( LENGTH_UNIT ( ) NAMED_UNIT ( * ) SI_UNIT ( .MILLI., .METRE. ) );
#555 = EDGE_CURVE ( 'NONE', #33, #271, #179, .T. ) ;
#556 = DIRECTION ( 'NONE',  ( 1.000000000000000000, 0.000000000000000000, 0.000000000000000000 ) ) ;
#557 = ORIENTED_EDGE ( 'NONE', *, *, #332, .F. ) ;
#558 = CIRCLE ( 'NONE', #606, 12.00000000000000178 ) ;
#559 = CARTESIAN_POINT ( 'NONE',  ( 0.000000000000000000, 0.000000000000000000, -65.22499999999999432 ) ) ;
#560 = ORIENTED_EDGE ( 'NONE', *, *, #466, .F. ) ;
#561 = FACE_OUTER_BOUND ( 'NONE', #508, .T. ) ;
#562 = ORIENTED_EDGE ( 'NONE', *, *, #156, .F. ) ;
#563 = EDGE_CURVE ( 'NONE', #271, #33, #370, .T. ) ;
#564 = DIRECTION ( 'NONE',  ( -0.000000000000000000, -0.000000000000000000, 1.000000000000000000 ) ) ;
#565 = VERTEX_POINT ( 'NONE', #542 ) ;
#566 = AXIS2_PLACEMENT_3D ( 'NONE', #444, #394, #294 ) ;
#567 =( LENGTH_UNIT ( ) NAMED_UNIT ( * ) SI_UNIT ( .MILLI., .METRE. ) );
#568 = CYLINDRICAL_SURFACE ( 'NONE', #462, 10.50000000000000178 ) ;
#569 = ORIENTED_EDGE ( 'NONE', *, *, #51, .F. ) ;
#570 = AXIS2_PLACEMENT_3D ( 'NONE', #442, #141, #94 ) ;
#571 = CARTESIAN_POINT ( 'NONE',  ( -11.50000000000000178, 0.000000000000000000, 63.22499999999998721 ) ) ;
#572 = EDGE_CURVE ( 'NONE', #388, #189, #596, .T. ) ;
#573 = DIRECTION ( 'NONE',  ( -1.000000000000000000, 0.000000000000000000, 0.000000000000000000 ) ) ;
#574 = CYLINDRICAL_SURFACE ( 'NONE', #276, 12.00000000000000178 ) ;
#575 = FACE_OUTER_BOUND ( 'NONE', #155, .T. ) ;
#576 = ADVANCED_FACE ( 'NONE', ( #339 ), #96, .T. ) ;
#577 = CARTESIAN_POINT ( 'NONE',  ( -11.50000000000000178, 1.438959988998140357E-15, -63.22499999999998721 ) ) ;
#578 = CARTESIAN_POINT ( 'NONE',  ( 0.000000000000000000, 0.000000000000000000, -63.22499999999998721 ) ) ;
#579 = VERTEX_POINT ( 'NONE', #397 ) ;
#580 = CIRCLE ( 'NONE', #299, 8.500000000000000000 ) ;
#581 = DIRECTION ( 'NONE',  ( 0.000000000000000000, 0.000000000000000000, -1.000000000000000000 ) ) ;
#582 = FACE_OUTER_BOUND ( 'NONE', #185, .T. ) ;
#583 =( NAMED_UNIT ( * ) SI_UNIT ( $, .STERADIAN. ) SOLID_ANGLE_UNIT ( ) );
#584 = ORIENTED_EDGE ( 'NONE', *, *, #609, .F. ) ;
#585 = DIRECTION ( 'NONE',  ( 0.02299123801957250399, 2.815614604910439718E-18, -0.9997356665510775953 ) ) ;
#586 = VECTOR ( 'NONE', #270, 1000.000000000000000 ) ;
#587 = DIRECTION ( 'NONE',  ( -1.224646799147353207E-16, 1.000000000000000000, 0.000000000000000000 ) ) ;
#588 = VERTEX_POINT ( 'NONE', #240 ) ;
#589 = CARTESIAN_POINT ( 'NONE',  ( 10.50000000000000178, 0.000000000000000000, -63.22499999999998721 ) ) ;
#590 = DIRECTION ( 'NONE',  ( -1.000000000000000000, -1.224646799147353454E-16, 0.000000000000000000 ) ) ;
#591 = ADVANCED_FACE ( 'NONE', ( #192 ), #20, .T. ) ;
#592 = VECTOR ( 'NONE', #75, 1000.000000000000000 ) ;
#593 = FILL_AREA_STYLE_COLOUR ( '', #525 ) ;
#594 = CARTESIAN_POINT ( 'NONE',  ( 0.000000000000000000, 0.000000000000000000, 65.23499999999999943 ) ) ;
#595 = VERTEX_POINT ( 'NONE', #537 ) ;
#596 = LINE ( 'NONE', #199, #288 ) ;
#597 = VECTOR ( 'NONE', #279, 1000.000000000000000 ) ;
#598 = CARTESIAN_POINT ( 'NONE',  ( 0.000000000000000000, 0.000000000000000000, 65.22499999999999432 ) ) ;
#599 = DIRECTION ( 'NONE',  ( -0.000000000000000000, -0.000000000000000000, 1.000000000000000000 ) ) ;
#600 = EDGE_LOOP ( 'NONE', ( #472, #76, #463, #28 ) ) ;
#601 =( NAMED_UNIT ( * ) SI_UNIT ( $, .STERADIAN. ) SOLID_ANGLE_UNIT ( ) );
#602 = DIRECTION ( 'NONE',  ( 0.000000000000000000, 0.000000000000000000, -1.000000000000000000 ) ) ;
#603 = EDGE_LOOP ( 'NONE', ( #318, #404, #71, #429 ) ) ;
#604 = FACE_BOUND ( 'NONE', #287, .T. ) ;
#605 = ORIENTED_EDGE ( 'NONE', *, *, #492, .T. ) ;
#606 = AXIS2_PLACEMENT_3D ( 'NONE', #104, #384, #52 ) ;
#607 = DIRECTION ( 'NONE',  ( -1.000000000000000000, 0.000000000000000000, 0.000000000000000000 ) ) ;
#608 = ORIENTED_EDGE ( 'NONE', *, *, #609, .T. ) ;
#609 = EDGE_CURVE ( 'NONE', #565, #242, #621, .T. ) ;
#610 = CARTESIAN_POINT ( 'NONE',  ( -11.50000000000000178, 1.408343819019456373E-15, -63.72499999999998721 ) ) ;
#611 = ORIENTED_EDGE ( 'NONE', *, *, #385, .T. ) ;
#612 = DIRECTION ( 'NONE',  ( -0.000000000000000000, -0.000000000000000000, 1.000000000000000000 ) ) ;
#613 = VERTEX_POINT ( 'NONE', #589 ) ;
#614 = AXIS2_PLACEMENT_3D ( 'NONE', #610, #506, #497 ) ;
#615 = AXIS2_PLACEMENT_3D ( 'NONE', #60, #110, #447 ) ;
#616 = UNCERTAINTY_MEASURE_WITH_UNIT (LENGTH_MEASURE( 1.000000000000000082E-05 ), #554, 'distance_accuracy_value', 'NONE');
#617 = FILL_AREA_STYLE ('',( #416 ) ) ;
#618 = AXIS2_PLACEMENT_3D ( 'NONE', #281, #38, #225 ) ;
#619 = CARTESIAN_POINT ( 'NONE',  ( -11.50000000000000178, 0.000000000000000000, 63.72499999999998721 ) ) ;
#620 = ORIENTED_EDGE ( 'NONE', *, *, #390, .T. ) ;
#621 = CIRCLE ( 'NONE', #483, 11.50000000000000178 ) ;
#622 = EDGE_CURVE ( 'NONE', #305, #360, #256, .T. ) ;
#623 = CIRCLE ( 'NONE', #343, 10.50000000000000178 ) ;
#624 = CARTESIAN_POINT ( 'NONE',  ( -11.50000000000000178, 1.408343819019456373E-15, 64.72499999999999432 ) ) ;
#625 = DIRECTION ( 'NONE',  ( 0.000000000000000000, 0.000000000000000000, -1.000000000000000000 ) ) ;
#626 = AXIS2_PLACEMENT_3D ( 'NONE', #27, #527, #426 ) ;
#627 = CIRCLE ( 'NONE', #427, 11.50000000000000178 ) ;
#628 = DIRECTION ( 'NONE',  ( 1.000000000000000000, 0.000000000000000000, 0.000000000000000000 ) ) ;
#629 = ORIENTED_EDGE ( 'NONE', *, *, #457, .T. ) ;
#630 = CARTESIAN_POINT ( 'NONE',  ( -8.500000000000000000, 0.000000000000000000, -65.22500000000000853 ) ) ;
#631 = CARTESIAN_POINT ( 'NONE',  ( 10.50000000000000178, 0.000000000000000000, 63.22499999999998721 ) ) ;
#632 = ADVANCED_FACE ( 'NONE', ( #56 ), #574, .T. ) ;
ENDSEC;
END-ISO-10303-21;
