ISO-10303-21;
HEADER;
FILE_DESCRIPTION(('STEP AP214'),'1');
FILE_NAME('T_3_ADI','2021-01-29T17:34:07',(''),(''),'','','');
FILE_SCHEMA(('AUTOMOTIVE_DESIGN'));
ENDSEC;
DATA;
#1=SHAPE_DEFINITION_REPRESENTATION(#2,#3);
#2=PRODUCT_DEFINITION_SHAPE('',$,#4);
#3=SHAPE_REPRESENTATION('',(#71,#238,#832,#1426,#19),#11);
#4=PRODUCT_DEFINITION('design','example product_definition',#6,#5);
#5=PRODUCT_DEFINITION_CONTEXT('3D Mechanical Parts',#10,'design');
#6=PRODUCT_DEFINITION_FORMATION('1.0','first version',#8);
#7=APPLICATION_PROTOCOL_DEFINITION('international standard','automotive_design',2003,#10);
#8=PRODUCT('product','part','',(#9));
#9=PRODUCT_CONTEXT('3D Mechanical Parts',#10,'mechanical');
#10=APPLICATION_CONTEXT('Core Data for Automotive Mechanical Design Process');
#11=(GEOMETRIC_REPRESENTATION_CONTEXT(3) GLOBAL_UNCERTAINTY_ASSIGNED_CONTEXT((#12)) GLOBAL_UNIT_ASSIGNED_CONTEXT((#13,#14,#18)) REPRESENTATION_CONTEXT('ID1','3D'));
#12=UNCERTAINTY_MEASURE_WITH_UNIT(LENGTH_MEASURE(1.E-005),#13,'DISTANCE_ACCURACY_VALUE','Maximum model space distance between geometric entities at asserted connectivities');
#13=(LENGTH_UNIT() NAMED_UNIT(*) SI_UNIT(.MILLI.,.METRE.));
#14=(CONVERSION_BASED_UNIT('degree',#16) NAMED_UNIT(#15) PLANE_ANGLE_UNIT());
#15=DIMENSIONAL_EXPONENTS(0.,0.,0.,0.,0.,0.,0.);
#16=MEASURE_WITH_UNIT(PLANE_ANGLE_MEASURE(0.01745329252),#17);
#17=(NAMED_UNIT(*) PLANE_ANGLE_UNIT() SI_UNIT($,.RADIAN.));
#18=(NAMED_UNIT(*) SI_UNIT($,.STERADIAN.) SOLID_ANGLE_UNIT());
#19=AXIS2_PLACEMENT_3D('',#20,#21,#22);
#20=CARTESIAN_POINT('',(0.0,0.0,0.0));
#21=DIRECTION('',(0.0,0.0,1.0));
#22=DIRECTION('',(1.0,0.0,0.0));
#25=MECHANICAL_DESIGN_GEOMETRIC_PRESENTATION_REPRESENTATION($,(#73,#122,#175,#206,#240,#271,#302,#355,#408,#461,#514,#567,#620,#673,#726,#779,#834,#865,#896,#949,#1002,#1055,#1108,#1161,#1214,#1267,#1320,#1373,#1428,#1459,#1490,#1543,#1596,#1649,#1702,#1755,#1808,#1861,#1914,#1967),#11);
#26=PRODUCT_CATEGORY_RELATIONSHIP('','',#27,#28);
#27=PRODUCT_CATEGORY('part','');
#28=PRODUCT_RELATED_PRODUCT_CATEGORY('','',(#8));
#34=PRESENTATION_STYLE_ASSIGNMENT((#35,#40));
#35=SURFACE_STYLE_USAGE(.BOTH.,#36);
#36=SURFACE_SIDE_STYLE('',(#37));
#37=SURFACE_STYLE_FILL_AREA(#38);
#38=FILL_AREA_STYLE('',(#39));
#39=FILL_AREA_STYLE_COLOUR('',#41);
#40=CURVE_STYLE('',#42,POSITIVE_LENGTH_MEASURE(0.1),#41);
#41=COLOUR_RGB('Aluminum',0.725,0.725,0.725);
#42=DRAUGHTING_PRE_DEFINED_CURVE_FONT('continuous');
#43=PRESENTATION_STYLE_ASSIGNMENT((#44,#49));
#44=SURFACE_STYLE_USAGE(.BOTH.,#45);
#45=SURFACE_SIDE_STYLE('',(#46));
#46=SURFACE_STYLE_FILL_AREA(#47);
#47=FILL_AREA_STYLE('',(#48));
#48=FILL_AREA_STYLE_COLOUR('',#50);
#49=CURVE_STYLE('',#51,POSITIVE_LENGTH_MEASURE(0.1),#50);
#50=COLOUR_RGB('Black',0.196,0.196,0.196);
#51=DRAUGHTING_PRE_DEFINED_CURVE_FONT('continuous');
#52=PRESENTATION_STYLE_ASSIGNMENT((#53,#58));
#53=SURFACE_STYLE_USAGE(.BOTH.,#54);
#54=SURFACE_SIDE_STYLE('',(#55));
#55=SURFACE_STYLE_FILL_AREA(#56);
#56=FILL_AREA_STYLE('',(#57));
#57=FILL_AREA_STYLE_COLOUR('',#59);
#58=CURVE_STYLE('',#60,POSITIVE_LENGTH_MEASURE(0.1),#59);
#59=COLOUR_RGB('Pin1Axial',0.98,0.706,0.176);
#60=DRAUGHTING_PRE_DEFINED_CURVE_FONT('continuous');
#61=PRESENTATION_STYLE_ASSIGNMENT((#62,#67));
#62=SURFACE_STYLE_USAGE(.BOTH.,#63);
#63=SURFACE_SIDE_STYLE('',(#64));
#64=SURFACE_STYLE_FILL_AREA(#65);
#65=FILL_AREA_STYLE('',(#66));
#66=FILL_AREA_STYLE_COLOUR('',#68);
#67=CURVE_STYLE('',#69,POSITIVE_LENGTH_MEASURE(0.1),#68);
#68=COLOUR_RGB('HeatTab',0.588,0.588,0.588);
#69=DRAUGHTING_PRE_DEFINED_CURVE_FONT('continuous');
#71=MANIFOLD_SOLID_BREP($,#72);
#72=CLOSED_SHELL('',(#74,#123,#176,#207));
#73=STYLED_ITEM('',(#43),#74);
#74=ADVANCED_FACE('',(#80),#75,.T.);
#75=PLANE('',#76);
#76=AXIS2_PLACEMENT_3D('',#77,#78,#79);
#77=CARTESIAN_POINT('',(-1.099,0.19,0.0));
#78=DIRECTION('',(0.0,-1.0,0.0));
#79=DIRECTION('',(0.,0.,1.));
#80=FACE_OUTER_BOUND('',#81,.T.);
#81=EDGE_LOOP('',(#82,#92,#102,#112));
#85=CARTESIAN_POINT('',(3.639,0.19,0.0));
#84=VERTEX_POINT('',#85);
#87=CARTESIAN_POINT('',(-1.099,0.19,0.0));
#86=VERTEX_POINT('',#87);
#83=EDGE_CURVE('',#84,#86,#88,.T.);
#88=LINE('',#85,#90);
#90=VECTOR('',#91,4.73830855896912);
#91=DIRECTION('',(-1.0,0.0,0.0));
#82=ORIENTED_EDGE('',*,*,#83,.F.);
#95=CARTESIAN_POINT('',(3.639,0.19,5.334));
#94=VERTEX_POINT('',#95);
#93=EDGE_CURVE('',#94,#84,#98,.T.);
#98=LINE('',#95,#100);
#100=VECTOR('',#101,5.334);
#101=DIRECTION('',(0.0,0.0,-1.0));
#92=ORIENTED_EDGE('',*,*,#93,.F.);
#105=CARTESIAN_POINT('',(-1.099,0.19,5.334));
#104=VERTEX_POINT('',#105);
#103=EDGE_CURVE('',#104,#94,#108,.T.);
#108=LINE('',#105,#110);
#110=VECTOR('',#111,4.73830855896912);
#111=DIRECTION('',(1.0,0.0,0.0));
#102=ORIENTED_EDGE('',*,*,#103,.F.);
#113=EDGE_CURVE('',#86,#104,#118,.T.);
#118=LINE('',#87,#120);
#120=VECTOR('',#121,5.334);
#121=DIRECTION('',(0.0,0.0,1.0));
#112=ORIENTED_EDGE('',*,*,#113,.F.);
#122=STYLED_ITEM('color',(#43),#123);
#123=ADVANCED_FACE($,(#129),#124,.T.);
#124=CYLINDRICAL_SURFACE($,#125,2.6035);
#125=AXIS2_PLACEMENT_3D($,#126,#127,#128);
#126=CARTESIAN_POINT('',(1.27,1.27,0.0));
#127=DIRECTION('',(0.,0.,1.));
#128=DIRECTION('',(0.,1.,0.));
#129=FACE_OUTER_BOUND($,#130,.T.);
#130=EDGE_LOOP($,(#153, #131, #163, #142));
#153=ORIENTED_EDGE('',*,*,#113,.T.);
#132=EDGE_CURVE($,#94,#104,#137,.T.);
#137=CIRCLE($,#138,2.6035);
#139=CARTESIAN_POINT('',(1.27,1.27,5.334));
#138=AXIS2_PLACEMENT_3D($,#139,#140,#141);
#140=DIRECTION('',(0.0,0.0,1.0));
#141=DIRECTION('',(-1.0,0.0,0.0));
#131=ORIENTED_EDGE('',*,*,#132,.F.);
#163=ORIENTED_EDGE('',*,*,#93,.T.);
#143=EDGE_CURVE($,#86,#84,#148,.T.);
#148=CIRCLE($,#149,2.6035);
#150=CARTESIAN_POINT('',(1.27,1.27,0.0));
#149=AXIS2_PLACEMENT_3D($,#150,#151,#152);
#151=DIRECTION('',(0.0,0.0,-1.0));
#152=DIRECTION('',(1.0,0.0,0.0));
#142=ORIENTED_EDGE('',*,*,#143,.F.);
#175=STYLED_ITEM('color',(#43),#176);
#176=ADVANCED_FACE($,(#182),#177,.T.);
#177=PLANE($,#178);
#178=AXIS2_PLACEMENT_3D($,#179,#180,#181);
#179=CARTESIAN_POINT('',(1.27,1.27,5.334));
#180=DIRECTION('',(0.,0.,1.));
#181=DIRECTION('',(1.,0.,0.));
#182=FACE_OUTER_BOUND($,#183,.T.);
#183=EDGE_LOOP($,(#184, #195));
#184=ORIENTED_EDGE('',*,*,#103,.T.);
#195=ORIENTED_EDGE('',*,*,#132,.T.);
#206=STYLED_ITEM('color',(#43),#207);
#207=ADVANCED_FACE($,(#213),#208,.T.);
#208=PLANE($,#209);
#209=AXIS2_PLACEMENT_3D($,#210,#211,#212);
#210=CARTESIAN_POINT('',(1.27,1.27,0.0));
#211=DIRECTION('',(0.,0.,-1.));
#212=DIRECTION('',(-1.,0.,0.));
#213=FACE_OUTER_BOUND($,#214,.T.);
#214=EDGE_LOOP($,(#215, #226));
#215=ORIENTED_EDGE('',*,*,#83,.T.);
#226=ORIENTED_EDGE('',*,*,#143,.T.);
#238=MANIFOLD_SOLID_BREP($,#239);
#239=CLOSED_SHELL('',(#241,#272,#303,#356,#409,#462,#515,#568,#621,#674,#727,#780));
#240=STYLED_ITEM('color',(#34),#241);
#241=ADVANCED_FACE($,(#247),#242,.T.);
#242=PLANE($,#243);
#243=AXIS2_PLACEMENT_3D($,#244,#245,#246);
#244=CARTESIAN_POINT('',(2.54,0.19,0.0));
#245=DIRECTION('',(0.,0.,1.));
#246=DIRECTION('',(0.,1.,0.));
#247=FACE_OUTER_BOUND($,#248,.T.);
#248=EDGE_LOOP($,(#249, #260));
#252=CARTESIAN_POINT('',(2.54,0.444,0.0));
#251=VERTEX_POINT('',#252);
#254=CARTESIAN_POINT('',(2.54,-0.063,0.0));
#253=VERTEX_POINT('',#254);
#250=EDGE_CURVE($,#251,#253,#255,.T.);
#255=CIRCLE($,#256,0.254);
#257=CARTESIAN_POINT('',(2.54,0.19,0.0));
#256=AXIS2_PLACEMENT_3D($,#257,#258,#259);
#258=DIRECTION('',(0.0,0.0,-1.0));
#259=DIRECTION('',(0.0,-1.0,0.0));
#249=ORIENTED_EDGE('',*,*,#250,.F.);
#261=EDGE_CURVE($,#253,#251,#266,.T.);
#266=CIRCLE($,#267,0.254);
#267=AXIS2_PLACEMENT_3D($,#257,#269,#270);
#269=DIRECTION('',(0.0,0.0,-1.0));
#270=DIRECTION('',(0.0,1.0,0.0));
#260=ORIENTED_EDGE('',*,*,#261,.F.);
#271=STYLED_ITEM('color',(#34),#272);
#272=ADVANCED_FACE($,(#278),#273,.T.);
#273=PLANE($,#274);
#274=AXIS2_PLACEMENT_3D($,#275,#276,#277);
#275=CARTESIAN_POINT('',(2.54,0.0,-4.572));
#276=DIRECTION('',(0.,0.,-1.));
#277=DIRECTION('',(0.,1.,0.));
#278=FACE_OUTER_BOUND($,#279,.T.);
#279=EDGE_LOOP($,(#280, #291));
#283=CARTESIAN_POINT('',(2.54,0.254,-4.572));
#282=VERTEX_POINT('',#283);
#285=CARTESIAN_POINT('',(2.54,-0.254,-4.572));
#284=VERTEX_POINT('',#285);
#281=EDGE_CURVE($,#282,#284,#286,.T.);
#286=CIRCLE($,#287,0.254);
#288=CARTESIAN_POINT('',(2.54,0.0,-4.572));
#287=AXIS2_PLACEMENT_3D($,#288,#289,#290);
#289=DIRECTION('',(0.0,0.0,1.0));
#290=DIRECTION('',(0.0,-1.0,0.0));
#280=ORIENTED_EDGE('',*,*,#281,.F.);
#292=EDGE_CURVE($,#284,#282,#297,.T.);
#297=CIRCLE($,#298,0.254);
#298=AXIS2_PLACEMENT_3D($,#288,#300,#301);
#300=DIRECTION('',(0.0,0.0,1.0));
#301=DIRECTION('',(0.0,1.0,0.0));
#291=ORIENTED_EDGE('',*,*,#292,.F.);
#302=STYLED_ITEM('color',(#34),#303);
#303=ADVANCED_FACE($,(#309),#304,.T.);
#304=CYLINDRICAL_SURFACE($,#305,0.254);
#305=AXIS2_PLACEMENT_3D($,#306,#307,#308);
#306=CARTESIAN_POINT('',(2.54,0.19,-0.203));
#307=DIRECTION('',(0.,0.,1.));
#308=DIRECTION('',(1.0,0.0,0.0));
#309=FACE_OUTER_BOUND($,#310,.T.);
#310=EDGE_LOOP($,(#333, #311, #343, #322));
#336=CARTESIAN_POINT('',(2.54,0.444,-0.203));
#335=VERTEX_POINT('',#336);
#334=EDGE_CURVE('',#335,#251,#339,.T.);
#339=LINE('',#336,#341);
#341=VECTOR('',#342,0.2032);
#342=DIRECTION('',(0.0,0.0,1.0));
#333=ORIENTED_EDGE('',*,*,#334,.F.);
#314=CARTESIAN_POINT('',(2.54,-0.063,-0.203));
#313=VERTEX_POINT('',#314);
#312=EDGE_CURVE($,#313,#335,#317,.T.);
#317=CIRCLE($,#318,0.254);
#319=CARTESIAN_POINT('',(2.54,0.19,-0.203));
#318=AXIS2_PLACEMENT_3D($,#319,#320,#321);
#320=DIRECTION('',(0.0,0.0,-1.0));
#321=DIRECTION('',(0.0,1.0,0.0));
#311=ORIENTED_EDGE('',*,*,#312,.F.);
#344=EDGE_CURVE('',#253,#313,#349,.T.);
#349=LINE('',#254,#351);
#351=VECTOR('',#352,0.2032);
#352=DIRECTION('',(0.0,0.0,-1.0));
#343=ORIENTED_EDGE('',*,*,#344,.F.);
#322=ORIENTED_EDGE('',*,*,#261,.T.);
#355=STYLED_ITEM('color',(#34),#356);
#356=ADVANCED_FACE($,(#362),#357,.T.);
#357=CYLINDRICAL_SURFACE($,#358,0.254);
#358=AXIS2_PLACEMENT_3D($,#359,#360,#361);
#359=CARTESIAN_POINT('',(2.54,0.19,-0.203));
#360=DIRECTION('',(0.,0.,1.));
#361=DIRECTION('',(1.0,0.0,0.0));
#362=FACE_OUTER_BOUND($,#363,.T.);
#363=EDGE_LOOP($,(#386, #364, #396, #375));
#386=ORIENTED_EDGE('',*,*,#344,.T.);
#365=EDGE_CURVE($,#335,#313,#370,.T.);
#370=CIRCLE($,#371,0.254);
#371=AXIS2_PLACEMENT_3D($,#319,#373,#374);
#373=DIRECTION('',(0.0,0.0,-1.0));
#374=DIRECTION('',(0.0,-1.0,0.0));
#364=ORIENTED_EDGE('',*,*,#365,.F.);
#396=ORIENTED_EDGE('',*,*,#334,.T.);
#375=ORIENTED_EDGE('',*,*,#250,.T.);
#408=STYLED_ITEM('color',(#34),#409);
#409=ADVANCED_FACE($,(#415),#410,.T.);
#410=CYLINDRICAL_SURFACE($,#411,0.254);
#411=AXIS2_PLACEMENT_3D($,#412,#413,#414);
#412=CARTESIAN_POINT('',(2.54,0.0,-4.572));
#413=DIRECTION('',(0.,0.,1.));
#414=DIRECTION('',(1.0,0.0,0.0));
#415=FACE_OUTER_BOUND($,#416,.T.);
#416=EDGE_LOOP($,(#439, #417, #449, #428));
#444=CARTESIAN_POINT('',(2.54,0.254,-2.032));
#443=VERTEX_POINT('',#444);
#440=EDGE_CURVE('',#282,#443,#445,.T.);
#445=LINE('',#283,#447);
#447=VECTOR('',#448,2.54);
#448=DIRECTION('',(0.0,0.0,1.0));
#439=ORIENTED_EDGE('',*,*,#440,.F.);
#417=ORIENTED_EDGE('',*,*,#281,.T.);
#452=CARTESIAN_POINT('',(2.54,-0.254,-2.032));
#451=VERTEX_POINT('',#452);
#450=EDGE_CURVE('',#451,#284,#455,.T.);
#455=LINE('',#452,#457);
#457=VECTOR('',#458,2.54);
#458=DIRECTION('',(0.0,0.0,-1.0));
#449=ORIENTED_EDGE('',*,*,#450,.F.);
#429=EDGE_CURVE($,#443,#451,#434,.T.);
#434=CIRCLE($,#435,0.254);
#436=CARTESIAN_POINT('',(2.54,0.0,-2.032));
#435=AXIS2_PLACEMENT_3D($,#436,#437,#438);
#437=DIRECTION('',(0.0,0.0,1.0));
#438=DIRECTION('',(0.0,-1.0,0.0));
#428=ORIENTED_EDGE('',*,*,#429,.F.);
#461=STYLED_ITEM('color',(#34),#462);
#462=ADVANCED_FACE($,(#468),#463,.T.);
#463=CYLINDRICAL_SURFACE($,#464,0.254);
#464=AXIS2_PLACEMENT_3D($,#465,#466,#467);
#465=CARTESIAN_POINT('',(2.54,0.0,-4.572));
#466=DIRECTION('',(0.,0.,1.));
#467=DIRECTION('',(1.0,0.0,0.0));
#468=FACE_OUTER_BOUND($,#469,.T.);
#469=EDGE_LOOP($,(#492, #470, #502, #481));
#492=ORIENTED_EDGE('',*,*,#450,.T.);
#470=ORIENTED_EDGE('',*,*,#292,.T.);
#502=ORIENTED_EDGE('',*,*,#440,.T.);
#482=EDGE_CURVE($,#451,#443,#487,.T.);
#487=CIRCLE($,#488,0.254);
#488=AXIS2_PLACEMENT_3D($,#436,#490,#491);
#490=DIRECTION('',(0.0,0.0,1.0));
#491=DIRECTION('',(0.0,1.0,0.0));
#481=ORIENTED_EDGE('',*,*,#482,.F.);
#514=STYLED_ITEM('color',(#34),#515);
#515=ADVANCED_FACE($,(#521),#516,.T.);
#516=CYLINDRICAL_SURFACE($,#517,0.254);
#517=AXIS2_PLACEMENT_3D($,#518,#519,#520);
#518=CARTESIAN_POINT('',(2.54,0.003,-1.977));
#519=DIRECTION('',(0.0,0.107,0.994));
#520=DIRECTION('',(1.0,0.0,0.0));
#521=FACE_OUTER_BOUND($,#522,.T.);
#522=EDGE_LOOP($,(#545, #523, #555, #534));
#548=CARTESIAN_POINT('',(2.54,0.256,-2.004));
#547=VERTEX_POINT('',#548);
#550=CARTESIAN_POINT('',(2.54,0.44,-0.286));
#549=VERTEX_POINT('',#550);
#546=EDGE_CURVE('',#547,#549,#551,.T.);
#551=LINE('',#548,#553);
#553=VECTOR('',#554,1.72792766242296);
#554=DIRECTION('',(0.0,0.107,0.994));
#545=ORIENTED_EDGE('',*,*,#546,.F.);
#526=CARTESIAN_POINT('',(2.54,-0.249,-1.949));
#525=VERTEX_POINT('',#526);
#524=EDGE_CURVE($,#525,#547,#529,.T.);
#529=CIRCLE($,#530,0.254);
#531=CARTESIAN_POINT('',(2.54,0.003,-1.977));
#530=AXIS2_PLACEMENT_3D($,#531,#532,#533);
#532=DIRECTION('',(0.0,-0.107,-0.994));
#533=DIRECTION('',(0.0,0.994,-0.109));
#523=ORIENTED_EDGE('',*,*,#524,.F.);
#558=CARTESIAN_POINT('',(2.54,-0.065,-0.231));
#557=VERTEX_POINT('',#558);
#556=EDGE_CURVE('',#557,#525,#561,.T.);
#561=LINE('',#558,#563);
#563=VECTOR('',#564,1.72792766242296);
#564=DIRECTION('',(0.0,-0.107,-0.994));
#555=ORIENTED_EDGE('',*,*,#556,.F.);
#535=EDGE_CURVE($,#549,#557,#540,.T.);
#540=CIRCLE($,#541,0.254);
#542=CARTESIAN_POINT('',(2.54,0.187,-0.259));
#541=AXIS2_PLACEMENT_3D($,#542,#543,#544);
#543=DIRECTION('',(0.0,0.107,0.994));
#544=DIRECTION('',(0.0,-0.994,0.109));
#534=ORIENTED_EDGE('',*,*,#535,.F.);
#567=STYLED_ITEM('color',(#34),#568);
#568=ADVANCED_FACE($,(#574),#569,.T.);
#569=CYLINDRICAL_SURFACE($,#570,0.254);
#570=AXIS2_PLACEMENT_3D($,#571,#572,#573);
#571=CARTESIAN_POINT('',(2.54,0.003,-1.977));
#572=DIRECTION('',(0.0,0.107,0.994));
#573=DIRECTION('',(1.0,0.0,0.0));
#574=FACE_OUTER_BOUND($,#575,.T.);
#575=EDGE_LOOP($,(#598, #576, #608, #587));
#598=ORIENTED_EDGE('',*,*,#556,.T.);
#577=EDGE_CURVE($,#547,#525,#582,.T.);
#582=CIRCLE($,#583,0.254);
#583=AXIS2_PLACEMENT_3D($,#531,#585,#586);
#585=DIRECTION('',(0.0,-0.107,-0.994));
#586=DIRECTION('',(0.0,-0.994,0.109));
#576=ORIENTED_EDGE('',*,*,#577,.F.);
#608=ORIENTED_EDGE('',*,*,#546,.T.);
#588=EDGE_CURVE($,#557,#549,#593,.T.);
#593=CIRCLE($,#594,0.254);
#594=AXIS2_PLACEMENT_3D($,#542,#596,#597);
#596=DIRECTION('',(0.0,0.107,0.994));
#597=DIRECTION('',(0.0,-0.994,0.109));
#587=ORIENTED_EDGE('',*,*,#588,.F.);
#620=STYLED_ITEM('color',(#34),#621);
#621 = ADVANCED_FACE ( '', ( #627 ), #622, .T. ) ;
#622 = TOROIDAL_SURFACE ( '', #623, 0.508, 0.254 ) ;
#623 = AXIS2_PLACEMENT_3D ( '', #624, #625, #626 ) ;
#624 = CARTESIAN_POINT ( '',  ( 2.54,-0.317,-0.203 ) ) ;
#625 = DIRECTION ( '',  ( -1.0,0.0,0.0 ) ) ;
#626 = DIRECTION ( '',  ( 0.0000000000000000000, 0.0000000000000000000, -1.000000000000000000 ) ) ;
#627 = FACE_OUTER_BOUND ( '', #628, .T. ) ;
#628 = EDGE_LOOP ( '', ( #629, #640, #651, #662 ) ) ;
#629=ORIENTED_EDGE('',*,*,#312,.T.);
#641=EDGE_CURVE($,#549,#335,#646,.T.);
#646=CIRCLE($,#647,0.762);
#648=CARTESIAN_POINT('',(2.54,-0.317,-0.203));
#647=AXIS2_PLACEMENT_3D($,#648,#649,#650);
#649=DIRECTION('',(1.0,0.0,0.0));
#650=DIRECTION('',(0.0,0.0,1.0));
#640=ORIENTED_EDGE('',*,*,#641,.F.);
#651=ORIENTED_EDGE('',*,*,#535,.T.);
#663=EDGE_CURVE($,#313,#557,#668,.T.);
#668=CIRCLE($,#669,0.254);
#669=AXIS2_PLACEMENT_3D($,#648,#671,#672);
#671=DIRECTION('',(-1.0,0.0,0.0));
#672=DIRECTION('',(0.0,0.0,1.0));
#662=ORIENTED_EDGE('',*,*,#663,.F.);
#673=STYLED_ITEM('color',(#34),#674);
#674 = ADVANCED_FACE ( '', ( #680 ), #675, .T. ) ;
#675 = TOROIDAL_SURFACE ( '', #676, 0.508, 0.254 ) ;
#676 = AXIS2_PLACEMENT_3D ( '', #677, #678, #679 ) ;
#677 = CARTESIAN_POINT ( '',  ( 2.54,-0.317,-0.203 ) ) ;
#678 = DIRECTION ( '',  ( 1.0,0.0,0.0 ) ) ;
#679 = DIRECTION ( '',  ( 0.0000000000000000000, 0.0000000000000000000, 1.000000000000000000 ) ) ;
#680 = FACE_OUTER_BOUND ( '', #681, .T. ) ;
#681 = EDGE_LOOP ( '', ( #682, #693, #704, #715 ) ) ;
#682=ORIENTED_EDGE('',*,*,#365,.T.);
#693=ORIENTED_EDGE('',*,*,#663,.T.);
#704=ORIENTED_EDGE('',*,*,#588,.T.);
#715=ORIENTED_EDGE('',*,*,#641,.T.);
#726=STYLED_ITEM('color',(#34),#727);
#727 = ADVANCED_FACE ( '', ( #733 ), #728, .T. ) ;
#728 = TOROIDAL_SURFACE ( '', #729, 0.508, 0.254 ) ;
#729 = AXIS2_PLACEMENT_3D ( '', #730, #731, #732 ) ;
#730 = CARTESIAN_POINT ( '',  ( 2.54,0.508,-2.032 ) ) ;
#731 = DIRECTION ( '',  ( 1.0,0.0,0.0 ) ) ;
#732 = DIRECTION ( '',  ( 0.0000000000000000000, 0.0000000000000000000, 1.000000000000000000 ) ) ;
#733 = FACE_OUTER_BOUND ( '', #734, .T. ) ;
#734 = EDGE_LOOP ( '', ( #735, #746, #757, #768 ) ) ;
#735=ORIENTED_EDGE('',*,*,#577,.T.);
#747=EDGE_CURVE($,#451,#525,#752,.T.);
#752=CIRCLE($,#753,0.762);
#754=CARTESIAN_POINT('',(2.54,0.508,-2.032));
#753=AXIS2_PLACEMENT_3D($,#754,#755,#756);
#755=DIRECTION('',(-1.0,0.0,0.0));
#756=DIRECTION('',(0.0,0.0,1.0));
#746=ORIENTED_EDGE('',*,*,#747,.F.);
#757=ORIENTED_EDGE('',*,*,#482,.T.);
#769=EDGE_CURVE($,#547,#443,#774,.T.);
#774=CIRCLE($,#775,0.254);
#775=AXIS2_PLACEMENT_3D($,#754,#777,#778);
#777=DIRECTION('',(1.0,0.0,0.0));
#778=DIRECTION('',(0.0,0.0,1.0));
#768=ORIENTED_EDGE('',*,*,#769,.F.);
#779=STYLED_ITEM('color',(#34),#780);
#780 = ADVANCED_FACE ( '', ( #786 ), #781, .T. ) ;
#781 = TOROIDAL_SURFACE ( '', #782, 0.508, 0.254 ) ;
#782 = AXIS2_PLACEMENT_3D ( '', #783, #784, #785 ) ;
#783 = CARTESIAN_POINT ( '',  ( 2.54,0.508,-2.032 ) ) ;
#784 = DIRECTION ( '',  ( -1.0,0.0,0.0 ) ) ;
#785 = DIRECTION ( '',  ( 0.0000000000000000000, 0.0000000000000000000, 1.000000000000000000 ) ) ;
#786 = FACE_OUTER_BOUND ( '', #787, .T. ) ;
#787 = EDGE_LOOP ( '', ( #788, #799, #810, #821 ) ) ;
#788=ORIENTED_EDGE('',*,*,#524,.T.);
#799=ORIENTED_EDGE('',*,*,#769,.T.);
#810=ORIENTED_EDGE('',*,*,#429,.T.);
#821=ORIENTED_EDGE('',*,*,#747,.T.);
#832=MANIFOLD_SOLID_BREP($,#833);
#833=CLOSED_SHELL('',(#835,#866,#897,#950,#1003,#1056,#1109,#1162,#1215,#1268,#1321,#1374));
#834=STYLED_ITEM('color',(#34),#835);
#835=ADVANCED_FACE($,(#841),#836,.T.);
#836=PLANE($,#837);
#837=AXIS2_PLACEMENT_3D($,#838,#839,#840);
#838=CARTESIAN_POINT('',(0.0,0.19,0.0));
#839=DIRECTION('',(0.,0.,1.));
#840=DIRECTION('',(0.,1.,0.));
#841=FACE_OUTER_BOUND($,#842,.T.);
#842=EDGE_LOOP($,(#843, #854));
#846=CARTESIAN_POINT('',(0.0,0.444,0.0));
#845=VERTEX_POINT('',#846);
#848=CARTESIAN_POINT('',(0.0,-0.063,0.0));
#847=VERTEX_POINT('',#848);
#844=EDGE_CURVE($,#845,#847,#849,.T.);
#849=CIRCLE($,#850,0.254);
#851=CARTESIAN_POINT('',(0.0,0.19,0.0));
#850=AXIS2_PLACEMENT_3D($,#851,#852,#853);
#852=DIRECTION('',(0.0,0.0,-1.0));
#853=DIRECTION('',(0.0,-1.0,0.0));
#843=ORIENTED_EDGE('',*,*,#844,.F.);
#855=EDGE_CURVE($,#847,#845,#860,.T.);
#860=CIRCLE($,#861,0.254);
#861=AXIS2_PLACEMENT_3D($,#851,#863,#864);
#863=DIRECTION('',(0.0,0.0,-1.0));
#864=DIRECTION('',(0.0,1.0,0.0));
#854=ORIENTED_EDGE('',*,*,#855,.F.);
#865=STYLED_ITEM('color',(#34),#866);
#866=ADVANCED_FACE($,(#872),#867,.T.);
#867=PLANE($,#868);
#868=AXIS2_PLACEMENT_3D($,#869,#870,#871);
#869=CARTESIAN_POINT('',(0.0,0.0,-4.572));
#870=DIRECTION('',(0.,0.,-1.));
#871=DIRECTION('',(0.,1.,0.));
#872=FACE_OUTER_BOUND($,#873,.T.);
#873=EDGE_LOOP($,(#874, #885));
#877=CARTESIAN_POINT('',(0.0,0.254,-4.572));
#876=VERTEX_POINT('',#877);
#879=CARTESIAN_POINT('',(0.0,-0.254,-4.572));
#878=VERTEX_POINT('',#879);
#875=EDGE_CURVE($,#876,#878,#880,.T.);
#880=CIRCLE($,#881,0.254);
#882=CARTESIAN_POINT('',(0.0,0.0,-4.572));
#881=AXIS2_PLACEMENT_3D($,#882,#883,#884);
#883=DIRECTION('',(0.0,0.0,1.0));
#884=DIRECTION('',(0.0,-1.0,0.0));
#874=ORIENTED_EDGE('',*,*,#875,.F.);
#886=EDGE_CURVE($,#878,#876,#891,.T.);
#891=CIRCLE($,#892,0.254);
#892=AXIS2_PLACEMENT_3D($,#882,#894,#895);
#894=DIRECTION('',(0.0,0.0,1.0));
#895=DIRECTION('',(0.0,1.0,0.0));
#885=ORIENTED_EDGE('',*,*,#886,.F.);
#896=STYLED_ITEM('color',(#34),#897);
#897=ADVANCED_FACE($,(#903),#898,.T.);
#898=CYLINDRICAL_SURFACE($,#899,0.254);
#899=AXIS2_PLACEMENT_3D($,#900,#901,#902);
#900=CARTESIAN_POINT('',(0.0,0.19,-0.203));
#901=DIRECTION('',(0.,0.,1.));
#902=DIRECTION('',(1.0,0.0,0.0));
#903=FACE_OUTER_BOUND($,#904,.T.);
#904=EDGE_LOOP($,(#927, #905, #937, #916));
#930=CARTESIAN_POINT('',(0.0,0.444,-0.203));
#929=VERTEX_POINT('',#930);
#928=EDGE_CURVE('',#929,#845,#933,.T.);
#933=LINE('',#930,#935);
#935=VECTOR('',#936,0.2032);
#936=DIRECTION('',(0.0,0.0,1.0));
#927=ORIENTED_EDGE('',*,*,#928,.F.);
#908=CARTESIAN_POINT('',(0.0,-0.063,-0.203));
#907=VERTEX_POINT('',#908);
#906=EDGE_CURVE($,#907,#929,#911,.T.);
#911=CIRCLE($,#912,0.254);
#913=CARTESIAN_POINT('',(0.0,0.19,-0.203));
#912=AXIS2_PLACEMENT_3D($,#913,#914,#915);
#914=DIRECTION('',(0.0,0.0,-1.0));
#915=DIRECTION('',(0.0,1.0,0.0));
#905=ORIENTED_EDGE('',*,*,#906,.F.);
#938=EDGE_CURVE('',#847,#907,#943,.T.);
#943=LINE('',#848,#945);
#945=VECTOR('',#946,0.2032);
#946=DIRECTION('',(0.0,0.0,-1.0));
#937=ORIENTED_EDGE('',*,*,#938,.F.);
#916=ORIENTED_EDGE('',*,*,#855,.T.);
#949=STYLED_ITEM('color',(#34),#950);
#950=ADVANCED_FACE($,(#956),#951,.T.);
#951=CYLINDRICAL_SURFACE($,#952,0.254);
#952=AXIS2_PLACEMENT_3D($,#953,#954,#955);
#953=CARTESIAN_POINT('',(0.0,0.19,-0.203));
#954=DIRECTION('',(0.,0.,1.));
#955=DIRECTION('',(1.0,0.0,0.0));
#956=FACE_OUTER_BOUND($,#957,.T.);
#957=EDGE_LOOP($,(#980, #958, #990, #969));
#980=ORIENTED_EDGE('',*,*,#938,.T.);
#959=EDGE_CURVE($,#929,#907,#964,.T.);
#964=CIRCLE($,#965,0.254);
#965=AXIS2_PLACEMENT_3D($,#913,#967,#968);
#967=DIRECTION('',(0.0,0.0,-1.0));
#968=DIRECTION('',(0.0,-1.0,0.0));
#958=ORIENTED_EDGE('',*,*,#959,.F.);
#990=ORIENTED_EDGE('',*,*,#928,.T.);
#969=ORIENTED_EDGE('',*,*,#844,.T.);
#1002=STYLED_ITEM('color',(#34),#1003);
#1003=ADVANCED_FACE($,(#1009),#1004,.T.);
#1004=CYLINDRICAL_SURFACE($,#1005,0.254);
#1005=AXIS2_PLACEMENT_3D($,#1006,#1007,#1008);
#1006=CARTESIAN_POINT('',(0.0,0.0,-4.572));
#1007=DIRECTION('',(0.,0.,1.));
#1008=DIRECTION('',(1.0,0.0,0.0));
#1009=FACE_OUTER_BOUND($,#1010,.T.);
#1010=EDGE_LOOP($,(#1033, #1011, #1043, #1022));
#1038=CARTESIAN_POINT('',(0.0,0.254,-2.032));
#1037=VERTEX_POINT('',#1038);
#1034=EDGE_CURVE('',#876,#1037,#1039,.T.);
#1039=LINE('',#877,#1041);
#1041=VECTOR('',#1042,2.54);
#1042=DIRECTION('',(0.0,0.0,1.0));
#1033=ORIENTED_EDGE('',*,*,#1034,.F.);
#1011=ORIENTED_EDGE('',*,*,#875,.T.);
#1046=CARTESIAN_POINT('',(0.0,-0.254,-2.032));
#1045=VERTEX_POINT('',#1046);
#1044=EDGE_CURVE('',#1045,#878,#1049,.T.);
#1049=LINE('',#1046,#1051);
#1051=VECTOR('',#1052,2.54);
#1052=DIRECTION('',(0.0,0.0,-1.0));
#1043=ORIENTED_EDGE('',*,*,#1044,.F.);
#1023=EDGE_CURVE($,#1037,#1045,#1028,.T.);
#1028=CIRCLE($,#1029,0.254);
#1030=CARTESIAN_POINT('',(0.0,0.0,-2.032));
#1029=AXIS2_PLACEMENT_3D($,#1030,#1031,#1032);
#1031=DIRECTION('',(0.0,0.0,1.0));
#1032=DIRECTION('',(0.0,-1.0,0.0));
#1022=ORIENTED_EDGE('',*,*,#1023,.F.);
#1055=STYLED_ITEM('color',(#34),#1056);
#1056=ADVANCED_FACE($,(#1062),#1057,.T.);
#1057=CYLINDRICAL_SURFACE($,#1058,0.254);
#1058=AXIS2_PLACEMENT_3D($,#1059,#1060,#1061);
#1059=CARTESIAN_POINT('',(0.0,0.0,-4.572));
#1060=DIRECTION('',(0.,0.,1.));
#1061=DIRECTION('',(1.0,0.0,0.0));
#1062=FACE_OUTER_BOUND($,#1063,.T.);
#1063=EDGE_LOOP($,(#1086, #1064, #1096, #1075));
#1086=ORIENTED_EDGE('',*,*,#1044,.T.);
#1064=ORIENTED_EDGE('',*,*,#886,.T.);
#1096=ORIENTED_EDGE('',*,*,#1034,.T.);
#1076=EDGE_CURVE($,#1045,#1037,#1081,.T.);
#1081=CIRCLE($,#1082,0.254);
#1082=AXIS2_PLACEMENT_3D($,#1030,#1084,#1085);
#1084=DIRECTION('',(0.0,0.0,1.0));
#1085=DIRECTION('',(0.0,1.0,0.0));
#1075=ORIENTED_EDGE('',*,*,#1076,.F.);
#1108=STYLED_ITEM('color',(#34),#1109);
#1109=ADVANCED_FACE($,(#1115),#1110,.T.);
#1110=CYLINDRICAL_SURFACE($,#1111,0.254);
#1111=AXIS2_PLACEMENT_3D($,#1112,#1113,#1114);
#1112=CARTESIAN_POINT('',(0.0,0.003,-1.977));
#1113=DIRECTION('',(0.0,0.107,0.994));
#1114=DIRECTION('',(1.0,0.0,0.0));
#1115=FACE_OUTER_BOUND($,#1116,.T.);
#1116=EDGE_LOOP($,(#1139, #1117, #1149, #1128));
#1142=CARTESIAN_POINT('',(0.0,0.256,-2.004));
#1141=VERTEX_POINT('',#1142);
#1144=CARTESIAN_POINT('',(0.0,0.44,-0.286));
#1143=VERTEX_POINT('',#1144);
#1140=EDGE_CURVE('',#1141,#1143,#1145,.T.);
#1145=LINE('',#1142,#1147);
#1147=VECTOR('',#1148,1.72792766242296);
#1148=DIRECTION('',(0.0,0.107,0.994));
#1139=ORIENTED_EDGE('',*,*,#1140,.F.);
#1120=CARTESIAN_POINT('',(0.0,-0.249,-1.949));
#1119=VERTEX_POINT('',#1120);
#1118=EDGE_CURVE($,#1119,#1141,#1123,.T.);
#1123=CIRCLE($,#1124,0.254);
#1125=CARTESIAN_POINT('',(0.0,0.003,-1.977));
#1124=AXIS2_PLACEMENT_3D($,#1125,#1126,#1127);
#1126=DIRECTION('',(0.0,-0.107,-0.994));
#1127=DIRECTION('',(0.0,0.994,-0.109));
#1117=ORIENTED_EDGE('',*,*,#1118,.F.);
#1152=CARTESIAN_POINT('',(0.0,-0.065,-0.231));
#1151=VERTEX_POINT('',#1152);
#1150=EDGE_CURVE('',#1151,#1119,#1155,.T.);
#1155=LINE('',#1152,#1157);
#1157=VECTOR('',#1158,1.72792766242296);
#1158=DIRECTION('',(0.0,-0.107,-0.994));
#1149=ORIENTED_EDGE('',*,*,#1150,.F.);
#1129=EDGE_CURVE($,#1143,#1151,#1134,.T.);
#1134=CIRCLE($,#1135,0.254);
#1136=CARTESIAN_POINT('',(0.0,0.187,-0.259));
#1135=AXIS2_PLACEMENT_3D($,#1136,#1137,#1138);
#1137=DIRECTION('',(0.0,0.107,0.994));
#1138=DIRECTION('',(0.0,-0.994,0.109));
#1128=ORIENTED_EDGE('',*,*,#1129,.F.);
#1161=STYLED_ITEM('color',(#34),#1162);
#1162=ADVANCED_FACE($,(#1168),#1163,.T.);
#1163=CYLINDRICAL_SURFACE($,#1164,0.254);
#1164=AXIS2_PLACEMENT_3D($,#1165,#1166,#1167);
#1165=CARTESIAN_POINT('',(0.0,0.003,-1.977));
#1166=DIRECTION('',(0.0,0.107,0.994));
#1167=DIRECTION('',(1.0,0.0,0.0));
#1168=FACE_OUTER_BOUND($,#1169,.T.);
#1169=EDGE_LOOP($,(#1192, #1170, #1202, #1181));
#1192=ORIENTED_EDGE('',*,*,#1150,.T.);
#1171=EDGE_CURVE($,#1141,#1119,#1176,.T.);
#1176=CIRCLE($,#1177,0.254);
#1177=AXIS2_PLACEMENT_3D($,#1125,#1179,#1180);
#1179=DIRECTION('',(0.0,-0.107,-0.994));
#1180=DIRECTION('',(0.0,-0.994,0.109));
#1170=ORIENTED_EDGE('',*,*,#1171,.F.);
#1202=ORIENTED_EDGE('',*,*,#1140,.T.);
#1182=EDGE_CURVE($,#1151,#1143,#1187,.T.);
#1187=CIRCLE($,#1188,0.254);
#1188=AXIS2_PLACEMENT_3D($,#1136,#1190,#1191);
#1190=DIRECTION('',(0.0,0.107,0.994));
#1191=DIRECTION('',(0.0,-0.994,0.109));
#1181=ORIENTED_EDGE('',*,*,#1182,.F.);
#1214=STYLED_ITEM('color',(#34),#1215);
#1215 = ADVANCED_FACE ( '', ( #1221 ), #1216, .T. ) ;
#1216 = TOROIDAL_SURFACE ( '', #1217, 0.508, 0.254 ) ;
#1217 = AXIS2_PLACEMENT_3D ( '', #1218, #1219, #1220 ) ;
#1218 = CARTESIAN_POINT ( '',  ( 0.0,-0.317,-0.203 ) ) ;
#1219 = DIRECTION ( '',  ( -1.0,0.0,0.0 ) ) ;
#1220 = DIRECTION ( '',  ( 0.0000000000000000000, 0.0000000000000000000, -1.000000000000000000 ) ) ;
#1221 = FACE_OUTER_BOUND ( '', #1222, .T. ) ;
#1222 = EDGE_LOOP ( '', ( #1223, #1234, #1245, #1256 ) ) ;
#1223=ORIENTED_EDGE('',*,*,#906,.T.);
#1235=EDGE_CURVE($,#1143,#929,#1240,.T.);
#1240=CIRCLE($,#1241,0.762);
#1242=CARTESIAN_POINT('',(0.0,-0.317,-0.203));
#1241=AXIS2_PLACEMENT_3D($,#1242,#1243,#1244);
#1243=DIRECTION('',(1.0,0.0,0.0));
#1244=DIRECTION('',(0.0,0.0,1.0));
#1234=ORIENTED_EDGE('',*,*,#1235,.F.);
#1245=ORIENTED_EDGE('',*,*,#1129,.T.);
#1257=EDGE_CURVE($,#907,#1151,#1262,.T.);
#1262=CIRCLE($,#1263,0.254);
#1263=AXIS2_PLACEMENT_3D($,#1242,#1265,#1266);
#1265=DIRECTION('',(-1.0,0.0,0.0));
#1266=DIRECTION('',(0.0,0.0,1.0));
#1256=ORIENTED_EDGE('',*,*,#1257,.F.);
#1267=STYLED_ITEM('color',(#34),#1268);
#1268 = ADVANCED_FACE ( '', ( #1274 ), #1269, .T. ) ;
#1269 = TOROIDAL_SURFACE ( '', #1270, 0.508, 0.254 ) ;
#1270 = AXIS2_PLACEMENT_3D ( '', #1271, #1272, #1273 ) ;
#1271 = CARTESIAN_POINT ( '',  ( 0.0,-0.317,-0.203 ) ) ;
#1272 = DIRECTION ( '',  ( 1.0,0.0,0.0 ) ) ;
#1273 = DIRECTION ( '',  ( 0.0000000000000000000, 0.0000000000000000000, 1.000000000000000000 ) ) ;
#1274 = FACE_OUTER_BOUND ( '', #1275, .T. ) ;
#1275 = EDGE_LOOP ( '', ( #1276, #1287, #1298, #1309 ) ) ;
#1276=ORIENTED_EDGE('',*,*,#959,.T.);
#1287=ORIENTED_EDGE('',*,*,#1257,.T.);
#1298=ORIENTED_EDGE('',*,*,#1182,.T.);
#1309=ORIENTED_EDGE('',*,*,#1235,.T.);
#1320=STYLED_ITEM('color',(#34),#1321);
#1321 = ADVANCED_FACE ( '', ( #1327 ), #1322, .T. ) ;
#1322 = TOROIDAL_SURFACE ( '', #1323, 0.508, 0.254 ) ;
#1323 = AXIS2_PLACEMENT_3D ( '', #1324, #1325, #1326 ) ;
#1324 = CARTESIAN_POINT ( '',  ( 0.0,0.508,-2.032 ) ) ;
#1325 = DIRECTION ( '',  ( 1.0,0.0,0.0 ) ) ;
#1326 = DIRECTION ( '',  ( 0.0000000000000000000, 0.0000000000000000000, 1.000000000000000000 ) ) ;
#1327 = FACE_OUTER_BOUND ( '', #1328, .T. ) ;
#1328 = EDGE_LOOP ( '', ( #1329, #1340, #1351, #1362 ) ) ;
#1329=ORIENTED_EDGE('',*,*,#1171,.T.);
#1341=EDGE_CURVE($,#1045,#1119,#1346,.T.);
#1346=CIRCLE($,#1347,0.762);
#1348=CARTESIAN_POINT('',(0.0,0.508,-2.032));
#1347=AXIS2_PLACEMENT_3D($,#1348,#1349,#1350);
#1349=DIRECTION('',(-1.0,0.0,0.0));
#1350=DIRECTION('',(0.0,0.0,1.0));
#1340=ORIENTED_EDGE('',*,*,#1341,.F.);
#1351=ORIENTED_EDGE('',*,*,#1076,.T.);
#1363=EDGE_CURVE($,#1141,#1037,#1368,.T.);
#1368=CIRCLE($,#1369,0.254);
#1369=AXIS2_PLACEMENT_3D($,#1348,#1371,#1372);
#1371=DIRECTION('',(1.0,0.0,0.0));
#1372=DIRECTION('',(0.0,0.0,1.0));
#1362=ORIENTED_EDGE('',*,*,#1363,.F.);
#1373=STYLED_ITEM('color',(#34),#1374);
#1374 = ADVANCED_FACE ( '', ( #1380 ), #1375, .T. ) ;
#1375 = TOROIDAL_SURFACE ( '', #1376, 0.508, 0.254 ) ;
#1376 = AXIS2_PLACEMENT_3D ( '', #1377, #1378, #1379 ) ;
#1377 = CARTESIAN_POINT ( '',  ( 0.0,0.508,-2.032 ) ) ;
#1378 = DIRECTION ( '',  ( -1.0,0.0,0.0 ) ) ;
#1379 = DIRECTION ( '',  ( 0.0000000000000000000, 0.0000000000000000000, 1.000000000000000000 ) ) ;
#1380 = FACE_OUTER_BOUND ( '', #1381, .T. ) ;
#1381 = EDGE_LOOP ( '', ( #1382, #1393, #1404, #1415 ) ) ;
#1382=ORIENTED_EDGE('',*,*,#1118,.T.);
#1393=ORIENTED_EDGE('',*,*,#1363,.T.);
#1404=ORIENTED_EDGE('',*,*,#1023,.T.);
#1415=ORIENTED_EDGE('',*,*,#1341,.T.);
#1426=MANIFOLD_SOLID_BREP($,#1427);
#1427=CLOSED_SHELL('',(#1429,#1460,#1491,#1544,#1597,#1650,#1703,#1756,#1809,#1862,#1915,#1968));
#1428=STYLED_ITEM('color',(#34),#1429);
#1429=ADVANCED_FACE($,(#1435),#1430,.T.);
#1430=PLANE($,#1431);
#1431=AXIS2_PLACEMENT_3D($,#1432,#1433,#1434);
#1432=CARTESIAN_POINT('',(1.27,0.19,0.0));
#1433=DIRECTION('',(0.,0.,1.));
#1434=DIRECTION('',(0.,1.,0.));
#1435=FACE_OUTER_BOUND($,#1436,.T.);
#1436=EDGE_LOOP($,(#1437, #1448));
#1440=CARTESIAN_POINT('',(1.27,-0.063,0.0));
#1439=VERTEX_POINT('',#1440);
#1442=CARTESIAN_POINT('',(1.27,0.444,0.0));
#1441=VERTEX_POINT('',#1442);
#1438=EDGE_CURVE($,#1439,#1441,#1443,.T.);
#1443=CIRCLE($,#1444,0.254);
#1445=CARTESIAN_POINT('',(1.27,0.19,0.0));
#1444=AXIS2_PLACEMENT_3D($,#1445,#1446,#1447);
#1446=DIRECTION('',(0.0,0.0,-1.0));
#1447=DIRECTION('',(0.0,1.0,0.0));
#1437=ORIENTED_EDGE('',*,*,#1438,.F.);
#1449=EDGE_CURVE($,#1441,#1439,#1454,.T.);
#1454=CIRCLE($,#1455,0.254);
#1455=AXIS2_PLACEMENT_3D($,#1445,#1457,#1458);
#1457=DIRECTION('',(0.0,0.0,-1.0));
#1458=DIRECTION('',(0.0,-1.0,0.0));
#1448=ORIENTED_EDGE('',*,*,#1449,.F.);
#1459=STYLED_ITEM('color',(#34),#1460);
#1460=ADVANCED_FACE($,(#1466),#1461,.T.);
#1461=PLANE($,#1462);
#1462=AXIS2_PLACEMENT_3D($,#1463,#1464,#1465);
#1463=CARTESIAN_POINT('',(1.27,2.54,-4.572));
#1464=DIRECTION('',(0.,0.,-1.));
#1465=DIRECTION('',(0.,1.,0.));
#1466=FACE_OUTER_BOUND($,#1467,.T.);
#1467=EDGE_LOOP($,(#1468, #1479));
#1471=CARTESIAN_POINT('',(1.27,2.286,-4.572));
#1470=VERTEX_POINT('',#1471);
#1473=CARTESIAN_POINT('',(1.27,2.794,-4.572));
#1472=VERTEX_POINT('',#1473);
#1469=EDGE_CURVE($,#1470,#1472,#1474,.T.);
#1474=CIRCLE($,#1475,0.254);
#1476=CARTESIAN_POINT('',(1.27,2.54,-4.572));
#1475=AXIS2_PLACEMENT_3D($,#1476,#1477,#1478);
#1477=DIRECTION('',(0.0,0.0,1.0));
#1478=DIRECTION('',(0.0,1.0,0.0));
#1468=ORIENTED_EDGE('',*,*,#1469,.F.);
#1480=EDGE_CURVE($,#1472,#1470,#1485,.T.);
#1485=CIRCLE($,#1486,0.254);
#1486=AXIS2_PLACEMENT_3D($,#1476,#1488,#1489);
#1488=DIRECTION('',(0.0,0.0,1.0));
#1489=DIRECTION('',(0.0,-1.0,0.0));
#1479=ORIENTED_EDGE('',*,*,#1480,.F.);
#1490=STYLED_ITEM('color',(#34),#1491);
#1491=ADVANCED_FACE($,(#1497),#1492,.T.);
#1492=CYLINDRICAL_SURFACE($,#1493,0.254);
#1493=AXIS2_PLACEMENT_3D($,#1494,#1495,#1496);
#1494=CARTESIAN_POINT('',(1.27,0.19,-0.203));
#1495=DIRECTION('',(0.,0.,1.));
#1496=DIRECTION('',(-1.0,0.0,0.0));
#1497=FACE_OUTER_BOUND($,#1498,.T.);
#1498=EDGE_LOOP($,(#1521, #1499, #1531, #1510));
#1524=CARTESIAN_POINT('',(1.27,-0.063,-0.203));
#1523=VERTEX_POINT('',#1524);
#1522=EDGE_CURVE('',#1523,#1439,#1527,.T.);
#1527=LINE('',#1524,#1529);
#1529=VECTOR('',#1530,0.2032);
#1530=DIRECTION('',(0.0,0.0,1.0));
#1521=ORIENTED_EDGE('',*,*,#1522,.F.);
#1502=CARTESIAN_POINT('',(1.27,0.444,-0.203));
#1501=VERTEX_POINT('',#1502);
#1500=EDGE_CURVE($,#1501,#1523,#1505,.T.);
#1505=CIRCLE($,#1506,0.254);
#1507=CARTESIAN_POINT('',(1.27,0.19,-0.203));
#1506=AXIS2_PLACEMENT_3D($,#1507,#1508,#1509);
#1508=DIRECTION('',(0.0,0.0,-1.0));
#1509=DIRECTION('',(0.0,-1.0,0.0));
#1499=ORIENTED_EDGE('',*,*,#1500,.F.);
#1532=EDGE_CURVE('',#1441,#1501,#1537,.T.);
#1537=LINE('',#1442,#1539);
#1539=VECTOR('',#1540,0.2032);
#1540=DIRECTION('',(0.0,0.0,-1.0));
#1531=ORIENTED_EDGE('',*,*,#1532,.F.);
#1510=ORIENTED_EDGE('',*,*,#1449,.T.);
#1543=STYLED_ITEM('color',(#34),#1544);
#1544=ADVANCED_FACE($,(#1550),#1545,.T.);
#1545=CYLINDRICAL_SURFACE($,#1546,0.254);
#1546=AXIS2_PLACEMENT_3D($,#1547,#1548,#1549);
#1547=CARTESIAN_POINT('',(1.27,0.19,-0.203));
#1548=DIRECTION('',(0.,0.,1.));
#1549=DIRECTION('',(-1.0,0.0,0.0));
#1550=FACE_OUTER_BOUND($,#1551,.T.);
#1551=EDGE_LOOP($,(#1574, #1552, #1584, #1563));
#1574=ORIENTED_EDGE('',*,*,#1532,.T.);
#1553=EDGE_CURVE($,#1523,#1501,#1558,.T.);
#1558=CIRCLE($,#1559,0.254);
#1559=AXIS2_PLACEMENT_3D($,#1507,#1561,#1562);
#1561=DIRECTION('',(0.0,0.0,-1.0));
#1562=DIRECTION('',(0.0,1.0,0.0));
#1552=ORIENTED_EDGE('',*,*,#1553,.F.);
#1584=ORIENTED_EDGE('',*,*,#1522,.T.);
#1563=ORIENTED_EDGE('',*,*,#1438,.T.);
#1596=STYLED_ITEM('color',(#34),#1597);
#1597=ADVANCED_FACE($,(#1603),#1598,.T.);
#1598=CYLINDRICAL_SURFACE($,#1599,0.254);
#1599=AXIS2_PLACEMENT_3D($,#1600,#1601,#1602);
#1600=CARTESIAN_POINT('',(1.27,2.54,-4.572));
#1601=DIRECTION('',(0.,0.,1.));
#1602=DIRECTION('',(-1.0,0.0,0.0));
#1603=FACE_OUTER_BOUND($,#1604,.T.);
#1604=EDGE_LOOP($,(#1627, #1605, #1637, #1616));
#1632=CARTESIAN_POINT('',(1.27,2.286,-2.032));
#1631=VERTEX_POINT('',#1632);
#1628=EDGE_CURVE('',#1470,#1631,#1633,.T.);
#1633=LINE('',#1471,#1635);
#1635=VECTOR('',#1636,2.54);
#1636=DIRECTION('',(0.0,0.0,1.0));
#1627=ORIENTED_EDGE('',*,*,#1628,.F.);
#1605=ORIENTED_EDGE('',*,*,#1469,.T.);
#1640=CARTESIAN_POINT('',(1.27,2.794,-2.032));
#1639=VERTEX_POINT('',#1640);
#1638=EDGE_CURVE('',#1639,#1472,#1643,.T.);
#1643=LINE('',#1640,#1645);
#1645=VECTOR('',#1646,2.54);
#1646=DIRECTION('',(0.0,0.0,-1.0));
#1637=ORIENTED_EDGE('',*,*,#1638,.F.);
#1617=EDGE_CURVE($,#1631,#1639,#1622,.T.);
#1622=CIRCLE($,#1623,0.254);
#1624=CARTESIAN_POINT('',(1.27,2.54,-2.032));
#1623=AXIS2_PLACEMENT_3D($,#1624,#1625,#1626);
#1625=DIRECTION('',(0.0,0.0,1.0));
#1626=DIRECTION('',(0.0,1.0,0.0));
#1616=ORIENTED_EDGE('',*,*,#1617,.F.);
#1649=STYLED_ITEM('color',(#34),#1650);
#1650=ADVANCED_FACE($,(#1656),#1651,.T.);
#1651=CYLINDRICAL_SURFACE($,#1652,0.254);
#1652=AXIS2_PLACEMENT_3D($,#1653,#1654,#1655);
#1653=CARTESIAN_POINT('',(1.27,2.54,-4.572));
#1654=DIRECTION('',(0.,0.,1.));
#1655=DIRECTION('',(-1.0,0.0,0.0));
#1656=FACE_OUTER_BOUND($,#1657,.T.);
#1657=EDGE_LOOP($,(#1680, #1658, #1690, #1669));
#1680=ORIENTED_EDGE('',*,*,#1638,.T.);
#1658=ORIENTED_EDGE('',*,*,#1480,.T.);
#1690=ORIENTED_EDGE('',*,*,#1628,.T.);
#1670=EDGE_CURVE($,#1639,#1631,#1675,.T.);
#1675=CIRCLE($,#1676,0.254);
#1676=AXIS2_PLACEMENT_3D($,#1624,#1678,#1679);
#1678=DIRECTION('',(0.0,0.0,1.0));
#1679=DIRECTION('',(0.0,-1.0,0.0));
#1669=ORIENTED_EDGE('',*,*,#1670,.F.);
#1702=STYLED_ITEM('color',(#34),#1703);
#1703=ADVANCED_FACE($,(#1709),#1704,.T.);
#1704=CYLINDRICAL_SURFACE($,#1705,0.254);
#1705=AXIS2_PLACEMENT_3D($,#1706,#1707,#1708);
#1706=CARTESIAN_POINT('',(1.27,2.272,-1.584));
#1707=DIRECTION('',(0.0,-0.889,0.458));
#1708=DIRECTION('',(-1.0,0.0,0.0));
#1709=FACE_OUTER_BOUND($,#1710,.T.);
#1710=EDGE_LOOP($,(#1733, #1711, #1743, #1722));
#1736=CARTESIAN_POINT('',(1.27,2.152,-1.808));
#1735=VERTEX_POINT('',#1736);
#1738=CARTESIAN_POINT('',(1.27,0.339,-0.875));
#1737=VERTEX_POINT('',#1738);
#1734=EDGE_CURVE('',#1735,#1737,#1739,.T.);
#1739=LINE('',#1736,#1741);
#1741=VECTOR('',#1742,2.03888602158896);
#1742=DIRECTION('',(0.0,-0.889,0.458));
#1733=ORIENTED_EDGE('',*,*,#1734,.F.);
#1714=CARTESIAN_POINT('',(1.27,2.392,-1.36));
#1713=VERTEX_POINT('',#1714);
#1712=EDGE_CURVE($,#1713,#1735,#1717,.T.);
#1717=CIRCLE($,#1718,0.254);
#1719=CARTESIAN_POINT('',(1.27,2.272,-1.584));
#1718=AXIS2_PLACEMENT_3D($,#1719,#1720,#1721);
#1720=DIRECTION('',(0.0,0.889,-0.458));
#1721=DIRECTION('',(0.0,-0.472,-0.882));
#1711=ORIENTED_EDGE('',*,*,#1712,.F.);
#1746=CARTESIAN_POINT('',(1.27,0.579,-0.427));
#1745=VERTEX_POINT('',#1746);
#1744=EDGE_CURVE('',#1745,#1713,#1749,.T.);
#1749=LINE('',#1746,#1751);
#1751=VECTOR('',#1752,2.03888602158896);
#1752=DIRECTION('',(0.0,0.889,-0.458));
#1743=ORIENTED_EDGE('',*,*,#1744,.F.);
#1723=EDGE_CURVE($,#1737,#1745,#1728,.T.);
#1728=CIRCLE($,#1729,0.254);
#1730=CARTESIAN_POINT('',(1.27,0.459,-0.651));
#1729=AXIS2_PLACEMENT_3D($,#1730,#1731,#1732);
#1731=DIRECTION('',(0.0,-0.889,0.458));
#1732=DIRECTION('',(0.0,0.472,0.882));
#1722=ORIENTED_EDGE('',*,*,#1723,.F.);
#1755=STYLED_ITEM('color',(#34),#1756);
#1756=ADVANCED_FACE($,(#1762),#1757,.T.);
#1757=CYLINDRICAL_SURFACE($,#1758,0.254);
#1758=AXIS2_PLACEMENT_3D($,#1759,#1760,#1761);
#1759=CARTESIAN_POINT('',(1.27,2.272,-1.584));
#1760=DIRECTION('',(0.0,-0.889,0.458));
#1761=DIRECTION('',(-1.0,0.0,0.0));
#1762=FACE_OUTER_BOUND($,#1763,.T.);
#1763=EDGE_LOOP($,(#1786, #1764, #1796, #1775));
#1786=ORIENTED_EDGE('',*,*,#1744,.T.);
#1765=EDGE_CURVE($,#1735,#1713,#1770,.T.);
#1770=CIRCLE($,#1771,0.254);
#1771=AXIS2_PLACEMENT_3D($,#1719,#1773,#1774);
#1773=DIRECTION('',(0.0,0.889,-0.458));
#1774=DIRECTION('',(0.0,0.472,0.882));
#1764=ORIENTED_EDGE('',*,*,#1765,.F.);
#1796=ORIENTED_EDGE('',*,*,#1734,.T.);
#1776=EDGE_CURVE($,#1745,#1737,#1781,.T.);
#1781=CIRCLE($,#1782,0.254);
#1782=AXIS2_PLACEMENT_3D($,#1730,#1784,#1785);
#1784=DIRECTION('',(0.0,-0.889,0.458));
#1785=DIRECTION('',(0.0,0.472,0.882));
#1775=ORIENTED_EDGE('',*,*,#1776,.F.);
#1808=STYLED_ITEM('color',(#34),#1809);
#1809 = ADVANCED_FACE ( '', ( #1815 ), #1810, .T. ) ;
#1810 = TOROIDAL_SURFACE ( '', #1811, 0.508, 0.254 ) ;
#1811 = AXIS2_PLACEMENT_3D ( '', #1812, #1813, #1814 ) ;
#1812 = CARTESIAN_POINT ( '',  ( 1.27,0.698,-0.203 ) ) ;
#1813 = DIRECTION ( '',  ( 1.0,0.0,0.0 ) ) ;
#1814 = DIRECTION ( '',  ( 0.0000000000000000000, 0.0000000000000000000, -1.000000000000000000 ) ) ;
#1815 = FACE_OUTER_BOUND ( '', #1816, .T. ) ;
#1816 = EDGE_LOOP ( '', ( #1817, #1828, #1839, #1850 ) ) ;
#1817=ORIENTED_EDGE('',*,*,#1500,.T.);
#1829=EDGE_CURVE($,#1737,#1523,#1834,.T.);
#1834=CIRCLE($,#1835,0.762);
#1836=CARTESIAN_POINT('',(1.27,0.698,-0.203));
#1835=AXIS2_PLACEMENT_3D($,#1836,#1837,#1838);
#1837=DIRECTION('',(-1.0,0.0,0.0));
#1838=DIRECTION('',(0.0,0.0,1.0));
#1828=ORIENTED_EDGE('',*,*,#1829,.F.);
#1839=ORIENTED_EDGE('',*,*,#1723,.T.);
#1851=EDGE_CURVE($,#1501,#1745,#1856,.T.);
#1856=CIRCLE($,#1857,0.254);
#1857=AXIS2_PLACEMENT_3D($,#1836,#1859,#1860);
#1859=DIRECTION('',(1.0,0.0,0.0));
#1860=DIRECTION('',(0.0,0.0,1.0));
#1850=ORIENTED_EDGE('',*,*,#1851,.F.);
#1861=STYLED_ITEM('color',(#34),#1862);
#1862 = ADVANCED_FACE ( '', ( #1868 ), #1863, .T. ) ;
#1863 = TOROIDAL_SURFACE ( '', #1864, 0.508, 0.254 ) ;
#1864 = AXIS2_PLACEMENT_3D ( '', #1865, #1866, #1867 ) ;
#1865 = CARTESIAN_POINT ( '',  ( 1.27,0.698,-0.203 ) ) ;
#1866 = DIRECTION ( '',  ( -1.0,0.0,0.0 ) ) ;
#1867 = DIRECTION ( '',  ( 0.0000000000000000000, 0.0000000000000000000, 1.000000000000000000 ) ) ;
#1868 = FACE_OUTER_BOUND ( '', #1869, .T. ) ;
#1869 = EDGE_LOOP ( '', ( #1870, #1881, #1892, #1903 ) ) ;
#1870=ORIENTED_EDGE('',*,*,#1553,.T.);
#1881=ORIENTED_EDGE('',*,*,#1851,.T.);
#1892=ORIENTED_EDGE('',*,*,#1776,.T.);
#1903=ORIENTED_EDGE('',*,*,#1829,.T.);
#1914=STYLED_ITEM('color',(#34),#1915);
#1915 = ADVANCED_FACE ( '', ( #1921 ), #1916, .T. ) ;
#1916 = TOROIDAL_SURFACE ( '', #1917, 0.508, 0.254 ) ;
#1917 = AXIS2_PLACEMENT_3D ( '', #1918, #1919, #1920 ) ;
#1918 = CARTESIAN_POINT ( '',  ( 1.27,2.032,-2.032 ) ) ;
#1919 = DIRECTION ( '',  ( -1.0,0.0,0.0 ) ) ;
#1920 = DIRECTION ( '',  ( 0.0000000000000000000, 0.0000000000000000000, 1.000000000000000000 ) ) ;
#1921 = FACE_OUTER_BOUND ( '', #1922, .T. ) ;
#1922 = EDGE_LOOP ( '', ( #1923, #1934, #1945, #1956 ) ) ;
#1923=ORIENTED_EDGE('',*,*,#1765,.T.);
#1935=EDGE_CURVE($,#1639,#1713,#1940,.T.);
#1940=CIRCLE($,#1941,0.762);
#1942=CARTESIAN_POINT('',(1.27,2.032,-2.032));
#1941=AXIS2_PLACEMENT_3D($,#1942,#1943,#1944);
#1943=DIRECTION('',(1.0,0.0,0.0));
#1944=DIRECTION('',(0.0,0.0,1.0));
#1934=ORIENTED_EDGE('',*,*,#1935,.F.);
#1945=ORIENTED_EDGE('',*,*,#1670,.T.);
#1957=EDGE_CURVE($,#1735,#1631,#1962,.T.);
#1962=CIRCLE($,#1963,0.254);
#1963=AXIS2_PLACEMENT_3D($,#1942,#1965,#1966);
#1965=DIRECTION('',(-1.0,0.0,0.0));
#1966=DIRECTION('',(0.0,0.0,1.0));
#1956=ORIENTED_EDGE('',*,*,#1957,.F.);
#1967=STYLED_ITEM('color',(#34),#1968);
#1968 = ADVANCED_FACE ( '', ( #1974 ), #1969, .T. ) ;
#1969 = TOROIDAL_SURFACE ( '', #1970, 0.508, 0.254 ) ;
#1970 = AXIS2_PLACEMENT_3D ( '', #1971, #1972, #1973 ) ;
#1971 = CARTESIAN_POINT ( '',  ( 1.27,2.032,-2.032 ) ) ;
#1972 = DIRECTION ( '',  ( 1.0,0.0,0.0 ) ) ;
#1973 = DIRECTION ( '',  ( 0.0000000000000000000, 0.0000000000000000000, 1.000000000000000000 ) ) ;
#1974 = FACE_OUTER_BOUND ( '', #1975, .T. ) ;
#1975 = EDGE_LOOP ( '', ( #1976, #1987, #1998, #2009 ) ) ;
#1976=ORIENTED_EDGE('',*,*,#1712,.T.);
#1987=ORIENTED_EDGE('',*,*,#1957,.T.);
#1998=ORIENTED_EDGE('',*,*,#1617,.T.);
#2009=ORIENTED_EDGE('',*,*,#1935,.T.);
ENDSEC;
END-ISO-10303-21;
