ISO-10303-21;
HEADER;
FILE_DESCRIPTION (( 'STEP AP214' ),
    '1' );
FILE_NAME ('base.STEP',
    '2020-08-05T09:43:24',
    ( '' ),
    ( '' ),
    'SwSTEP 2.0',
    'SolidWorks 2020',
    '' );
FILE_SCHEMA (( 'AUTOMOTIVE_DESIGN' ));
ENDSEC;

DATA;
#1 = AXIS2_PLACEMENT_3D ( 'NONE', #206, #596, #103 ) ;
#2 = VERTEX_POINT ( 'NONE', #1204 ) ;
#3 = VECTOR ( 'NONE', #1189, 1000.000000000000000 ) ;
#4 = PRESENTATION_LAYER_ASSIGNMENT (  '', '', ( #1082 ) ) ;
#5 = ADVANCED_FACE ( 'NONE', ( #466 ), #273, .T. ) ;
#6 = PRESENTATION_STYLE_ASSIGNMENT (( #673 ) ) ;
#7 = CARTESIAN_POINT ( 'NONE',  ( -34.28948280075835697, -8.000000000000000000, -28.78294889159275272 ) ) ;
#8 = DIRECTION ( 'NONE',  ( -0.0000000000000000000, 1.000000000000000000, -0.0000000000000000000 ) ) ;
#9 = FACE_OUTER_BOUND ( 'NONE', #358, .T. ) ;
#10 = EDGE_LOOP ( 'NONE', ( #794, #900, #75, #194 ) ) ;
#11 = CARTESIAN_POINT ( 'NONE',  ( -34.28948280075835697, -8.000000000000000000, -22.78294889159275627 ) ) ;
#12 = EDGE_CURVE ( 'NONE', #235, #811, #1217, .T. ) ;
#13 = DIRECTION ( 'NONE',  ( -0.0000000000000000000, -1.000000000000000000, -0.0000000000000000000 ) ) ;
#14 = PLANE ( 'NONE',  #1155 ) ;
#15 = ORIENTED_EDGE ( 'NONE', *, *, #1210, .T. ) ;
#16 = ORIENTED_EDGE ( 'NONE', *, *, #704, .T. ) ;
#17 = DIRECTION ( 'NONE',  ( 0.0000000000000000000, -0.0000000000000000000, -1.000000000000000000 ) ) ;
#18 = APPLICATION_CONTEXT ( 'automotive_design' ) ;
#19 = PLANE ( 'NONE',  #556 ) ;
#20 = ADVANCED_FACE ( 'NONE', ( #753 ), #1031, .F. ) ;
#21 = DIRECTION ( 'NONE',  ( 0.0000000000000000000, 0.0000000000000000000, -1.000000000000000000 ) ) ;
#22 = VERTEX_POINT ( 'NONE', #954 ) ;
#23 = AXIS2_PLACEMENT_3D ( 'NONE', #1153, #171, #1035 ) ;
#24 = CARTESIAN_POINT ( 'NONE',  ( -107.4999999999999716, 5.000000000000000000, 38.00000000000000000 ) ) ;
#25 = VECTOR ( 'NONE', #989, 1000.000000000000000 ) ;
#26 = AXIS2_PLACEMENT_3D ( 'NONE', #1168, #494, #1181 ) ;
#27 = VECTOR ( 'NONE', #664, 1000.000000000000000 ) ;
#28 = DIRECTION ( 'NONE',  ( -0.0000000000000000000, 1.000000000000000000, -0.0000000000000000000 ) ) ;
#29 = CYLINDRICAL_SURFACE ( 'NONE', #1003, 5.999999999999998224 ) ;
#30 = EDGE_CURVE ( 'NONE', #1252, #267, #83, .T. ) ;
#31 = EDGE_LOOP ( 'NONE', ( #1126, #419 ) ) ;
#32 = EDGE_CURVE ( 'NONE', #66, #548, #961, .T. ) ;
#33 = ORIENTED_EDGE ( 'NONE', *, *, #694, .T. ) ;
#34 = DIRECTION ( 'NONE',  ( 0.0000000000000000000, 0.0000000000000000000, 1.000000000000000000 ) ) ;
#35 = CARTESIAN_POINT ( 'NONE',  ( -109.4999999999999716, 5.550764553814779845, -40.00000000000000000 ) ) ;
#36 = EDGE_LOOP ( 'NONE', ( #1014, #61, #1191, #69 ) ) ;
#37 = ADVANCED_FACE ( 'NONE', ( #1224 ), #572, .F. ) ;
#38 = ORIENTED_EDGE ( 'NONE', *, *, #463, .T. ) ;
#39 = LINE ( 'NONE', #448, #778 ) ;
#40 = CARTESIAN_POINT ( 'NONE',  ( -107.4999999999999716, 3.000000000000000000, 38.00000000000000000 ) ) ;
#41 = DIRECTION ( 'NONE',  ( 0.0000000000000000000, -1.000000000000000000, 0.0000000000000000000 ) ) ;
#42 = EDGE_LOOP ( 'NONE', ( #628, #1165, #282, #175 ) ) ;
#43 = VERTEX_POINT ( 'NONE', #668 ) ;
#44 = VECTOR ( 'NONE', #1117, 1000.000000000000000 ) ;
#45 = VECTOR ( 'NONE', #622, 1000.000000000000000 ) ;
#46 = DIRECTION ( 'NONE',  ( 0.0000000000000000000, 0.0000000000000000000, 1.000000000000000000 ) ) ;
#47 = VECTOR ( 'NONE', #339, 1000.000000000000000 ) ;
#48 = VECTOR ( 'NONE', #950, 1000.000000000000000 ) ;
#50 = CARTESIAN_POINT ( 'NONE',  ( -34.28948280075835697, -8.000000000000000000, -30.78294889159275627 ) ) ;
#49 = VECTOR ( 'NONE', #465, 1000.000000000000000 ) ;
#51 = EDGE_LOOP ( 'NONE', ( #219, #1196 ) ) ;
#52 = CARTESIAN_POINT ( 'NONE',  ( -107.4999999999999716, 1.000000000000000000, 38.00000000000000000 ) ) ;
#53 = ADVANCED_FACE ( 'NONE', ( #93 ), #1083, .T. ) ;
#54 = CARTESIAN_POINT ( 'NONE',  ( -34.28948280075835697, 0.0000000000000000000, -28.78294889159275272 ) ) ;
#55 = ORIENTED_EDGE ( 'NONE', *, *, #158, .T. ) ;
#56 = LINE ( 'NONE', #470, #264 ) ;
#57 = LINE ( 'NONE', #139, #758 ) ;
#58 = CARTESIAN_POINT ( 'NONE',  ( -107.4999999999999716, 5.000000000000000000, 38.00000000000000000 ) ) ;
#59 = EDGE_CURVE ( 'NONE', #830, #512, #891, .T. ) ;
#60 = EDGE_CURVE ( 'NONE', #1158, #167, #418, .T. ) ;
#61 = ORIENTED_EDGE ( 'NONE', *, *, #1118, .T. ) ;
#62 = VECTOR ( 'NONE', #625, 1000.000000000000000 ) ;
#63 = ORIENTED_EDGE ( 'NONE', *, *, #1222, .F. ) ;
#64 = CARTESIAN_POINT ( 'NONE',  ( -107.4999999999999716, 5.000000000000000000, -38.00000000000000000 ) ) ;
#65 = EDGE_CURVE ( 'NONE', #226, #1114, #1090, .T. ) ;
#66 = VERTEX_POINT ( 'NONE', #404 ) ;
#67 = ADVANCED_FACE ( 'NONE', ( #876 ), #1076, .T. ) ;
#68 = DIRECTION ( 'NONE',  ( -0.0000000000000000000, 1.000000000000000000, -0.0000000000000000000 ) ) ;
#69 = ORIENTED_EDGE ( 'NONE', *, *, #294, .F. ) ;
#70 = DIRECTION ( 'NONE',  ( 0.0000000000000000000, 0.0000000000000000000, -1.000000000000000000 ) ) ;
#71 = CYLINDRICAL_SURFACE ( 'NONE', #1180, 2.000000000000001776 ) ;
#72 = ORIENTED_EDGE ( 'NONE', *, *, #551, .F. ) ;
#73 = EDGE_CURVE ( 'NONE', #689, #429, #1000, .T. ) ;
#74 = FACE_OUTER_BOUND ( 'NONE', #1172, .T. ) ;
#75 = ORIENTED_EDGE ( 'NONE', *, *, #1199, .T. ) ;
#76 = DIRECTION ( 'NONE',  ( 0.0000000000000000000, 0.0000000000000000000, -1.000000000000000000 ) ) ;
#77 = CARTESIAN_POINT ( 'NONE',  ( -111.4999999999999716, -44.44923544618522726, -39.99999999999999289 ) ) ;
#78 = EDGE_LOOP ( 'NONE', ( #394, #568, #143, #769 ) ) ;
#79 = ORIENTED_EDGE ( 'NONE', *, *, #595, .F. ) ;
#80 = LINE ( 'NONE', #1026, #1038 ) ;
#81 = DIRECTION ( 'NONE',  ( 0.0000000000000000000, 0.0000000000000000000, -1.000000000000000000 ) ) ;
#82 = VECTOR ( 'NONE', #462, 1000.000000000000000 ) ;
#83 = LINE ( 'NONE', #377, #192 ) ;
#84 = ADVANCED_FACE ( 'NONE', ( #1070 ), #691, .F. ) ;
#85 = CARTESIAN_POINT ( 'NONE',  ( -34.28948280075836408, 0.0000000000000000000, -0.004275931565625185754 ) ) ;
#86 = CIRCLE ( 'NONE', #260, 5.999999999999994671 ) ;
#87 = CYLINDRICAL_SURFACE ( 'NONE', #443, 2.000000000000003109 ) ;
#88 = ORIENTED_EDGE ( 'NONE', *, *, #188, .F. ) ;
#89 = FACE_OUTER_BOUND ( 'NONE', #456, .T. ) ;
#90 = AXIS2_PLACEMENT_3D ( 'NONE', #164, #68, #570 ) ;
#91 = ORIENTED_EDGE ( 'NONE', *, *, #1118, .F. ) ;
#92 = CARTESIAN_POINT ( 'NONE',  ( 45.16752562030922746, -8.000000000000000000, -8.004275931565622670 ) ) ;
#93 = FACE_OUTER_BOUND ( 'NONE', #816, .T. ) ;
#94 = DIRECTION ( 'NONE',  ( -0.0000000000000000000, 1.000000000000000000, -0.0000000000000000000 ) ) ;
#95 = FILL_AREA_STYLE ('',( #584 ) ) ;
#96 = ORIENTED_EDGE ( 'NONE', *, *, #1199, .F. ) ;
#97 = CARTESIAN_POINT ( 'NONE',  ( 45.16752562030922746, -8.000000000000000000, -4.004275931565631552 ) ) ;
#98 = DIRECTION ( 'NONE',  ( 0.0000000000000000000, 0.0000000000000000000, 1.000000000000000000 ) ) ;
#99 = DIRECTION ( 'NONE',  ( 0.0000000000000000000, -1.000000000000000000, 0.0000000000000000000 ) ) ;
#100 = DIRECTION ( 'NONE',  ( -1.000000000000000000, 0.0000000000000000000, 0.0000000000000000000 ) ) ;
#101 = ORIENTED_EDGE ( 'NONE', *, *, #746, .F. ) ;
#102 = SURFACE_SIDE_STYLE ('',( #295 ) ) ;
#103 = DIRECTION ( 'NONE',  ( 0.0000000000000000000, 0.0000000000000000000, 1.000000000000000000 ) ) ;
#104 = FACE_OUTER_BOUND ( 'NONE', #1133, .T. ) ;
#105 = DIRECTION ( 'NONE',  ( -0.0000000000000000000, 1.000000000000000000, -0.0000000000000000000 ) ) ;
#106 = CIRCLE ( 'NONE', #129, 5.999999999999998224 ) ;
#107 = CIRCLE ( 'NONE', #839, 2.000000000000001776 ) ;
#108 = AXIS2_PLACEMENT_3D ( 'NONE', #111, #1152, #578 ) ;
#109 = ORIENTED_EDGE ( 'NONE', *, *, #704, .F. ) ;
#110 = VECTOR ( 'NONE', #408, 1000.000000000000000 ) ;
#111 = CARTESIAN_POINT ( 'NONE',  ( 45.16752562030923457, 0.0000000000000000000, -28.78294889159275272 ) ) ;
#112 =( NAMED_UNIT ( * ) PLANE_ANGLE_UNIT ( ) SI_UNIT ( $, .RADIAN. ) );
#113 = DIRECTION ( 'NONE',  ( -0.0000000000000000000, 1.000000000000000000, -0.0000000000000000000 ) ) ;
#114 = CYLINDRICAL_SURFACE ( 'NONE', #1156, 5.999999999999998224 ) ;
#115 = CARTESIAN_POINT ( 'NONE',  ( 109.5000000000000284, 1.000000000000000000, -40.00000000000000000 ) ) ;
#116 = ORIENTED_EDGE ( 'NONE', *, *, #32, .T. ) ;
#117 = ORIENTED_EDGE ( 'NONE', *, *, #1004, .F. ) ;
#118 = CARTESIAN_POINT ( 'NONE',  ( -107.4999999999999716, 5.000000000000000000, -38.00000000000000000 ) ) ;
#119 = EDGE_CURVE ( 'NONE', #1109, #594, #501, .T. ) ;
#120 = DIRECTION ( 'NONE',  ( 0.0000000000000000000, 0.0000000000000000000, 1.000000000000000000 ) ) ;
#121 = EDGE_CURVE ( 'NONE', #220, #1055, #790, .T. ) ;
#122 = DIRECTION ( 'NONE',  ( 0.0000000000000000000, -1.000000000000000000, 0.0000000000000000000 ) ) ;
#123 = ORIENTED_EDGE ( 'NONE', *, *, #626, .T. ) ;
#124 = ORIENTED_EDGE ( 'NONE', *, *, #803, .F. ) ;
#125 = FACE_OUTER_BOUND ( 'NONE', #528, .T. ) ;
#126 = ADVANCED_FACE ( 'NONE', ( #921, #1103, #1010, #345, #729 ), #734, .T. ) ;
#127 = LINE ( 'NONE', #207, #861 ) ;
#128 = ORIENTED_EDGE ( 'NONE', *, *, #1253, .T. ) ;
#129 = AXIS2_PLACEMENT_3D ( 'NONE', #736, #41, #248 ) ;
#130 = AXIS2_PLACEMENT_3D ( 'NONE', #1065, #1256, #508 ) ;
#131 = ORIENTED_EDGE ( 'NONE', *, *, #977, .T. ) ;
#132 = DIRECTION ( 'NONE',  ( -0.0000000000000000000, 1.000000000000000000, -0.0000000000000000000 ) ) ;
#133 = CIRCLE ( 'NONE', #638, 2.000000000000001776 ) ;
#134 = DIRECTION ( 'NONE',  ( -0.0000000000000000000, 1.734723475976807341E-16, 1.000000000000000000 ) ) ;
#135 = EDGE_CURVE ( 'NONE', #412, #2, #169, .T. ) ;
#136 = ORIENTED_EDGE ( 'NONE', *, *, #392, .F. ) ;
#137 = ORIENTED_EDGE ( 'NONE', *, *, #920, .F. ) ;
#138 = DIRECTION ( 'NONE',  ( 0.0000000000000000000, -0.0000000000000000000, -1.000000000000000000 ) ) ;
#139 = CARTESIAN_POINT ( 'NONE',  ( -34.28948280075835697, -8.000000000000000000, -26.78294889159275272 ) ) ;
#140 = DIRECTION ( 'NONE',  ( 0.0000000000000000000, 0.0000000000000000000, 1.000000000000000000 ) ) ;
#141 = VERTEX_POINT ( 'NONE', #934 ) ;
#142 = APPLICATION_PROTOCOL_DEFINITION ( 'draft international standard', 'automotive_design', 1998, #18 ) ;
#143 = ORIENTED_EDGE ( 'NONE', *, *, #931, .T. ) ;
#144 = EDGE_CURVE ( 'NONE', #1055, #1114, #946, .T. ) ;
#145 = CARTESIAN_POINT ( 'NONE',  ( -34.28948280075835697, -8.000000000000000000, -28.78294889159275272 ) ) ;
#146 = DIRECTION ( 'NONE',  ( 0.0000000000000000000, 0.0000000000000000000, 1.000000000000000000 ) ) ;
#147 = CARTESIAN_POINT ( 'NONE',  ( -34.28948280075835697, -8.000000000000000000, -26.78294889159275272 ) ) ;
#148 = ORIENTED_EDGE ( 'NONE', *, *, #551, .T. ) ;
#149 = DIRECTION ( 'NONE',  ( -1.000000000000000000, -0.0000000000000000000, -0.0000000000000000000 ) ) ;
#150 = AXIS2_PLACEMENT_3D ( 'NONE', #54, #911, #1216 ) ;
#151 = EDGE_CURVE ( 'NONE', #872, #1151, #80, .T. ) ;
#152 = VECTOR ( 'NONE', #113, 1000.000000000000000 ) ;
#153 = VECTOR ( 'NONE', #532, 1000.000000000000000 ) ;
#154 = AXIS2_PLACEMENT_3D ( 'NONE', #1097, #593, #996 ) ;
#155 = DIRECTION ( 'NONE',  ( -0.0000000000000000000, 1.000000000000000000, -0.0000000000000000000 ) ) ;
#156 = ORIENTED_EDGE ( 'NONE', *, *, #616, .F. ) ;
#157 = CYLINDRICAL_SURFACE ( 'NONE', #90, 5.999999999999998224 ) ;
#158 = EDGE_CURVE ( 'NONE', #809, #845, #1140, .T. ) ;
#159 = DIRECTION ( 'NONE',  ( -0.0000000000000000000, 1.000000000000000000, -0.0000000000000000000 ) ) ;
#160 = EDGE_CURVE ( 'NONE', #997, #1147, #651, .T. ) ;
#161 = LINE ( 'NONE', #437, #209 ) ;
#162 = ORIENTED_EDGE ( 'NONE', *, *, #529, .T. ) ;
#163 = CARTESIAN_POINT ( 'NONE',  ( -107.4999999999999716, 0.0000000000000000000, 38.00000000000000000 ) ) ;
#164 = CARTESIAN_POINT ( 'NONE',  ( -34.28948280075835697, -8.000000000000000000, -28.78294889159275272 ) ) ;
#165 = DIRECTION ( 'NONE',  ( -0.0000000000000000000, 1.000000000000000000, -0.0000000000000000000 ) ) ;
#166 = FACE_OUTER_BOUND ( 'NONE', #78, .T. ) ;
#167 = VERTEX_POINT ( 'NONE', #245 ) ;
#168 = DIRECTION ( 'NONE',  ( 0.0000000000000000000, -1.000000000000000000, 0.0000000000000000000 ) ) ;
#169 = CIRCLE ( 'NONE', #1198, 5.999999999999994671 ) ;
#170 = VERTEX_POINT ( 'NONE', #805 ) ;
#171 = DIRECTION ( 'NONE',  ( -0.0000000000000000000, 1.000000000000000000, -0.0000000000000000000 ) ) ;
#172 = AXIS2_PLACEMENT_3D ( 'NONE', #1009, #132, #34 ) ;
#173 = CARTESIAN_POINT ( 'NONE',  ( -109.4999999999999716, 5.550764553814790503, 40.00000000000000000 ) ) ;
#174 = EDGE_CURVE ( 'NONE', #407, #1252, #537, .T. ) ;
#175 = ORIENTED_EDGE ( 'NONE', *, *, #479, .F. ) ;
#176 = PLANE ( 'NONE',  #798 ) ;
#177 = ORIENTED_EDGE ( 'NONE', *, *, #223, .F. ) ;
#178 = DIRECTION ( 'NONE',  ( 0.0000000000000000000, -1.301042606982605321E-16, -1.000000000000000000 ) ) ;
#179 = CARTESIAN_POINT ( 'NONE',  ( 109.5000000000000284, 1.000000000000000000, 40.00000000000000000 ) ) ;
#180 = ORIENTED_EDGE ( 'NONE', *, *, #135, .F. ) ;
#181 = EDGE_CURVE ( 'NONE', #348, #499, #812, .T. ) ;
#182 = DIRECTION ( 'NONE',  ( -0.0000000000000000000, -0.0000000000000000000, 1.000000000000000000 ) ) ;
#183 = DIRECTION ( 'NONE',  ( 0.0000000000000000000, -0.0000000000000000000, -1.000000000000000000 ) ) ;
#184 = EDGE_LOOP ( 'NONE', ( #1227, #1079, #88, #461 ) ) ;
#185 = LINE ( 'NONE', #846, #82 ) ;
#186 = CARTESIAN_POINT ( 'NONE',  ( -34.28948280075835697, -8.000000000000000000, -28.78294889159275272 ) ) ;
#187 = ORIENTED_EDGE ( 'NONE', *, *, #174, .F. ) ;
#188 = EDGE_CURVE ( 'NONE', #1252, #830, #836, .T. ) ;
#189 = ORIENTED_EDGE ( 'NONE', *, *, #608, .T. ) ;
#190 = DIRECTION ( 'NONE',  ( 0.0000000000000000000, 0.0000000000000000000, -1.000000000000000000 ) ) ;
#191 = CARTESIAN_POINT ( 'NONE',  ( 107.5000000000000284, 1.000000000000000000, 38.00000000000000000 ) ) ;
#192 = VECTOR ( 'NONE', #1244, 1000.000000000000000 ) ;
#193 = CIRCLE ( 'NONE', #1159, 5.999999999999998224 ) ;
#194 = ORIENTED_EDGE ( 'NONE', *, *, #160, .T. ) ;
#195 = DIRECTION ( 'NONE',  ( 0.0000000000000000000, 0.0000000000000000000, -1.000000000000000000 ) ) ;
#196 = EDGE_CURVE ( 'NONE', #1099, #1055, #868, .T. ) ;
#197 = DIRECTION ( 'NONE',  ( -0.0000000000000000000, 1.000000000000000000, -0.0000000000000000000 ) ) ;
#198 = ADVANCED_FACE ( 'NONE', ( #722 ), #1110, .T. ) ;
#199 = FACE_BOUND ( 'NONE', #252, .T. ) ;
#200 = EDGE_LOOP ( 'NONE', ( #1069, #329 ) ) ;
#201 = DIRECTION ( 'NONE',  ( 1.000000000000000000, 0.0000000000000000000, -0.0000000000000000000 ) ) ;
#202 = CARTESIAN_POINT ( 'NONE',  ( 109.5000000000000284, 3.000000000000000000, 40.00000000000000000 ) ) ;
#203 = LINE ( 'NONE', #1258, #524 ) ;
#204 = ORIENTED_EDGE ( 'NONE', *, *, #848, .T. ) ;
#205 = ORIENTED_EDGE ( 'NONE', *, *, #977, .F. ) ;
#206 = CARTESIAN_POINT ( 'NONE',  ( -34.28948280075836408, -8.000000000000000000, -2.004275931565628444 ) ) ;
#207 = CARTESIAN_POINT ( 'NONE',  ( -107.4999999999999716, 5.000000000000000000, -38.00000000000000000 ) ) ;
#208 = PLANE ( 'NONE',  #323 ) ;
#209 = VECTOR ( 'NONE', #242, 1000.000000000000000 ) ;
#210 = CIRCLE ( 'NONE', #554, 2.000000000000001776 ) ;
#211 = VECTOR ( 'NONE', #149, 1000.000000000000000 ) ;
#212 = EDGE_LOOP ( 'NONE', ( #600, #475, #1080, #788 ) ) ;
#213 = EDGE_CURVE ( 'NONE', #645, #1109, #193, .T. ) ;
#214 = CIRCLE ( 'NONE', #1239, 5.999999999999998224 ) ;
#215 = ORIENTED_EDGE ( 'NONE', *, *, #463, .F. ) ;
#216 = DIRECTION ( 'NONE',  ( -0.0000000000000000000, 1.000000000000000000, -0.0000000000000000000 ) ) ;
#217 = CYLINDRICAL_SURFACE ( 'NONE', #637, 5.999999999999994671 ) ;
#218 = CARTESIAN_POINT ( 'NONE',  ( 109.5000000000000284, 3.000000000000000000, 40.00000000000000000 ) ) ;
#219 = ORIENTED_EDGE ( 'NONE', *, *, #920, .T. ) ;
#220 = VERTEX_POINT ( 'NONE', #237 ) ;
#221 = CARTESIAN_POINT ( 'NONE',  ( 109.5000000000000284, 1.000000000000000000, 40.00000000000000000 ) ) ;
#222 = DIRECTION ( 'NONE',  ( 0.0000000000000000000, 0.0000000000000000000, -1.000000000000000000 ) ) ;
#223 = EDGE_CURVE ( 'NONE', #22, #1099, #711, .T. ) ;
#224 = CARTESIAN_POINT ( 'NONE',  ( -109.4999999999999716, 5.550764553814790503, 40.00000000000000000 ) ) ;
#225 = DIRECTION ( 'NONE',  ( 0.0000000000000000000, -1.000000000000000000, 0.0000000000000000000 ) ) ;
#226 = VERTEX_POINT ( 'NONE', #52 ) ;
#227 = APPLICATION_PROTOCOL_DEFINITION ( 'draft international standard', 'automotive_design', 1998, #895 ) ;
#228 = EDGE_LOOP ( 'NONE', ( #944, #896, #530, #688 ) ) ;
#229 = FACE_OUTER_BOUND ( 'NONE', #10, .T. ) ;
#230 = ADVANCED_FACE ( 'NONE', ( #910, #430 ), #728, .T. ) ;
#231 = DIRECTION ( 'NONE',  ( 0.0000000000000000000, -1.000000000000000000, 0.0000000000000000000 ) ) ;
#232 = ORIENTED_EDGE ( 'NONE', *, *, #331, .T. ) ;
#233 = CIRCLE ( 'NONE', #396, 2.000000000000003553 ) ;
#234 = CIRCLE ( 'NONE', #398, 5.999999999999998224 ) ;
#235 = VERTEX_POINT ( 'NONE', #629 ) ;
#236 = DIRECTION ( 'NONE',  ( -0.0000000000000000000, 1.000000000000000000, -0.0000000000000000000 ) ) ;
#237 = CARTESIAN_POINT ( 'NONE',  ( -107.4999999999999716, 1.000000000000000000, -38.00000000000000000 ) ) ;
#238 = CIRCLE ( 'NONE', #652, 5.999999999999994671 ) ;
#239 = VECTOR ( 'NONE', #749, 1000.000000000000000 ) ;
#240 = AXIS2_PLACEMENT_3D ( 'NONE', #913, #251, #1186 ) ;
#241 = DIRECTION ( 'NONE',  ( 0.0000000000000000000, 0.0000000000000000000, -1.000000000000000000 ) ) ;
#242 = DIRECTION ( 'NONE',  ( 0.0000000000000000000, -1.000000000000000000, 1.387778780781445676E-16 ) ) ;
#243 = ORIENTED_EDGE ( 'NONE', *, *, #1018, .T. ) ;
#244 = ORIENTED_EDGE ( 'NONE', *, *, #676, .T. ) ;
#245 = CARTESIAN_POINT ( 'NONE',  ( 45.16752562030923457, 0.0000000000000000000, -22.78294889159274916 ) ) ;
#246 = CARTESIAN_POINT ( 'NONE',  ( 45.16752562030922746, -8.000000000000000000, -2.004275931565628444 ) ) ;
#247 = LINE ( 'NONE', #351, #47 ) ;
#248 = DIRECTION ( 'NONE',  ( 0.0000000000000000000, 0.0000000000000000000, -1.000000000000000000 ) ) ;
#249 = EDGE_LOOP ( 'NONE', ( #1060, #156, #560, #189 ) ) ;
#250 = EDGE_CURVE ( 'NONE', #349, #1129, #39, .T. ) ;
#251 = DIRECTION ( 'NONE',  ( 0.0000000000000000000, 0.0000000000000000000, 1.000000000000000000 ) ) ;
#252 = EDGE_LOOP ( 'NONE', ( #148, #332, #38, #606 ) ) ;
#253 = PLANE ( 'NONE',  #800 ) ;
#254 = DIRECTION ( 'NONE',  ( 0.0000000000000000000, -1.000000000000000000, 0.0000000000000000000 ) ) ;
#255 = CARTESIAN_POINT ( 'NONE',  ( -107.4999999999999716, 1.000000000000000000, 38.00000000000000000 ) ) ;
#256 = UNCERTAINTY_MEASURE_WITH_UNIT (LENGTH_MEASURE( 1.000000000000000082E-05 ), #1167, 'distance_accuracy_value', 'NONE');
#257 = ADVANCED_FACE ( 'NONE', ( #623 ), #831, .T. ) ;
#258 = AXIS2_PLACEMENT_3D ( 'NONE', #566, #669, #941 ) ;
#259 = ORIENTED_EDGE ( 'NONE', *, *, #520, .F. ) ;
#260 = AXIS2_PLACEMENT_3D ( 'NONE', #766, #1237, #378 ) ;
#261 = ADVANCED_FACE ( 'NONE', ( #1226 ), #1207, .F. ) ;
#262 = DIRECTION ( 'NONE',  ( 0.0000000000000000000, -0.0000000000000000000, -1.000000000000000000 ) ) ;
#263 = DIRECTION ( 'NONE',  ( 0.0000000000000000000, -1.000000000000000000, 0.0000000000000000000 ) ) ;
#264 = VECTOR ( 'NONE', #854, 1000.000000000000000 ) ;
#265 = AXIS2_PLACEMENT_3D ( 'NONE', #998, #902, #350 ) ;
#266 = FACE_OUTER_BOUND ( 'NONE', #36, .T. ) ;
#267 = VERTEX_POINT ( 'NONE', #634 ) ;
#268 = DIRECTION ( 'NONE',  ( -0.0000000000000000000, 1.734723475976807341E-16, 1.000000000000000000 ) ) ;
#269 = ADVANCED_FACE ( 'NONE', ( #1089 ), #607, .F. ) ;
#270 = DIRECTION ( 'NONE',  ( 1.000000000000000000, 0.0000000000000000000, 0.0000000000000000000 ) ) ;
#271 = ORIENTED_EDGE ( 'NONE', *, *, #388, .F. ) ;
#272 = ADVANCED_FACE ( 'NONE', ( #125 ), #441, .T. ) ;
#273 = PLANE ( 'NONE',  #580 ) ;
#274 = DIRECTION ( 'NONE',  ( 0.0000000000000000000, -1.000000000000000000, 0.0000000000000000000 ) ) ;
#275 = FACE_OUTER_BOUND ( 'NONE', #212, .T. ) ;
#276 = ORIENTED_EDGE ( 'NONE', *, *, #196, .T. ) ;
#277 = PLANE ( 'NONE',  #483 ) ;
#278 = EDGE_LOOP ( 'NONE', ( #971, #1040 ) ) ;
#279 = PLANE ( 'NONE',  #999 ) ;
#280 = AXIS2_PLACEMENT_3D ( 'NONE', #516, #604, #21 ) ;
#281 = LINE ( 'NONE', #1045, #27 ) ;
#282 = ORIENTED_EDGE ( 'NONE', *, *, #960, .F. ) ;
#283 = DIRECTION ( 'NONE',  ( 0.0000000000000000000, -1.000000000000000000, 0.0000000000000000000 ) ) ;
#284 = DIRECTION ( 'NONE',  ( -0.0000000000000000000, 1.000000000000000000, -0.0000000000000000000 ) ) ;
#285 = DIRECTION ( 'NONE',  ( 0.0000000000000000000, -1.000000000000000000, 0.0000000000000000000 ) ) ;
#286 = DIRECTION ( 'NONE',  ( 1.000000000000000000, -0.0000000000000000000, 0.0000000000000000000 ) ) ;
#287 = DIRECTION ( 'NONE',  ( 0.0000000000000000000, -1.000000000000000000, 0.0000000000000000000 ) ) ;
#288 = ORIENTED_EDGE ( 'NONE', *, *, #322, .T. ) ;
#289 = ADVANCED_FACE ( 'NONE', ( #1116 ), #253, .F. ) ;
#290 = CARTESIAN_POINT ( 'NONE',  ( 0.0000000000000000000, 0.0000000000000000000, 0.0000000000000000000 ) ) ;
#291 = LINE ( 'NONE', #1175, #1122 ) ;
#292 = DIRECTION ( 'NONE',  ( 0.0000000000000000000, 0.0000000000000000000, -1.000000000000000000 ) ) ;
#293 = EDGE_LOOP ( 'NONE', ( #1211, #375, #336, #123, #725, #721, #464, #787 ) ) ;
#294 = EDGE_CURVE ( 'NONE', #1028, #167, #338, .T. ) ;
#295 = SURFACE_STYLE_FILL_AREA ( #882 ) ;
#296 = ADVANCED_FACE ( 'NONE', ( #229 ), #614, .F. ) ;
#297 = AXIS2_PLACEMENT_3D ( 'NONE', #453, #743, #1128 ) ;
#298 = CARTESIAN_POINT ( 'NONE',  ( -34.28948280075836408, -8.000000000000000000, -4.004275931565631552 ) ) ;
#299 = AXIS2_PLACEMENT_3D ( 'NONE', #797, #315, #120 ) ;
#300 = PLANE ( 'NONE',  #926 ) ;
#301 = VECTOR ( 'NONE', #270, 1000.000000000000000 ) ;
#302 = EDGE_LOOP ( 'NONE', ( #215, #517, #276, #1013 ) ) ;
#303 = CARTESIAN_POINT ( 'NONE',  ( -34.28948280075835697, -8.000000000000000000, -28.78294889159275272 ) ) ;
#304 = DIRECTION ( 'NONE',  ( 0.0000000000000000000, -1.000000000000000000, 0.0000000000000000000 ) ) ;
#305 = FACE_OUTER_BOUND ( 'NONE', #847, .T. ) ;
#306 = ORIENTED_EDGE ( 'NONE', *, *, #960, .T. ) ;
#307 = LINE ( 'NONE', #395, #679 ) ;
#308 = DIRECTION ( 'NONE',  ( 1.000000000000000000, 0.0000000000000000000, -0.0000000000000000000 ) ) ;
#309 = ADVANCED_FACE ( 'NONE', ( #813 ), #71, .F. ) ;
#310 = DIRECTION ( 'NONE',  ( 0.0000000000000000000, -0.0000000000000000000, -1.000000000000000000 ) ) ;
#311 = ORIENTED_EDGE ( 'NONE', *, *, #792, .T. ) ;
#312 = ORIENTED_EDGE ( 'NONE', *, *, #250, .F. ) ;
#313 = FILL_AREA_STYLE_COLOUR ( '', #844 ) ;
#314 = DIRECTION ( 'NONE',  ( -0.0000000000000000000, -1.000000000000000000, -0.0000000000000000000 ) ) ;
#315 = DIRECTION ( 'NONE',  ( -0.0000000000000000000, 1.000000000000000000, -0.0000000000000000000 ) ) ;
#316 = CARTESIAN_POINT ( 'NONE',  ( 45.16752562030923457, -8.000000000000000000, -28.78294889159275272 ) ) ;
#317 = CIRCLE ( 'NONE', #258, 2.000000000000003553 ) ;
#318 = VECTOR ( 'NONE', #597, 1000.000000000000000 ) ;
#319 = VECTOR ( 'NONE', #182, 1000.000000000000000 ) ;
#320 = ORIENTED_EDGE ( 'NONE', *, *, #571, .T. ) ;
#321 = PRODUCT ( 'base', 'base', '', ( #330 ) ) ;
#322 = EDGE_CURVE ( 'NONE', #1247, #267, #1037, .T. ) ;
#323 = AXIS2_PLACEMENT_3D ( 'NONE', #786, #521, #310 ) ;
#324 = ORIENTED_EDGE ( 'NONE', *, *, #1113, .T. ) ;
#325 = AXIS2_PLACEMENT_3D ( 'NONE', #457, #837, #183 ) ;
#326 = DIRECTION ( 'NONE',  ( 0.0000000000000000000, 0.0000000000000000000, -1.000000000000000000 ) ) ;
#327 = CYLINDRICAL_SURFACE ( 'NONE', #674, 2.000000000000001776 ) ;
#328 = CARTESIAN_POINT ( 'NONE',  ( 0.0000000000000000000, 0.0000000000000000000, 0.0000000000000000000 ) ) ;
#329 = ORIENTED_EDGE ( 'NONE', *, *, #828, .F. ) ;
#330 = PRODUCT_CONTEXT ( 'NONE', #18, 'mechanical' ) ;
#331 = EDGE_CURVE ( 'NONE', #370, #739, #369, .T. ) ;
#332 = ORIENTED_EDGE ( 'NONE', *, *, #392, .T. ) ;
#333 = DIRECTION ( 'NONE',  ( -0.0000000000000000000, 1.000000000000000000, -0.0000000000000000000 ) ) ;
#334 = LINE ( 'NONE', #1212, #442 ) ;
#335 = CARTESIAN_POINT ( 'NONE',  ( 109.5000000000000284, 1.000000000000000000, -40.00000000000000000 ) ) ;
#336 = ORIENTED_EDGE ( 'NONE', *, *, #471, .T. ) ;
#337 = EDGE_LOOP ( 'NONE', ( #659, #919 ) ) ;
#338 = LINE ( 'NONE', #1188, #741 ) ;
#339 = DIRECTION ( 'NONE',  ( -0.0000000000000000000, 1.000000000000000000, -0.0000000000000000000 ) ) ;
#340 = CARTESIAN_POINT ( 'NONE',  ( 109.5000000000000284, 1.000000000000000000, 40.00000000000000000 ) ) ;
#341 = ORIENTED_EDGE ( 'NONE', *, *, #843, .F. ) ;
#342 = VECTOR ( 'NONE', #761, 1000.000000000000000 ) ;
#343 = VERTEX_POINT ( 'NONE', #77 ) ;
#344 = VECTOR ( 'NONE', #284, 1000.000000000000000 ) ;
#345 = FACE_BOUND ( 'NONE', #31, .T. ) ;
#346 = CARTESIAN_POINT ( 'NONE',  ( -109.4999999999999716, 0.0000000000000000000, 0.0000000000000000000 ) ) ;
#347 = CYLINDRICAL_SURFACE ( 'NONE', #357, 6.000000000000001776 ) ;
#348 = VERTEX_POINT ( 'NONE', #179 ) ;
#349 = VERTEX_POINT ( 'NONE', #755 ) ;
#350 = DIRECTION ( 'NONE',  ( 1.000000000000000000, 0.0000000000000000000, -0.0000000000000000000 ) ) ;
#351 = CARTESIAN_POINT ( 'NONE',  ( 45.16752562030922746, -8.000000000000000000, -0.004275931565625185754 ) ) ;
#352 = CARTESIAN_POINT ( 'NONE',  ( 0.0000000000000000000, 3.000000000000000000, 0.0000000000000000000 ) ) ;
#353 = ADVANCED_FACE ( 'NONE', ( #474, #199 ), #1238, .F. ) ;
#354 = EDGE_CURVE ( 'NONE', #349, #370, #866, .T. ) ;
#355 = ORIENTED_EDGE ( 'NONE', *, *, #181, .F. ) ;
#356 = DIRECTION ( 'NONE',  ( -0.0000000000000000000, 1.000000000000000000, -0.0000000000000000000 ) ) ;
#357 = AXIS2_PLACEMENT_3D ( 'NONE', #641, #1107, #140 ) ;
#358 = EDGE_LOOP ( 'NONE', ( #79, #116, #243, #918 ) ) ;
#359 = EDGE_CURVE ( 'NONE', #407, #511, #681, .T. ) ;
#360 = AXIS2_PLACEMENT_3D ( 'NONE', #346, #916, #241 ) ;
#361 = CARTESIAN_POINT ( 'NONE',  ( 107.5000000000000284, 3.000000000000000000, 38.00000000000000000 ) ) ;
#362 = AXIS2_PLACEMENT_3D ( 'NONE', #970, #231, #417 ) ;
#363 = LINE ( 'NONE', #829, #44 ) ;
#364 = ORIENTED_EDGE ( 'NONE', *, *, #479, .T. ) ;
#365 = EDGE_CURVE ( 'NONE', #1147, #997, #133, .T. ) ;
#366 = LINE ( 'NONE', #953, #49 ) ;
#367 = EDGE_LOOP ( 'NONE', ( #804, #985 ) ) ;
#368 = LINE ( 'NONE', #1136, #478 ) ;
#369 = LINE ( 'NONE', #657, #239 ) ;
#370 = VERTEX_POINT ( 'NONE', #973 ) ;
#371 = VERTEX_POINT ( 'NONE', #468 ) ;
#372 = ADVANCED_FACE ( 'NONE', ( #1068 ), #300, .F. ) ;
#373 = CARTESIAN_POINT ( 'NONE',  ( 45.16752562030922746, -8.000000000000000000, -4.004275931565631552 ) ) ;
#374 = DIRECTION ( 'NONE',  ( 0.0000000000000000000, 0.0000000000000000000, 1.000000000000000000 ) ) ;
#375 = ORIENTED_EDGE ( 'NONE', *, *, #608, .F. ) ;
#376 = CARTESIAN_POINT ( 'NONE',  ( -107.4999999999999716, 3.000000000000000000, 38.00000000000000000 ) ) ;
#377 = CARTESIAN_POINT ( 'NONE',  ( -111.4999999999999716, 5.550764553814790503, 40.00000000000000000 ) ) ;
#378 = DIRECTION ( 'NONE',  ( 0.0000000000000000000, 0.0000000000000000000, -1.000000000000000000 ) ) ;
#379 = COLOUR_RGB ( '',0.7921568627450980005, 0.8196078431372548767, 0.9333333333333333481 ) ;
#380 = CARTESIAN_POINT ( 'NONE',  ( 107.5000000000000284, 5.000000000000000000, 38.00000000000000000 ) ) ;
#381 = ORIENTED_EDGE ( 'NONE', *, *, #643, .F. ) ;
#382 = LINE ( 'NONE', #1049, #1183 ) ;
#383 = DIRECTION ( 'NONE',  ( 0.0000000000000000000, -1.000000000000000000, 1.301042606982605321E-16 ) ) ;
#384 = CARTESIAN_POINT ( 'NONE',  ( 107.5000000000000284, 5.000000000000000000, 38.00000000000000000 ) ) ;
#385 = CARTESIAN_POINT ( 'NONE',  ( -111.4999999999999716, -44.44923544618521305, 40.00000000000000000 ) ) ;
#386 = ADVANCED_FACE ( 'NONE', ( #275 ), #1139, .F. ) ;
#387 = ORIENTED_EDGE ( 'NONE', *, *, #196, .F. ) ;
#388 = EDGE_CURVE ( 'NONE', #845, #809, #1125, .T. ) ;
#389 = FACE_BOUND ( 'NONE', #200, .T. ) ;
#390 = CARTESIAN_POINT ( 'NONE',  ( -34.28948280075835697, 0.0000000000000000000, -26.78294889159275272 ) ) ;
#391 = PRESENTATION_STYLE_ASSIGNMENT (( #1251 ) ) ;
#392 = EDGE_CURVE ( 'NONE', #682, #22, #1232, .T. ) ;
#393 = ORIENTED_EDGE ( 'NONE', *, *, #365, .T. ) ;
#394 = ORIENTED_EDGE ( 'NONE', *, *, #1220, .T. ) ;
#395 = CARTESIAN_POINT ( 'NONE',  ( -109.4999999999999716, 3.000000000000000000, 40.00000000000000000 ) ) ;
#396 = AXIS2_PLACEMENT_3D ( 'NONE', #1225, #962, #76 ) ;
#397 = DIRECTION ( 'NONE',  ( 0.0000000000000000000, 0.0000000000000000000, -1.000000000000000000 ) ) ;
#398 = AXIS2_PLACEMENT_3D ( 'NONE', #502, #515, #397 ) ;
#399 = AXIS2_PLACEMENT_3D ( 'NONE', #480, #383, #765 ) ;
#400 = VECTOR ( 'NONE', #542, 1000.000000000000000 ) ;
#401 = CIRCLE ( 'NONE', #780, 2.000000000000001776 ) ;
#402 = ORIENTED_EDGE ( 'NONE', *, *, #569, .F. ) ;
#403 = EDGE_CURVE ( 'NONE', #343, #371, #281, .T. ) ;
#404 = CARTESIAN_POINT ( 'NONE',  ( -34.28948280075836408, -8.000000000000000000, -8.004275931565626223 ) ) ;
#405 = CARTESIAN_POINT ( 'NONE',  ( -34.28948280075836408, -8.000000000000000000, -0.004275931565625185754 ) ) ;
#406 = CARTESIAN_POINT ( 'NONE',  ( 45.16752562030922746, -8.000000000000000000, -8.004275931565622670 ) ) ;
#407 = VERTEX_POINT ( 'NONE', #1052 ) ;
#408 = DIRECTION ( 'NONE',  ( -0.0000000000000000000, 1.000000000000000000, -0.0000000000000000000 ) ) ;
#409 = CARTESIAN_POINT ( 'NONE',  ( 45.16752562030922746, 0.0000000000000000000, -2.004275931565628444 ) ) ;
#410 = ADVANCED_FACE ( 'NONE', ( #963 ), #87, .F. ) ;
#411 = CARTESIAN_POINT ( 'NONE',  ( -107.4999999999999716, 1.000000000000000000, -38.00000000000000000 ) ) ;
#412 = VERTEX_POINT ( 'NONE', #1149 ) ;
#413 = CARTESIAN_POINT ( 'NONE',  ( -111.4999999999999716, 5.550764553814790503, 40.00000000000000000 ) ) ;
#414 = DIRECTION ( 'NONE',  ( 1.000000000000000000, -0.0000000000000000000, -0.0000000000000000000 ) ) ;
#415 = CARTESIAN_POINT ( 'NONE',  ( -107.4999999999999716, 3.000000000000000000, 38.00000000000000000 ) ) ;
#416 = MANIFOLD_SOLID_BREP ( 'Boss-Extrude4', #883 ) ;
#417 = DIRECTION ( 'NONE',  ( 0.0000000000000000000, 0.0000000000000000000, -1.000000000000000000 ) ) ;
#418 = CIRCLE ( 'NONE', #26, 6.000000000000005329 ) ;
#419 = ORIENTED_EDGE ( 'NONE', *, *, #1018, .F. ) ;
#420 = AXIS2_PLACEMENT_3D ( 'NONE', #118, #507, #201 ) ;
#421 = VECTOR ( 'NONE', #857, 1000.000000000000000 ) ;
#422 = ORIENTED_EDGE ( 'NONE', *, *, #865, .T. ) ;
#423 = DIRECTION ( 'NONE',  ( 0.0000000000000000000, 0.0000000000000000000, 1.000000000000000000 ) ) ;
#424 = FACE_BOUND ( 'NONE', #337, .T. ) ;
#425 = CARTESIAN_POINT ( 'NONE',  ( -107.4999999999999716, 5.000000000000000000, -38.00000000000000000 ) ) ;
#426 = CARTESIAN_POINT ( 'NONE',  ( 45.16752562030922746, 0.0000000000000000000, -2.004275931565628444 ) ) ;
#427 = VERTEX_POINT ( 'NONE', #700 ) ;
#428 = EDGE_CURVE ( 'NONE', #1094, #548, #701, .T. ) ;
#429 = VERTEX_POINT ( 'NONE', #406 ) ;
#430 = FACE_BOUND ( 'NONE', #485, .T. ) ;
#431 = CARTESIAN_POINT ( 'NONE',  ( 107.5000000000000284, 3.000000000000000000, -38.00000000000000000 ) ) ;
#432 = CARTESIAN_POINT ( 'NONE',  ( 107.5000000000000284, 5.000000000000000000, -38.00000000000000000 ) ) ;
#433 = ORIENTED_EDGE ( 'NONE', *, *, #60, .F. ) ;
#434 = EDGE_LOOP ( 'NONE', ( #647, #1053, #1187, #1043 ) ) ;
#435 = DIRECTION ( 'NONE',  ( 0.0000000000000000000, 1.734723475976807341E-16, 1.000000000000000000 ) ) ;
#436 = LINE ( 'NONE', #539, #801 ) ;
#437 = CARTESIAN_POINT ( 'NONE',  ( -111.4999999999999716, 5.550764553814779845, -40.00000000000000000 ) ) ;
#438 = ORIENTED_EDGE ( 'NONE', *, *, #848, .F. ) ;
#439 = VECTOR ( 'NONE', #414, 1000.000000000000000 ) ;
#440 = EDGE_LOOP ( 'NONE', ( #756, #709, #33, #324 ) ) ;
#441 = PLANE ( 'NONE',  #265 ) ;
#442 = VECTOR ( 'NONE', #1208, 1000.000000000000000 ) ;
#443 = AXIS2_PLACEMENT_3D ( 'NONE', #1059, #1246, #484 ) ;
#444 = EDGE_CURVE ( 'NONE', #1046, #793, #719, .T. ) ;
#445 = LINE ( 'NONE', #624, #153 ) ;
#446 = CARTESIAN_POINT ( 'NONE',  ( -34.28948280075835697, 0.0000000000000000000, -22.78294889159275627 ) ) ;
#447 = ORIENTED_EDGE ( 'NONE', *, *, #738, .T. ) ;
#448 = CARTESIAN_POINT ( 'NONE',  ( 107.5000000000000284, 5.000000000000000000, 38.00000000000000000 ) ) ;
#449 = ADVANCED_BREP_SHAPE_REPRESENTATION ( 'base', ( #416, #240 ), #905 ) ;
#450 = DIRECTION ( 'NONE',  ( 0.0000000000000000000, -1.000000000000000000, 1.387778780781445676E-16 ) ) ;
#451 = ORIENTED_EDGE ( 'NONE', *, *, #1047, .F. ) ;
#452 = CARTESIAN_POINT ( 'NONE',  ( -107.4999999999999716, 0.0000000000000000000, 38.00000000000000000 ) ) ;
#453 = CARTESIAN_POINT ( 'NONE',  ( 45.16752562030922746, -8.000000000000000000, -2.004275931565628444 ) ) ;
#454 = ADVANCED_FACE ( 'NONE', ( #1078, #527 ), #208, .T. ) ;
#455 = CIRCLE ( 'NONE', #774, 6.000000000000005329 ) ;
#456 = EDGE_LOOP ( 'NONE', ( #760, #1177 ) ) ;
#458 = CIRCLE ( 'NONE', #823, 5.999999999999998224 ) ;
#457 = CARTESIAN_POINT ( 'NONE',  ( -34.28948280075835697, -8.000000000000000000, -28.78294889159275272 ) ) ;
#459 = AXIS2_PLACEMENT_3D ( 'NONE', #775, #1081, #326 ) ;
#460 = VECTOR ( 'NONE', #450, 1000.000000000000000 ) ;
#461 = ORIENTED_EDGE ( 'NONE', *, *, #30, .T. ) ;
#462 = DIRECTION ( 'NONE',  ( 0.0000000000000000000, 0.0000000000000000000, 1.000000000000000000 ) ) ;
#463 = EDGE_CURVE ( 'NONE', #22, #220, #693, .T. ) ;
#464 = ORIENTED_EDGE ( 'NONE', *, *, #59, .T. ) ;
#465 = DIRECTION ( 'NONE',  ( -0.0000000000000000000, 1.000000000000000000, -0.0000000000000000000 ) ) ;
#466 = FACE_OUTER_BOUND ( 'NONE', #278, .T. ) ;
#467 = FACE_OUTER_BOUND ( 'NONE', #695, .T. ) ;
#468 = CARTESIAN_POINT ( 'NONE',  ( -109.4999999999999716, -44.44923544618522726, -39.99999999999999289 ) ) ;
#469 = VERTEX_POINT ( 'NONE', #799 ) ;
#470 = CARTESIAN_POINT ( 'NONE',  ( -107.4999999999999716, 3.000000000000000000, -38.00000000000000000 ) ) ;
#471 = EDGE_CURVE ( 'NONE', #499, #879, #708, .T. ) ;
#472 = ORIENTED_EDGE ( 'NONE', *, *, #942, .F. ) ;
#473 = DIRECTION ( 'NONE',  ( 0.0000000000000000000, 0.0000000000000000000, 1.000000000000000000 ) ) ;
#474 = FACE_OUTER_BOUND ( 'NONE', #939, .T. ) ;
#475 = ORIENTED_EDGE ( 'NONE', *, *, #1087, .T. ) ;
#476 = EDGE_LOOP ( 'NONE', ( #966, #244, #381, #577 ) ) ;
#477 = CARTESIAN_POINT ( 'NONE',  ( 45.16752562030923457, 0.0000000000000000000, -34.78294889159275982 ) ) ;
#478 = VECTOR ( 'NONE', #94, 1000.000000000000000 ) ;
#479 = EDGE_CURVE ( 'NONE', #371, #511, #203, .T. ) ;
#480 = CARTESIAN_POINT ( 'NONE',  ( -111.4999999999999716, 5.550764553814790503, 40.00000000000000000 ) ) ;
#481 = CARTESIAN_POINT ( 'NONE',  ( -109.4999999999999716, 5.550764553814790503, 40.00000000000000000 ) ) ;
#482 = CIRCLE ( 'NONE', #884, 6.000000000000005329 ) ;
#483 = AXIS2_PLACEMENT_3D ( 'NONE', #667, #1228, #742 ) ;
#484 = DIRECTION ( 'NONE',  ( 0.0000000000000000000, 0.0000000000000000000, 1.000000000000000000 ) ) ;
#485 = EDGE_LOOP ( 'NONE', ( #714, #563 ) ) ;
#486 = DIRECTION ( 'NONE',  ( 1.000000000000000000, 0.0000000000000000000, 0.0000000000000000000 ) ) ;
#487 = CARTESIAN_POINT ( 'NONE',  ( -107.4999999999999716, 5.000000000000000000, 38.00000000000000000 ) ) ;
#488 = DIRECTION ( 'NONE',  ( 0.0000000000000000000, -1.000000000000000000, 0.0000000000000000000 ) ) ;
#489 = SURFACE_STYLE_FILL_AREA ( #95 ) ;
#490 = EDGE_CURVE ( 'NONE', #992, #1028, #482, .T. ) ;
#491 = EDGE_LOOP ( 'NONE', ( #605, #965, #312, #1233 ) ) ;
#492 = ORIENTED_EDGE ( 'NONE', *, *, #119, .T. ) ;
#493 = DIRECTION ( 'NONE',  ( 0.0000000000000000000, -1.000000000000000000, 0.0000000000000000000 ) ) ;
#494 = DIRECTION ( 'NONE',  ( 0.0000000000000000000, -1.000000000000000000, 0.0000000000000000000 ) ) ;
#495 = DIRECTION ( 'NONE',  ( 0.0000000000000000000, 0.0000000000000000000, -1.000000000000000000 ) ) ;
#496 = CARTESIAN_POINT ( 'NONE',  ( -34.28948280075836408, -8.000000000000000000, -2.004275931565628444 ) ) ;
#497 = ORIENTED_EDGE ( 'NONE', *, *, #1161, .F. ) ;
#498 = EDGE_CURVE ( 'NONE', #682, #427, #1005, .T. ) ;
#499 = VERTEX_POINT ( 'NONE', #115 ) ;
#500 = LINE ( 'NONE', #987, #559 ) ;
#501 = LINE ( 'NONE', #11, #152 ) ;
#502 = CARTESIAN_POINT ( 'NONE',  ( -34.28948280075835697, -8.000000000000000000, -28.78294889159275272 ) ) ;
#503 = AXIS2_PLACEMENT_3D ( 'NONE', #683, #666, #979 ) ;
#504 = FACE_OUTER_BOUND ( 'NONE', #867, .T. ) ;
#505 = VECTOR ( 'NONE', #292, 1000.000000000000000 ) ;
#506 = ORIENTED_EDGE ( 'NONE', *, *, #151, .F. ) ;
#507 = DIRECTION ( 'NONE',  ( 0.0000000000000000000, 0.0000000000000000000, 1.000000000000000000 ) ) ;
#508 = DIRECTION ( 'NONE',  ( 0.0000000000000000000, 0.0000000000000000000, -1.000000000000000000 ) ) ;
#509 = DIRECTION ( 'NONE',  ( 0.0000000000000000000, 0.0000000000000000000, 1.000000000000000000 ) ) ;
#510 = DIRECTION ( 'NONE',  ( 0.0000000000000000000, 0.0000000000000000000, 1.000000000000000000 ) ) ;
#511 = VERTEX_POINT ( 'NONE', #1164 ) ;
#512 = VERTEX_POINT ( 'NONE', #1073 ) ;
#513 = DIRECTION ( 'NONE',  ( 0.0000000000000000000, -1.000000000000000000, 0.0000000000000000000 ) ) ;
#514 = ADVANCED_FACE ( 'NONE', ( #9 ), #29, .T. ) ;
#515 = DIRECTION ( 'NONE',  ( 0.0000000000000000000, -1.000000000000000000, 0.0000000000000000000 ) ) ;
#516 = CARTESIAN_POINT ( 'NONE',  ( 45.16752562030923457, 0.0000000000000000000, -28.78294889159275272 ) ) ;
#517 = ORIENTED_EDGE ( 'NONE', *, *, #223, .T. ) ;
#518 = EDGE_LOOP ( 'NONE', ( #1088, #232, #16, #927 ) ) ;
#519 = DIRECTION ( 'NONE',  ( 0.0000000000000000000, 0.0000000000000000000, 1.000000000000000000 ) ) ;
#520 = EDGE_CURVE ( 'NONE', #594, #43, #458, .T. ) ;
#521 = DIRECTION ( 'NONE',  ( 0.0000000000000000000, -1.000000000000000000, 0.0000000000000000000 ) ) ;
#522 = AXIS2_PLACEMENT_3D ( 'NONE', #948, #285, #850 ) ;
#523 = ORIENTED_EDGE ( 'NONE', *, *, #1222, .T. ) ;
#524 = VECTOR ( 'NONE', #134, 1000.000000000000000 ) ;
#525 = ORIENTED_EDGE ( 'NONE', *, *, #1030, .F. ) ;
#526 = DIRECTION ( 'NONE',  ( 0.0000000000000000000, 0.0000000000000000000, -1.000000000000000000 ) ) ;
#527 = FACE_BOUND ( 'NONE', #744, .T. ) ;
#528 = EDGE_LOOP ( 'NONE', ( #782, #288, #986, #187, #991, #306, #1171, #621 ) ) ;
#529 = EDGE_CURVE ( 'NONE', #1221, #170, #680, .T. ) ;
#530 = ORIENTED_EDGE ( 'NONE', *, *, #144, .T. ) ;
#531 = DIRECTION ( 'NONE',  ( -0.0000000000000000000, -1.000000000000000000, -0.0000000000000000000 ) ) ;
#532 = DIRECTION ( 'NONE',  ( 0.0000000000000000000, 0.0000000000000000000, 1.000000000000000000 ) ) ;
#533 = PLANE ( 'NONE',  #859 ) ;
#534 = EDGE_LOOP ( 'NONE', ( #497, #1008, #131, #447 ) ) ;
#535 = EDGE_CURVE ( 'NONE', #167, #1158, #1201, .T. ) ;
#536 = ORIENTED_EDGE ( 'NONE', *, *, #365, .F. ) ;
#537 = LINE ( 'NONE', #1100, #598 ) ;
#538 = DIRECTION ( 'NONE',  ( -1.000000000000000000, 0.0000000000000000000, -0.0000000000000000000 ) ) ;
#539 = CARTESIAN_POINT ( 'NONE',  ( -107.4999999999999716, 5.000000000000000000, 38.00000000000000000 ) ) ;
#540 = LINE ( 'NONE', #1032, #615 ) ;
#541 = EDGE_LOOP ( 'NONE', ( #1236, #433 ) ) ;
#542 = DIRECTION ( 'NONE',  ( -0.0000000000000000000, -1.000000000000000000, -0.0000000000000000000 ) ) ;
#543 = AXIS2_PLACEMENT_3D ( 'NONE', #589, #767, #1132 ) ;
#544 = ADVANCED_FACE ( 'NONE', ( #504 ), #14, .T. ) ;
#545 = LINE ( 'NONE', #432, #1121 ) ;
#546 = VERTEX_POINT ( 'NONE', #218 ) ;
#547 = DIRECTION ( 'NONE',  ( 0.0000000000000000000, -0.0000000000000000000, -1.000000000000000000 ) ) ;
#548 = VERTEX_POINT ( 'NONE', #887 ) ;
#549 = ORIENTED_EDGE ( 'NONE', *, *, #428, .T. ) ;
#550 = CARTESIAN_POINT ( 'NONE',  ( 45.16752562030923457, -8.000000000000000000, -28.78294889159275272 ) ) ;
#551 = EDGE_CURVE ( 'NONE', #226, #682, #838, .T. ) ;
#552 = AXIS2_PLACEMENT_3D ( 'NONE', #969, #488, #1245 ) ;
#553 = ORIENTED_EDGE ( 'NONE', *, *, #581, .F. ) ;
#554 = AXIS2_PLACEMENT_3D ( 'NONE', #550, #274, #70 ) ;
#555 = VECTOR ( 'NONE', #314, 1000.000000000000000 ) ;
#556 = AXIS2_PLACEMENT_3D ( 'NONE', #425, #975, #308 ) ;
#558 = VECTOR ( 'NONE', #562, 1000.000000000000000 ) ;
#557 = PLANE ( 'NONE',  #325 ) ;
#559 = VECTOR ( 'NONE', #684, 1000.000000000000000 ) ;
#560 = ORIENTED_EDGE ( 'NONE', *, *, #181, .T. ) ;
#561 = FACE_OUTER_BOUND ( 'NONE', #518, .T. ) ;
#562 = DIRECTION ( 'NONE',  ( 0.0000000000000000000, 0.0000000000000000000, -1.000000000000000000 ) ) ;
#563 = ORIENTED_EDGE ( 'NONE', *, *, #716, .F. ) ;
#564 = DIRECTION ( 'NONE',  ( 1.000000000000000000, -0.0000000000000000000, 0.0000000000000000000 ) ) ;
#565 = EDGE_LOOP ( 'NONE', ( #364, #1115, #585, #612 ) ) ;
#566 = CARTESIAN_POINT ( 'NONE',  ( 45.16752562030922746, 0.0000000000000000000, -2.004275931565628444 ) ) ;
#567 = DIRECTION ( 'NONE',  ( -0.0000000000000000000, 1.000000000000000000, -0.0000000000000000000 ) ) ;
#568 = ORIENTED_EDGE ( 'NONE', *, *, #907, .T. ) ;
#569 = EDGE_CURVE ( 'NONE', #689, #2, #724, .T. ) ;
#570 = DIRECTION ( 'NONE',  ( 0.0000000000000000000, 0.0000000000000000000, 1.000000000000000000 ) ) ;
#571 = EDGE_CURVE ( 'NONE', #43, #594, #697, .T. ) ;
#572 = PLANE ( 'NONE',  #399 ) ;
#573 = FACE_OUTER_BOUND ( 'NONE', #440, .T. ) ;
#574 = DIRECTION ( 'NONE',  ( -0.0000000000000000000, 1.000000000000000000, -0.0000000000000000000 ) ) ;
#575 = ORIENTED_EDGE ( 'NONE', *, *, #784, .F. ) ;
#576 = CIRCLE ( 'NONE', #23, 2.000000000000001776 ) ;
#577 = ORIENTED_EDGE ( 'NONE', *, *, #354, .F. ) ;
#578 = DIRECTION ( 'NONE',  ( 0.0000000000000000000, 0.0000000000000000000, -1.000000000000000000 ) ) ;
#579 = CARTESIAN_POINT ( 'NONE',  ( 45.16752562030923457, -8.000000000000000000, -26.78294889159275272 ) ) ;
#580 = AXIS2_PLACEMENT_3D ( 'NONE', #290, #1034, #863 ) ;
#581 = EDGE_CURVE ( 'NONE', #974, #627, #635, .T. ) ;
#582 = LINE ( 'NONE', #481, #1102 ) ;
#583 = AXIS2_PLACEMENT_3D ( 'NONE', #1015, #993, #538 ) ;
#584 = FILL_AREA_STYLE_COLOUR ( '', #379 ) ;
#585 = ORIENTED_EDGE ( 'NONE', *, *, #1113, .F. ) ;
#586 = PLANE ( 'NONE',  #420 ) ;
#587 = CARTESIAN_POINT ( 'NONE',  ( 45.16752562030923457, -8.000000000000000000, -28.78294889159275272 ) ) ;
#588 = ADVANCED_FACE ( 'NONE', ( #1213 ), #1194, .T. ) ;
#589 = CARTESIAN_POINT ( 'NONE',  ( 0.0000000000000000000, 1.000000000000000000, 0.0000000000000000000 ) ) ;
#590 = VERTEX_POINT ( 'NONE', #147 ) ;
#591 = ORIENTED_EDGE ( 'NONE', *, *, #119, .F. ) ;
#592 = LINE ( 'NONE', #415, #318 ) ;
#593 = DIRECTION ( 'NONE',  ( -0.0000000000000000000, 1.000000000000000000, -0.0000000000000000000 ) ) ;
#594 = VERTEX_POINT ( 'NONE', #446 ) ;
#595 = EDGE_CURVE ( 'NONE', #66, #824, #106, .T. ) ;
#596 = DIRECTION ( 'NONE',  ( -0.0000000000000000000, 1.000000000000000000, -0.0000000000000000000 ) ) ;
#597 = DIRECTION ( 'NONE',  ( 1.000000000000000000, 0.0000000000000000000, 0.0000000000000000000 ) ) ;
#598 = VECTOR ( 'NONE', #236, 1000.000000000000000 ) ;
#599 = AXIS2_PLACEMENT_3D ( 'NONE', #878, #287, #852 ) ;
#600 = ORIENTED_EDGE ( 'NONE', *, *, #388, .T. ) ;
#601 = EDGE_LOOP ( 'NONE', ( #650, #55, #1214, #311 ) ) ;
#602 = LINE ( 'NONE', #579, #740 ) ;
#603 = CARTESIAN_POINT ( 'NONE',  ( 109.5000000000000284, 3.000000000000000000, -40.00000000000000000 ) ) ;
#604 = DIRECTION ( 'NONE',  ( 0.0000000000000000000, -1.000000000000000000, 0.0000000000000000000 ) ) ;
#605 = ORIENTED_EDGE ( 'NONE', *, *, #151, .T. ) ;
#606 = ORIENTED_EDGE ( 'NONE', *, *, #1056, .T. ) ;
#607 = PLANE ( 'NONE',  #583 ) ;
#608 = EDGE_CURVE ( 'NONE', #499, #469, #540, .T. ) ;
#609 = CARTESIAN_POINT ( 'NONE',  ( 45.16752562030923457, -8.000000000000000000, -30.78294889159275627 ) ) ;
#610 = ADVANCED_FACE ( 'NONE', ( #166, #1023 ), #932, .T. ) ;
#611 =( LENGTH_UNIT ( ) NAMED_UNIT ( * ) SI_UNIT ( .MILLI., .METRE. ) );
#612 = ORIENTED_EDGE ( 'NONE', *, *, #403, .T. ) ;
#613 = ORIENTED_EDGE ( 'NONE', *, *, #1185, .T. ) ;
#614 = CYLINDRICAL_SURFACE ( 'NONE', #172, 2.000000000000001776 ) ;
#615 = VECTOR ( 'NONE', #631, 1000.000000000000000 ) ;
#616 = EDGE_CURVE ( 'NONE', #348, #546, #1123, .T. ) ;
#617 = DIRECTION ( 'NONE',  ( -1.000000000000000000, -0.0000000000000000000, 0.0000000000000000000 ) ) ;
#618 = AXIS2_PLACEMENT_3D ( 'NONE', #246, #706, #423 ) ;
#619 = ORIENTED_EDGE ( 'NONE', *, *, #643, .T. ) ;
#620 =( GEOMETRIC_REPRESENTATION_CONTEXT ( 3 ) GLOBAL_UNCERTAINTY_ASSIGNED_CONTEXT ( ( #256 ) ) GLOBAL_UNIT_ASSIGNED_CONTEXT ( ( #1167, #112, #726 ) ) REPRESENTATION_CONTEXT ( 'NONE', 'WORKASPACE' ) );
#621 = ORIENTED_EDGE ( 'NONE', *, *, #616, .T. ) ;
#622 = DIRECTION ( 'NONE',  ( 0.0000000000000000000, 0.0000000000000000000, -1.000000000000000000 ) ) ;
#623 = FACE_OUTER_BOUND ( 'NONE', #293, .T. ) ;
#624 = CARTESIAN_POINT ( 'NONE',  ( -109.4999999999999716, 3.000000000000000000, -40.00000000000000000 ) ) ;
#625 = DIRECTION ( 'NONE',  ( -0.0000000000000000000, -0.0000000000000000000, 1.000000000000000000 ) ) ;
#626 = EDGE_CURVE ( 'NONE', #879, #371, #1203, .T. ) ;
#627 = VERTEX_POINT ( 'NONE', #924 ) ;
#628 = ORIENTED_EDGE ( 'NONE', *, *, #626, .F. ) ;
#629 = CARTESIAN_POINT ( 'NONE',  ( 45.16752562030922746, -8.000000000000000000, -0.004275931565625185754 ) ) ;
#630 = FACE_OUTER_BOUND ( 'NONE', #42, .T. ) ;
#631 = DIRECTION ( 'NONE',  ( 0.0000000000000000000, 1.000000000000000000, 0.0000000000000000000 ) ) ;
#632 = ORIENTED_EDGE ( 'NONE', *, *, #158, .F. ) ;
#633 = ORIENTED_EDGE ( 'NONE', *, *, #581, .T. ) ;
#634 = CARTESIAN_POINT ( 'NONE',  ( -109.4999999999999716, 5.550764553814790503, 40.00000000000000000 ) ) ;
#635 = LINE ( 'NONE', #50, #821 ) ;
#636 = ORIENTED_EDGE ( 'NONE', *, *, #752, .F. ) ;
#637 = AXIS2_PLACEMENT_3D ( 'NONE', #885, #8, #807 ) ;
#638 = AXIS2_PLACEMENT_3D ( 'NONE', #670, #574, #1154 ) ;
#639 = CARTESIAN_POINT ( 'NONE',  ( 45.16752562030922746, 0.0000000000000000000, -2.004275931565628444 ) ) ;
#640 = CARTESIAN_POINT ( 'NONE',  ( -107.4999999999999716, 3.000000000000000000, -38.00000000000000000 ) ) ;
#641 = CARTESIAN_POINT ( 'NONE',  ( 45.16752562030923457, -8.000000000000000000, -28.78294889159275272 ) ) ;
#642 = ORIENTED_EDGE ( 'NONE', *, *, #32, .F. ) ;
#643 = EDGE_CURVE ( 'NONE', #370, #1007, #545, .T. ) ;
#644 = CARTESIAN_POINT ( 'NONE',  ( 0.0000000000000000000, 0.0000000000000000000, 0.0000000000000000000 ) ) ;
#645 = VERTEX_POINT ( 'NONE', #731 ) ;
#646 = CARTESIAN_POINT ( 'NONE',  ( 45.16752562030923457, -8.000000000000000000, -30.78294889159275627 ) ) ;
#647 = ORIENTED_EDGE ( 'NONE', *, *, #1253, .F. ) ;
#648 = CARTESIAN_POINT ( 'NONE',  ( -107.4999999999999716, 5.000000000000000000, 38.00000000000000000 ) ) ;
#649 = CARTESIAN_POINT ( 'NONE',  ( 107.5000000000000284, 5.000000000000000000, 38.00000000000000000 ) ) ;
#650 = ORIENTED_EDGE ( 'NONE', *, *, #1087, .F. ) ;
#651 = CIRCLE ( 'NONE', #108, 2.000000000000001776 ) ;
#652 = AXIS2_PLACEMENT_3D ( 'NONE', #409, #995, #791 ) ;
#654 = AXIS2_PLACEMENT_3D ( 'NONE', #496, #762, #1144 ) ;
#653 = FACE_OUTER_BOUND ( 'NONE', #1241, .T. ) ;
#655 = ORIENTED_EDGE ( 'NONE', *, *, #498, .F. ) ;
#656 = CARTESIAN_POINT ( 'NONE',  ( -111.4999999999999716, 5.550764553814779845, -40.00000000000000000 ) ) ;
#657 = CARTESIAN_POINT ( 'NONE',  ( -107.4999999999999716, 5.000000000000000000, -38.00000000000000000 ) ) ;
#658 = ADVANCED_FACE ( 'NONE', ( #266 ), #347, .T. ) ;
#659 = ORIENTED_EDGE ( 'NONE', *, *, #865, .F. ) ;
#660 = DIRECTION ( 'NONE',  ( 0.0000000000000000000, 0.0000000000000000000, -1.000000000000000000 ) ) ;
#661 = CARTESIAN_POINT ( 'NONE',  ( 107.5000000000000284, 0.0000000000000000000, -38.00000000000000000 ) ) ;
#662 = CARTESIAN_POINT ( 'NONE',  ( -34.28948280075836408, -8.000000000000000000, -8.004275931565626223 ) ) ;
#663 = LINE ( 'NONE', #949, #1178 ) ;
#664 = DIRECTION ( 'NONE',  ( 1.000000000000000000, -0.0000000000000000000, -0.0000000000000000000 ) ) ;
#665 = EDGE_LOOP ( 'NONE', ( #619, #671, #438, #1230 ) ) ;
#666 = DIRECTION ( 'NONE',  ( 0.0000000000000000000, -1.000000000000000000, 0.0000000000000000000 ) ) ;
#667 = CARTESIAN_POINT ( 'NONE',  ( 0.0000000000000000000, 0.0000000000000000000, 0.0000000000000000000 ) ) ;
#668 = CARTESIAN_POINT ( 'NONE',  ( -34.28948280075835697, 0.0000000000000000000, -34.78294889159275272 ) ) ;
#669 = DIRECTION ( 'NONE',  ( -0.0000000000000000000, 1.000000000000000000, -0.0000000000000000000 ) ) ;
#670 = CARTESIAN_POINT ( 'NONE',  ( 45.16752562030923457, 0.0000000000000000000, -28.78294889159275272 ) ) ;
#671 = ORIENTED_EDGE ( 'NONE', *, *, #1145, .T. ) ;
#672 = VECTOR ( 'NONE', #356, 1000.000000000000000 ) ;
#673 = SURFACE_STYLE_USAGE ( .BOTH. , #102 ) ;
#674 = AXIS2_PLACEMENT_3D ( 'NONE', #587, #197, #509 ) ;
#675 = AXIS2_PLACEMENT_3D ( 'NONE', #855, #1057, #1135 ) ;
#676 = EDGE_CURVE ( 'NONE', #1129, #1007, #363, .T. ) ;
#677 = AXIS2_PLACEMENT_3D ( 'NONE', #1193, #526, #1095 ) ;
#678 = FACE_OUTER_BOUND ( 'NONE', #476, .T. ) ;
#679 = VECTOR ( 'NONE', #486, 1000.000000000000000 ) ;
#680 = CIRCLE ( 'NONE', #1039, 2.000000000000003553 ) ;
#681 = LINE ( 'NONE', #385, #48 ) ;
#682 = VERTEX_POINT ( 'NONE', #814 ) ;
#683 = CARTESIAN_POINT ( 'NONE',  ( -34.28948280075836408, -8.000000000000000000, -2.004275931565628444 ) ) ;
#684 = DIRECTION ( 'NONE',  ( -0.0000000000000000000, 1.000000000000000000, -0.0000000000000000000 ) ) ;
#685 = DIRECTION ( 'NONE',  ( 0.0000000000000000000, 0.0000000000000000000, -1.000000000000000000 ) ) ;
#686 = LINE ( 'NONE', #609, #737 ) ;
#687 = DIRECTION ( 'NONE',  ( 0.0000000000000000000, 0.0000000000000000000, -1.000000000000000000 ) ) ;
#688 = ORIENTED_EDGE ( 'NONE', *, *, #65, .F. ) ;
#689 = VERTEX_POINT ( 'NONE', #1209 ) ;
#690 =( NAMED_UNIT ( * ) SI_UNIT ( $, .STERADIAN. ) SOLID_ANGLE_UNIT ( ) );
#691 = CYLINDRICAL_SURFACE ( 'NONE', #1, 2.000000000000003109 ) ;
#692 = FACE_OUTER_BOUND ( 'NONE', #1206, .T. ) ;
#693 = LINE ( 'NONE', #411, #1063 ) ;
#694 = EDGE_CURVE ( 'NONE', #830, #343, #161, .T. ) ;
#695 = EDGE_LOOP ( 'NONE', ( #72, #733, #1166, #655 ) ) ;
#696 = CARTESIAN_POINT ( 'NONE',  ( 45.16752562030923457, -8.000000000000000000, -28.78294889159275272 ) ) ;
#697 = CIRCLE ( 'NONE', #150, 5.999999999999998224 ) ;
#698 = CARTESIAN_POINT ( 'NONE',  ( -111.4999999999999716, 5.550764553814779845, -40.00000000000000000 ) ) ;
#699 = LINE ( 'NONE', #202, #980 ) ;
#700 = CARTESIAN_POINT ( 'NONE',  ( 107.5000000000000284, 0.0000000000000000000, 38.00000000000000000 ) ) ;
#701 = CIRCLE ( 'NONE', #362, 5.999999999999998224 ) ;
#702 = AXIS2_PLACEMENT_3D ( 'NONE', #1042, #745, #947 ) ;
#703 = ORIENTED_EDGE ( 'NONE', *, *, #144, .F. ) ;
#704 = EDGE_CURVE ( 'NONE', #739, #872, #937, .T. ) ;
#705 = ORIENTED_EDGE ( 'NONE', *, *, #968, .T. ) ;
#706 = DIRECTION ( 'NONE',  ( -0.0000000000000000000, 1.000000000000000000, -0.0000000000000000000 ) ) ;
#707 = CARTESIAN_POINT ( 'NONE',  ( -109.4999999999999716, 1.000000000000000000, -40.00000000000000000 ) ) ;
#708 = LINE ( 'NONE', #335, #1024 ) ;
#709 = ORIENTED_EDGE ( 'NONE', *, *, #188, .T. ) ;
#710 = ORIENTED_EDGE ( 'NONE', *, *, #1066, .T. ) ;
#711 = LINE ( 'NONE', #928, #400 ) ;
#712 = DIRECTION ( 'NONE',  ( -0.0000000000000000000, 1.000000000000000000, -0.0000000000000000000 ) ) ;
#713 = DIRECTION ( 'NONE',  ( 0.0000000000000000000, 0.0000000000000000000, -1.000000000000000000 ) ) ;
#714 = ORIENTED_EDGE ( 'NONE', *, *, #12, .F. ) ;
#715 = EDGE_LOOP ( 'NONE', ( #940, #180 ) ) ;
#716 = EDGE_CURVE ( 'NONE', #811, #235, #923, .T. ) ;
#717 = DIRECTION ( 'NONE',  ( 0.0000000000000000000, 1.000000000000000000, 0.0000000000000000000 ) ) ;
#718 = AXIS2_PLACEMENT_3D ( 'NONE', #1048, #283, #262 ) ;
#719 = CIRCLE ( 'NONE', #154, 2.000000000000003553 ) ;
#720 = ORIENTED_EDGE ( 'NONE', *, *, #776, .T. ) ;
#721 = ORIENTED_EDGE ( 'NONE', *, *, #694, .F. ) ;
#722 = FACE_OUTER_BOUND ( 'NONE', #434, .T. ) ;
#723 = DIRECTION ( 'NONE',  ( 1.000000000000000000, 0.0000000000000000000, 0.0000000000000000000 ) ) ;
#724 = LINE ( 'NONE', #1112, #672 ) ;
#725 = ORIENTED_EDGE ( 'NONE', *, *, #403, .F. ) ;
#726 =( NAMED_UNIT ( * ) SI_UNIT ( $, .STERADIAN. ) SOLID_ANGLE_UNIT ( ) );
#727 = EDGE_LOOP ( 'NONE', ( #259, #976 ) ) ;
#728 = PLANE ( 'NONE',  #759 ) ;
#729 = FACE_OUTER_BOUND ( 'NONE', #1142, .T. ) ;
#730 = CARTESIAN_POINT ( 'NONE',  ( 45.16752562030923457, -8.000000000000000000, -28.78294889159275272 ) ) ;
#731 = CARTESIAN_POINT ( 'NONE',  ( -34.28948280075835697, -8.000000000000000000, -34.78294889159275272 ) ) ;
#732 = ADVANCED_FACE ( 'NONE', ( #1012 ), #533, .F. ) ;
#733 = ORIENTED_EDGE ( 'NONE', *, *, #65, .T. ) ;
#734 = PLANE ( 'NONE',  #718 ) ;
#735 = CARTESIAN_POINT ( 'NONE',  ( 45.16752562030923457, -8.000000000000000000, -34.78294889159275982 ) ) ;
#736 = CARTESIAN_POINT ( 'NONE',  ( -34.28948280075836408, -8.000000000000000000, -2.004275931565628444 ) ) ;
#737 = VECTOR ( 'NONE', #28, 1000.000000000000000 ) ;
#738 = EDGE_CURVE ( 'NONE', #170, #1221, #317, .T. ) ;
#739 = VERTEX_POINT ( 'NONE', #64 ) ;
#740 = VECTOR ( 'NONE', #875, 1000.000000000000000 ) ;
#741 = VECTOR ( 'NONE', #333, 1000.000000000000000 ) ;
#742 = DIRECTION ( 'NONE',  ( 0.0000000000000000000, -0.0000000000000000000, -1.000000000000000000 ) ) ;
#743 = DIRECTION ( 'NONE',  ( 0.0000000000000000000, -1.000000000000000000, 0.0000000000000000000 ) ) ;
#744 = EDGE_LOOP ( 'NONE', ( #271, #632 ) ) ;
#745 = DIRECTION ( 'NONE',  ( -0.0000000000000000000, 1.000000000000000000, -0.0000000000000000000 ) ) ;
#746 = EDGE_CURVE ( 'NONE', #512, #1150, #663, .T. ) ;
#747 = VERTEX_POINT ( 'NONE', #390 ) ;
#748 = DIRECTION ( 'NONE',  ( 1.000000000000000000, 0.0000000000000000000, 0.0000000000000000000 ) ) ;
#749 = DIRECTION ( 'NONE',  ( -1.000000000000000000, -0.0000000000000000000, -0.0000000000000000000 ) ) ;
#750 = EDGE_LOOP ( 'NONE', ( #422, #633, #523, #117 ) ) ;
#751 = CARTESIAN_POINT ( 'NONE',  ( -34.28948280075836408, -8.000000000000000000, -4.004275931565631552 ) ) ;
#752 = EDGE_CURVE ( 'NONE', #879, #764, #185, .T. ) ;
#753 = FACE_OUTER_BOUND ( 'NONE', #750, .T. ) ;
#754 = PLANE ( 'NONE',  #552 ) ;
#755 = CARTESIAN_POINT ( 'NONE',  ( 107.5000000000000284, 5.000000000000000000, 38.00000000000000000 ) ) ;
#756 = ORIENTED_EDGE ( 'NONE', *, *, #174, .T. ) ;
#757 = VECTOR ( 'NONE', #958, 1000.000000000000000 ) ;
#758 = VECTOR ( 'NONE', #159, 1000.000000000000000 ) ;
#759 = AXIS2_PLACEMENT_3D ( 'NONE', #826, #817, #138 ) ;
#760 = ORIENTED_EDGE ( 'NONE', *, *, #897, .T. ) ;
#761 = DIRECTION ( 'NONE',  ( 1.000000000000000000, 0.0000000000000000000, 0.0000000000000000000 ) ) ;
#762 = DIRECTION ( 'NONE',  ( -0.0000000000000000000, 1.000000000000000000, -0.0000000000000000000 ) ) ;
#763 = ADVANCED_FACE ( 'NONE', ( #573 ), #279, .F. ) ;
#764 = VERTEX_POINT ( 'NONE', #1044 ) ;
#765 = DIRECTION ( 'NONE',  ( 0.0000000000000000000, -1.301042606982605321E-16, -1.000000000000000000 ) ) ;
#766 = CARTESIAN_POINT ( 'NONE',  ( 45.16752562030922746, -8.000000000000000000, -2.004275931565628444 ) ) ;
#767 = DIRECTION ( 'NONE',  ( -0.0000000000000000000, 1.000000000000000000, 0.0000000000000000000 ) ) ;
#768 = UNCERTAINTY_MEASURE_WITH_UNIT (LENGTH_MEASURE( 1.000000000000000082E-05 ), #1249, 'distance_accuracy_value', 'NONE');
#769 = ORIENTED_EDGE ( 'NONE', *, *, #1030, .T. ) ;
#770 = FACE_OUTER_BOUND ( 'NONE', #665, .T. ) ;
#771 = DIRECTION ( 'NONE',  ( 0.0000000000000000000, 0.0000000000000000000, -1.000000000000000000 ) ) ;
#772 = ORIENTED_EDGE ( 'NONE', *, *, #873, .F. ) ;
#773 = ADVANCED_FACE ( 'NONE', ( #467 ), #864, .F. ) ;
#774 = AXIS2_PLACEMENT_3D ( 'NONE', #856, #851, #1231 ) ;
#775 = CARTESIAN_POINT ( 'NONE',  ( -34.28948280075835697, 0.0000000000000000000, -28.78294889159275272 ) ) ;
#776 = EDGE_CURVE ( 'NONE', #747, #627, #576, .T. ) ;
#777 = VECTOR ( 'NONE', #1071, 1000.000000000000000 ) ;
#778 = VECTOR ( 'NONE', #531, 1000.000000000000000 ) ;
#779 = DIRECTION ( 'NONE',  ( 0.0000000000000000000, 0.0000000000000000000, -1.000000000000000000 ) ) ;
#780 = AXIS2_PLACEMENT_3D ( 'NONE', #730, #254, #1021 ) ;
#781 = CARTESIAN_POINT ( 'NONE',  ( 107.5000000000000284, 5.000000000000000000, 38.00000000000000000 ) ) ;
#782 = ORIENTED_EDGE ( 'NONE', *, *, #1220, .F. ) ;
#783 = DIRECTION ( 'NONE',  ( -0.0000000000000000000, -1.000000000000000000, -0.0000000000000000000 ) ) ;
#784 = EDGE_CURVE ( 'NONE', #1028, #992, #455, .T. ) ;
#785 = LINE ( 'NONE', #603, #25 ) ;
#786 = CARTESIAN_POINT ( 'NONE',  ( -34.28948280075836408, -8.000000000000000000, -2.004275931565628444 ) ) ;
#787 = ORIENTED_EDGE ( 'NONE', *, *, #746, .T. ) ;
#788 = ORIENTED_EDGE ( 'NONE', *, *, #820, .F. ) ;
#789 = CARTESIAN_POINT ( 'NONE',  ( -109.4999999999999716, 3.000000000000000000, 40.00000000000000000 ) ) ;
#790 = LINE ( 'NONE', #1174, #555 ) ;
#791 = DIRECTION ( 'NONE',  ( 0.0000000000000000000, 0.0000000000000000000, -1.000000000000000000 ) ) ;
#792 = EDGE_CURVE ( 'NONE', #793, #1046, #233, .T. ) ;
#793 = VERTEX_POINT ( 'NONE', #85 ) ;
#794 = ORIENTED_EDGE ( 'NONE', *, *, #938, .F. ) ;
#795 = LINE ( 'NONE', #92, #1061 ) ;
#796 = AXIS2_PLACEMENT_3D ( 'NONE', #648, #190, #1143 ) ;
#797 = CARTESIAN_POINT ( 'NONE',  ( 45.16752562030922746, -8.000000000000000000, -2.004275931565628444 ) ) ;
#799 = CARTESIAN_POINT ( 'NONE',  ( 109.5000000000000284, 3.000000000000000000, -40.00000000000000000 ) ) ;
#798 = AXIS2_PLACEMENT_3D ( 'NONE', #935, #564, #81 ) ;
#800 = AXIS2_PLACEMENT_3D ( 'NONE', #24, #1020, #806 ) ;
#801 = VECTOR ( 'NONE', #723, 1000.000000000000000 ) ;
#802 = EDGE_LOOP ( 'NONE', ( #1050, #1019 ) ) ;
#803 = EDGE_CURVE ( 'NONE', #267, #512, #582, .T. ) ;
#804 = ORIENTED_EDGE ( 'NONE', *, *, #73, .T. ) ;
#805 = CARTESIAN_POINT ( 'NONE',  ( 45.16752562030922746, 0.0000000000000000000, -0.004275931565625185754 ) ) ;
#806 = DIRECTION ( 'NONE',  ( 0.0000000000000000000, 0.0000000000000000000, -1.000000000000000000 ) ) ;
#807 = DIRECTION ( 'NONE',  ( 0.0000000000000000000, 0.0000000000000000000, 1.000000000000000000 ) ) ;
#808 = DIRECTION ( 'NONE',  ( 0.0000000000000000000, -1.000000000000000000, 0.0000000000000000000 ) ) ;
#809 = VERTEX_POINT ( 'NONE', #298 ) ;
#810 = ADVANCED_FACE ( 'NONE', ( #561 ), #754, .F. ) ;
#811 = VERTEX_POINT ( 'NONE', #373 ) ;
#812 = LINE ( 'NONE', #221, #45 ) ;
#813 = FACE_OUTER_BOUND ( 'NONE', #1130, .T. ) ;
#814 = CARTESIAN_POINT ( 'NONE',  ( 107.5000000000000284, 1.000000000000000000, 38.00000000000000000 ) ) ;
#815 = EDGE_LOOP ( 'NONE', ( #525, #101, #124, #1146 ) ) ;
#816 = EDGE_LOOP ( 'NONE', ( #341, #853, #492, #1086 ) ) ;
#817 = DIRECTION ( 'NONE',  ( 0.0000000000000000000, -1.000000000000000000, 0.0000000000000000000 ) ) ;
#818 = ADVANCED_FACE ( 'NONE', ( #678 ), #1131, .F. ) ;
#819 = LINE ( 'NONE', #1200, #1242 ) ;
#820 = EDGE_CURVE ( 'NONE', #845, #793, #368, .T. ) ;
#821 = VECTOR ( 'NONE', #155, 1000.000000000000000 ) ;
#822 = CARTESIAN_POINT ( 'NONE',  ( -107.4999999999999716, 5.000000000000000000, 38.00000000000000000 ) ) ;
#823 = AXIS2_PLACEMENT_3D ( 'NONE', #893, #122, #687 ) ;
#824 = VERTEX_POINT ( 'NONE', #869 ) ;
#825 = ORIENTED_EDGE ( 'NONE', *, *, #213, .F. ) ;
#826 = CARTESIAN_POINT ( 'NONE',  ( 45.16752562030922746, -8.000000000000000000, -2.004275931565628444 ) ) ;
#827 = CARTESIAN_POINT ( 'NONE',  ( -34.28948280075835697, -8.000000000000000000, -30.78294889159275627 ) ) ;
#828 = EDGE_CURVE ( 'NONE', #1074, #141, #210, .T. ) ;
#829 = CARTESIAN_POINT ( 'NONE',  ( 107.5000000000000284, 3.000000000000000000, 38.00000000000000000 ) ) ;
#830 = VERTEX_POINT ( 'NONE', #656 ) ;
#831 = PLANE ( 'NONE',  #677 ) ;
#832 = DIRECTION ( 'NONE',  ( -0.0000000000000000000, -1.000000000000000000, -0.0000000000000000000 ) ) ;
#833 = EDGE_CURVE ( 'NONE', #429, #689, #86, .T. ) ;
#834 = EDGE_CURVE ( 'NONE', #1114, #427, #1250, .T. ) ;
#835 = EDGE_LOOP ( 'NONE', ( #136, #957, #705, #177 ) ) ;
#836 = LINE ( 'NONE', #880, #757 ) ;
#837 = DIRECTION ( 'NONE',  ( 0.0000000000000000000, -1.000000000000000000, 0.0000000000000000000 ) ) ;
#838 = LINE ( 'NONE', #255, #301 ) ;
#839 = AXIS2_PLACEMENT_3D ( 'NONE', #983, #877, #495 ) ;
#840 = AXIS2_PLACEMENT_3D ( 'NONE', #7, #982, #98 ) ;
#841 = MECHANICAL_DESIGN_GEOMETRIC_PRESENTATION_REPRESENTATION (  '', ( #1082 ), #1240 ) ;
#842 = ORIENTED_EDGE ( 'NONE', *, *, #1047, .T. ) ;
#843 = EDGE_CURVE ( 'NONE', #645, #43, #291, .T. ) ;
#844 = COLOUR_RGB ( '',0.7921568627450980005, 0.8196078431372548767, 0.9333333333333333481 ) ;
#845 = VERTEX_POINT ( 'NONE', #405 ) ;
#846 = CARTESIAN_POINT ( 'NONE',  ( -109.4999999999999716, 1.000000000000000000, -40.00000000000000000 ) ) ;
#847 = EDGE_LOOP ( 'NONE', ( #642, #137, #15, #549 ) ) ;
#848 = EDGE_CURVE ( 'NONE', #739, #1033, #127, .T. ) ;
#849 = FACE_OUTER_BOUND ( 'NONE', #249, .T. ) ;
#850 = DIRECTION ( 'NONE',  ( 0.0000000000000000000, 0.0000000000000000000, -1.000000000000000000 ) ) ;
#851 = DIRECTION ( 'NONE',  ( 0.0000000000000000000, -1.000000000000000000, 0.0000000000000000000 ) ) ;
#852 = DIRECTION ( 'NONE',  ( 0.0000000000000000000, 0.0000000000000000000, -1.000000000000000000 ) ) ;
#853 = ORIENTED_EDGE ( 'NONE', *, *, #897, .F. ) ;
#854 = DIRECTION ( 'NONE',  ( -1.000000000000000000, -0.0000000000000000000, 0.0000000000000000000 ) ) ;
#855 = CARTESIAN_POINT ( 'NONE',  ( -34.28948280075835697, -8.000000000000000000, -28.78294889159275272 ) ) ;
#856 = CARTESIAN_POINT ( 'NONE',  ( 45.16752562030923457, -8.000000000000000000, -28.78294889159275272 ) ) ;
#857 = DIRECTION ( 'NONE',  ( -0.0000000000000000000, 1.000000000000000000, -0.0000000000000000000 ) ) ;
#858 = UNCERTAINTY_MEASURE_WITH_UNIT (LENGTH_MEASURE( 1.000000000000000082E-05 ), #611, 'distance_accuracy_value', 'NONE');
#859 = AXIS2_PLACEMENT_3D ( 'NONE', #822, #286, #771 ) ;
#860 = ORIENTED_EDGE ( 'NONE', *, *, #1145, .F. ) ;
#861 = VECTOR ( 'NONE', #13, 1000.000000000000000 ) ;
#862 = CARTESIAN_POINT ( 'NONE',  ( -109.4999999999999716, 3.000000000000000000, -40.00000000000000000 ) ) ;
#863 = DIRECTION ( 'NONE',  ( 0.0000000000000000000, -0.0000000000000000000, -1.000000000000000000 ) ) ;
#864 = PLANE ( 'NONE',  #796 ) ;
#865 = EDGE_CURVE ( 'NONE', #590, #974, #107, .T. ) ;
#866 = LINE ( 'NONE', #380, #558 ) ;
#867 = EDGE_LOOP ( 'NONE', ( #1093, #63 ) ) ;
#868 = LINE ( 'NONE', #1248, #211 ) ;
#869 = CARTESIAN_POINT ( 'NONE',  ( -34.28948280075836408, -8.000000000000000000, 3.995724068434370224 ) ) ;
#870 = SURFACE_SIDE_STYLE ('',( #489 ) ) ;
#871 = ADVANCED_FACE ( 'NONE', ( #104 ), #327, .F. ) ;
#872 = VERTEX_POINT ( 'NONE', #1257 ) ;
#873 = EDGE_CURVE ( 'NONE', #1151, #1129, #592, .T. ) ;
#874 = ORIENTED_EDGE ( 'NONE', *, *, #535, .T. ) ;
#875 = DIRECTION ( 'NONE',  ( -0.0000000000000000000, 1.000000000000000000, -0.0000000000000000000 ) ) ;
#876 = FACE_OUTER_BOUND ( 'NONE', #815, .T. ) ;
#877 = DIRECTION ( 'NONE',  ( 0.0000000000000000000, -1.000000000000000000, 0.0000000000000000000 ) ) ;
#878 = CARTESIAN_POINT ( 'NONE',  ( -34.28948280075836408, -8.000000000000000000, -2.004275931565628444 ) ) ;
#879 = VERTEX_POINT ( 'NONE', #707 ) ;
#880 = CARTESIAN_POINT ( 'NONE',  ( -111.4999999999999716, 5.550764553814790503, 40.00000000000000000 ) ) ;
#881 = ADVANCED_FACE ( 'NONE', ( #972 ), #1163, .F. ) ;
#882 = FILL_AREA_STYLE ('',( #313 ) ) ;
#883 = CLOSED_SHELL ( 'NONE', ( #20, #1127, #871, #658, #410, #929, #386, #514, #372, #952, #732, #773, #126, #353, #610, #272, #257, #1138, #810, #269, #289, #1229, #818, #454, #890, #84, #1096, #230, #198, #881, #5, #1235, #1120, #296, #588, #1072, #53, #309, #544, #67, #37, #261, #763, #994 ) ) ;
#884 = AXIS2_PLACEMENT_3D ( 'NONE', #316, #225, #1170 ) ;
#885 = CARTESIAN_POINT ( 'NONE',  ( 45.16752562030922746, -8.000000000000000000, -2.004275931565628444 ) ) ;
#886 = STYLED_ITEM ( 'NONE', ( #6 ), #449 ) ;
#887 = CARTESIAN_POINT ( 'NONE',  ( -34.28948280075836408, 0.0000000000000000000, -8.004275931565626223 ) ) ;
#888 = ORIENTED_EDGE ( 'NONE', *, *, #834, .F. ) ;
#889 =( NAMED_UNIT ( * ) PLANE_ANGLE_UNIT ( ) SI_UNIT ( $, .RADIAN. ) );
#890 = ADVANCED_FACE ( 'NONE', ( #305 ), #114, .T. ) ;
#891 = LINE ( 'NONE', #698, #439 ) ;
#892 = CARTESIAN_POINT ( 'NONE',  ( -34.28948280075836408, -8.000000000000000000, -2.004275931565628444 ) ) ;
#893 = CARTESIAN_POINT ( 'NONE',  ( -34.28948280075835697, 0.0000000000000000000, -28.78294889159275272 ) ) ;
#894 = ORIENTED_EDGE ( 'NONE', *, *, #843, .T. ) ;
#895 = APPLICATION_CONTEXT ( 'automotive_design' ) ;
#896 = ORIENTED_EDGE ( 'NONE', *, *, #121, .T. ) ;
#897 = EDGE_CURVE ( 'NONE', #1109, #645, #234, .T. ) ;
#898 = CARTESIAN_POINT ( 'NONE',  ( -109.4999999999999716, 1.000000000000000000, 40.00000000000000000 ) ) ;
#899 = EDGE_CURVE ( 'NONE', #2, #412, #238, .T. ) ;
#900 = ORIENTED_EDGE ( 'NONE', *, *, #828, .T. ) ;
#901 = ORIENTED_EDGE ( 'NONE', *, *, #135, .T. ) ;
#902 = DIRECTION ( 'NONE',  ( 0.0000000000000000000, 0.0000000000000000000, 1.000000000000000000 ) ) ;
#903 = DIRECTION ( 'NONE',  ( 0.0000000000000000000, 0.0000000000000000000, -1.000000000000000000 ) ) ;
#904 = PRODUCT_DEFINITION_SHAPE ( 'NONE', 'NONE',  #1036 ) ;
#906 = DIRECTION ( 'NONE',  ( -0.0000000000000000000, -1.000000000000000000, -0.0000000000000000000 ) ) ;
#905 =( GEOMETRIC_REPRESENTATION_CONTEXT ( 3 ) GLOBAL_UNCERTAINTY_ASSIGNED_CONTEXT ( ( #768 ) ) GLOBAL_UNIT_ASSIGNED_CONTEXT ( ( #1249, #889, #690 ) ) REPRESENTATION_CONTEXT ( 'NONE', 'WORKASPACE' ) );
#907 = EDGE_CURVE ( 'NONE', #546, #469, #699, .T. ) ;
#908 = ORIENTED_EDGE ( 'NONE', *, *, #676, .F. ) ;
#909 = EDGE_LOOP ( 'NONE', ( #951, #1184 ) ) ;
#910 = FACE_OUTER_BOUND ( 'NONE', #367, .T. ) ;
#911 = DIRECTION ( 'NONE',  ( 0.0000000000000000000, -1.000000000000000000, 0.0000000000000000000 ) ) ;
#912 = ORIENTED_EDGE ( 'NONE', *, *, #294, .T. ) ;
#913 = CARTESIAN_POINT ( 'NONE',  ( 0.0000000000000000000, 0.0000000000000000000, 0.0000000000000000000 ) ) ;
#914 = EDGE_LOOP ( 'NONE', ( #204, #842, #506, #109 ) ) ;
#915 = DIRECTION ( 'NONE',  ( 0.0000000000000000000, 1.000000000000000000, -1.734723475976807341E-16 ) ) ;
#916 = DIRECTION ( 'NONE',  ( 1.000000000000000000, 0.0000000000000000000, 0.0000000000000000000 ) ) ;
#917 = DIRECTION ( 'NONE',  ( 0.0000000000000000000, -1.000000000000000000, 0.0000000000000000000 ) ) ;
#918 = ORIENTED_EDGE ( 'NONE', *, *, #1210, .F. ) ;
#919 = ORIENTED_EDGE ( 'NONE', *, *, #1185, .F. ) ;
#920 = EDGE_CURVE ( 'NONE', #824, #66, #943, .T. ) ;
#921 = FACE_BOUND ( 'NONE', #727, .T. ) ;
#922 = DIRECTION ( 'NONE',  ( 0.0000000000000000000, 0.0000000000000000000, -1.000000000000000000 ) ) ;
#923 = CIRCLE ( 'NONE', #297, 2.000000000000003553 ) ;
#924 = CARTESIAN_POINT ( 'NONE',  ( -34.28948280075835697, 0.0000000000000000000, -30.78294889159275627 ) ) ;
#925 = VECTOR ( 'NONE', #165, 1000.000000000000000 ) ;
#926 = AXIS2_PLACEMENT_3D ( 'NONE', #649, #100, #374 ) ;
#927 = ORIENTED_EDGE ( 'NONE', *, *, #1054, .T. ) ;
#928 = CARTESIAN_POINT ( 'NONE',  ( 107.5000000000000284, 5.000000000000000000, -38.00000000000000000 ) ) ;
#929 = ADVANCED_FACE ( 'NONE', ( #692 ), #217, .T. ) ;
#930 = CARTESIAN_POINT ( 'NONE',  ( 45.16752562030923457, 0.0000000000000000000, -26.78294889159275272 ) ) ;
#931 = EDGE_CURVE ( 'NONE', #469, #1150, #785, .T. ) ;
#932 = PLANE ( 'NONE',  #978 ) ;
#933 = ORIENTED_EDGE ( 'NONE', *, *, #1004, .T. ) ;
#934 = CARTESIAN_POINT ( 'NONE',  ( 45.16752562030923457, -8.000000000000000000, -26.78294889159275272 ) ) ;
#935 = CARTESIAN_POINT ( 'NONE',  ( 109.5000000000000284, 1.000000000000000000, 40.00000000000000000 ) ) ;
#936 = PLANE ( 'NONE',  #360 ) ;
#937 = LINE ( 'NONE', #58, #62 ) ;
#938 = EDGE_CURVE ( 'NONE', #1074, #1147, #686, .T. ) ;
#939 = EDGE_LOOP ( 'NONE', ( #472, #636, #1254, #355 ) ) ;
#940 = ORIENTED_EDGE ( 'NONE', *, *, #899, .F. ) ;
#941 = DIRECTION ( 'NONE',  ( 0.0000000000000000000, 0.0000000000000000000, -1.000000000000000000 ) ) ;
#942 = EDGE_CURVE ( 'NONE', #764, #348, #1091, .T. ) ;
#943 = CIRCLE ( 'NONE', #1002, 5.999999999999998224 ) ;
#944 = ORIENTED_EDGE ( 'NONE', *, *, #1056, .F. ) ;
#945 = CIRCLE ( 'NONE', #459, 2.000000000000001776 ) ;
#946 = LINE ( 'NONE', #163, #319 ) ;
#947 = DIRECTION ( 'NONE',  ( 0.0000000000000000000, 0.0000000000000000000, 1.000000000000000000 ) ) ;
#948 = CARTESIAN_POINT ( 'NONE',  ( 45.16752562030922746, -8.000000000000000000, -2.004275931565628444 ) ) ;
#949 = CARTESIAN_POINT ( 'NONE',  ( -109.4999999999999716, 5.550764553814779845, -40.00000000000000000 ) ) ;
#950 = DIRECTION ( 'NONE',  ( 1.000000000000000000, -0.0000000000000000000, -0.0000000000000000000 ) ) ;
#951 = ORIENTED_EDGE ( 'NONE', *, *, #784, .T. ) ;
#952 = ADVANCED_FACE ( 'NONE', ( #1169 ), #19, .F. ) ;
#953 = CARTESIAN_POINT ( 'NONE',  ( 45.16752562030923457, -8.000000000000000000, -34.78294889159275982 ) ) ;
#954 = CARTESIAN_POINT ( 'NONE',  ( 107.5000000000000284, 1.000000000000000000, -38.00000000000000000 ) ) ;
#955 = DIRECTION ( 'NONE',  ( 0.0000000000000000000, -1.000000000000000000, 1.387778780781445676E-16 ) ) ;
#956 = DIRECTION ( 'NONE',  ( 0.0000000000000000000, 0.0000000000000000000, 1.000000000000000000 ) ) ;
#957 = ORIENTED_EDGE ( 'NONE', *, *, #498, .T. ) ;
#958 = DIRECTION ( 'NONE',  ( 0.0000000000000000000, -1.301042606982605321E-16, -1.000000000000000000 ) ) ;
#959 = FACE_OUTER_BOUND ( 'NONE', #802, .T. ) ;
#960 = EDGE_CURVE ( 'NONE', #511, #764, #1077, .T. ) ;
#961 = LINE ( 'NONE', #662, #925 ) ;
#962 = DIRECTION ( 'NONE',  ( -0.0000000000000000000, 1.000000000000000000, -0.0000000000000000000 ) ) ;
#963 = FACE_OUTER_BOUND ( 'NONE', #1025, .T. ) ;
#964 = PRODUCT_DEFINITION_CONTEXT ( 'detailed design', #895, 'design' ) ;
#965 = ORIENTED_EDGE ( 'NONE', *, *, #873, .T. ) ;
#966 = ORIENTED_EDGE ( 'NONE', *, *, #250, .T. ) ;
#967 = AXIS2_PLACEMENT_3D ( 'NONE', #303, #493, #195 ) ;
#968 = EDGE_CURVE ( 'NONE', #427, #1099, #334, .T. ) ;
#969 = CARTESIAN_POINT ( 'NONE',  ( 0.0000000000000000000, 5.000000000000000000, 0.0000000000000000000 ) ) ;
#970 = CARTESIAN_POINT ( 'NONE',  ( -34.28948280075836408, 0.0000000000000000000, -2.004275931565628444 ) ) ;
#971 = ORIENTED_EDGE ( 'NONE', *, *, #738, .F. ) ;
#972 = FACE_OUTER_BOUND ( 'NONE', #534, .T. ) ;
#973 = CARTESIAN_POINT ( 'NONE',  ( 107.5000000000000284, 5.000000000000000000, -38.00000000000000000 ) ) ;
#974 = VERTEX_POINT ( 'NONE', #827 ) ;
#975 = DIRECTION ( 'NONE',  ( 0.0000000000000000000, 0.0000000000000000000, 1.000000000000000000 ) ) ;
#976 = ORIENTED_EDGE ( 'NONE', *, *, #571, .F. ) ;
#977 = EDGE_CURVE ( 'NONE', #235, #170, #247, .T. ) ;
#978 = AXIS2_PLACEMENT_3D ( 'NONE', #352, #1017, #1027 ) ;
#979 = DIRECTION ( 'NONE',  ( 0.0000000000000000000, 0.0000000000000000000, -1.000000000000000000 ) ) ;
#980 = VECTOR ( 'NONE', #779, 1000.000000000000000 ) ;
#981 = AXIS2_PLACEMENT_3D ( 'NONE', #1197, #915, #435 ) ;
#982 = DIRECTION ( 'NONE',  ( -0.0000000000000000000, 1.000000000000000000, -0.0000000000000000000 ) ) ;
#983 = CARTESIAN_POINT ( 'NONE',  ( -34.28948280075835697, -8.000000000000000000, -28.78294889159275272 ) ) ;
#984 = DIRECTION ( 'NONE',  ( -1.000000000000000000, 0.0000000000000000000, 0.0000000000000000000 ) ) ;
#985 = ORIENTED_EDGE ( 'NONE', *, *, #833, .T. ) ;
#986 = ORIENTED_EDGE ( 'NONE', *, *, #30, .F. ) ;
#987 = CARTESIAN_POINT ( 'NONE',  ( -34.28948280075836408, -8.000000000000000000, 3.995724068434370224 ) ) ;
#988 = CARTESIAN_POINT ( 'NONE',  ( 45.16752562030922746, -8.000000000000000000, -2.004275931565628444 ) ) ;
#989 = DIRECTION ( 'NONE',  ( -1.000000000000000000, 0.0000000000000000000, 0.0000000000000000000 ) ) ;
#990 = CARTESIAN_POINT ( 'NONE',  ( -34.28948280075836408, -8.000000000000000000, -2.004275931565628444 ) ) ;
#991 = ORIENTED_EDGE ( 'NONE', *, *, #359, .T. ) ;
#992 = VERTEX_POINT ( 'NONE', #735 ) ;
#993 = DIRECTION ( 'NONE',  ( 0.0000000000000000000, 0.0000000000000000000, -1.000000000000000000 ) ) ;
#994 = ADVANCED_FACE ( 'NONE', ( #630 ), #936, .T. ) ;
#995 = DIRECTION ( 'NONE',  ( 0.0000000000000000000, -1.000000000000000000, 0.0000000000000000000 ) ) ;
#996 = DIRECTION ( 'NONE',  ( 0.0000000000000000000, 0.0000000000000000000, -1.000000000000000000 ) ) ;
#997 = VERTEX_POINT ( 'NONE', #930 ) ;
#998 = CARTESIAN_POINT ( 'NONE',  ( -109.4999999999999716, 1.000000000000000000, 40.00000000000000000 ) ) ;
#999 = AXIS2_PLACEMENT_3D ( 'NONE', #1051, #748, #1058 ) ;
#1000 = CIRCLE ( 'NONE', #1157, 5.999999999999994671 ) ;
#1001 = CARTESIAN_POINT ( 'NONE',  ( -34.28948280075836408, 0.0000000000000000000, -4.004275931565631552 ) ) ;
#1002 = AXIS2_PLACEMENT_3D ( 'NONE', #1084, #99, #903 ) ;
#1003 = AXIS2_PLACEMENT_3D ( 'NONE', #990, #1085, #510 ) ;
#1004 = EDGE_CURVE ( 'NONE', #590, #747, #57, .T. ) ;
#1005 = LINE ( 'NONE', #781, #1219 ) ;
#1006 = AXIS2_PLACEMENT_3D ( 'NONE', #644, #917, #547 ) ;
#1007 = VERTEX_POINT ( 'NONE', #431 ) ;
#1008 = ORIENTED_EDGE ( 'NONE', *, *, #716, .T. ) ;
#1009 = CARTESIAN_POINT ( 'NONE',  ( 45.16752562030923457, -8.000000000000000000, -28.78294889159275272 ) ) ;
#1010 = FACE_BOUND ( 'NONE', #715, .T. ) ;
#1011 = LINE ( 'NONE', #40, #1218 ) ;
#1012 = FACE_OUTER_BOUND ( 'NONE', #228, .T. ) ;
#1013 = ORIENTED_EDGE ( 'NONE', *, *, #121, .F. ) ;
#1014 = ORIENTED_EDGE ( 'NONE', *, *, #490, .F. ) ;
#1015 = CARTESIAN_POINT ( 'NONE',  ( -107.4999999999999716, 5.000000000000000000, 38.00000000000000000 ) ) ;
#1016 = CARTESIAN_POINT ( 'NONE',  ( -34.28948280075836408, 0.0000000000000000000, -2.004275931565628444 ) ) ;
#1017 = DIRECTION ( 'NONE',  ( -0.0000000000000000000, 1.000000000000000000, 0.0000000000000000000 ) ) ;
#1018 = EDGE_CURVE ( 'NONE', #548, #1094, #214, .T. ) ;
#1019 = ORIENTED_EDGE ( 'NONE', *, *, #444, .F. ) ;
#1020 = DIRECTION ( 'NONE',  ( 1.000000000000000000, -0.0000000000000000000, 0.0000000000000000000 ) ) ;
#1021 = DIRECTION ( 'NONE',  ( 0.0000000000000000000, 0.0000000000000000000, -1.000000000000000000 ) ) ;
#1022 = AXIS2_PLACEMENT_3D ( 'NONE', #384, #1067, #473 ) ;
#1023 = FACE_BOUND ( 'NONE', #1075, .T. ) ;
#1024 = VECTOR ( 'NONE', #984, 1000.000000000000000 ) ;
#1025 = EDGE_LOOP ( 'NONE', ( #1098, #1192, #162, #205 ) ) ;
#1026 = CARTESIAN_POINT ( 'NONE',  ( -107.4999999999999716, 5.000000000000000000, 38.00000000000000000 ) ) ;
#1027 = DIRECTION ( 'NONE',  ( 0.0000000000000000000, -0.0000000000000000000, 1.000000000000000000 ) ) ;
#1028 = VERTEX_POINT ( 'NONE', #1105 ) ;
#1029 = CYLINDRICAL_SURFACE ( 'NONE', #702, 6.000000000000001776 ) ;
#1030 = EDGE_CURVE ( 'NONE', #1150, #1247, #445, .T. ) ;
#1031 = CYLINDRICAL_SURFACE ( 'NONE', #675, 2.000000000000001776 ) ;
#1032 = CARTESIAN_POINT ( 'NONE',  ( 109.5000000000000284, 1.000000000000000000, -40.00000000000000000 ) ) ;
#1033 = VERTEX_POINT ( 'NONE', #640 ) ;
#1034 = DIRECTION ( 'NONE',  ( 0.0000000000000000000, -1.000000000000000000, 0.0000000000000000000 ) ) ;
#1035 = DIRECTION ( 'NONE',  ( 0.0000000000000000000, 0.0000000000000000000, -1.000000000000000000 ) ) ;
#1036 = PRODUCT_DEFINITION ( 'UNKNOWN', '', #1202, #964 ) ;
#1037 = LINE ( 'NONE', #173, #421 ) ;
#1038 = VECTOR ( 'NONE', #783, 1000.000000000000000 ) ;
#1039 = AXIS2_PLACEMENT_3D ( 'NONE', #426, #105, #713 ) ;
#1040 = ORIENTED_EDGE ( 'NONE', *, *, #529, .F. ) ;
#1041 = MECHANICAL_DESIGN_GEOMETRIC_PRESENTATION_REPRESENTATION (  '', ( #886 ), #620 ) ;
#1042 = CARTESIAN_POINT ( 'NONE',  ( 45.16752562030923457, -8.000000000000000000, -28.78294889159275272 ) ) ;
#1043 = ORIENTED_EDGE ( 'NONE', *, *, #899, .T. ) ;
#1044 = CARTESIAN_POINT ( 'NONE',  ( -109.4999999999999716, 1.000000000000000000, 40.00000000000000000 ) ) ;
#1045 = CARTESIAN_POINT ( 'NONE',  ( -111.4999999999999716, -44.44923544618522726, -39.99999999999999289 ) ) ;
#1046 = VERTEX_POINT ( 'NONE', #1001 ) ;
#1047 = EDGE_CURVE ( 'NONE', #1033, #1151, #1011, .T. ) ;
#1048 = CARTESIAN_POINT ( 'NONE',  ( 0.0000000000000000000, 0.0000000000000000000, 0.0000000000000000000 ) ) ;
#1049 = CARTESIAN_POINT ( 'NONE',  ( -111.4999999999999716, -44.44923544618521305, 40.00000000000000000 ) ) ;
#1050 = ORIENTED_EDGE ( 'NONE', *, *, #792, .F. ) ;
#1051 = CARTESIAN_POINT ( 'NONE',  ( -111.4999999999999716, 0.0000000000000000000, 0.0000000000000000000 ) ) ;
#1052 = CARTESIAN_POINT ( 'NONE',  ( -111.4999999999999716, -44.44923544618521305, 40.00000000000000000 ) ) ;
#1053 = ORIENTED_EDGE ( 'NONE', *, *, #73, .F. ) ;
#1054 = EDGE_CURVE ( 'NONE', #872, #349, #436, .T. ) ;
#1055 = VERTEX_POINT ( 'NONE', #1111 ) ;
#1056 = EDGE_CURVE ( 'NONE', #220, #226, #819, .T. ) ;
#1057 = DIRECTION ( 'NONE',  ( -0.0000000000000000000, 1.000000000000000000, -0.0000000000000000000 ) ) ;
#1058 = DIRECTION ( 'NONE',  ( 0.0000000000000000000, 0.0000000000000000000, -1.000000000000000000 ) ) ;
#1059 = CARTESIAN_POINT ( 'NONE',  ( 45.16752562030922746, -8.000000000000000000, -2.004275931565628444 ) ) ;
#1060 = ORIENTED_EDGE ( 'NONE', *, *, #907, .F. ) ;
#1061 = VECTOR ( 'NONE', #216, 1000.000000000000000 ) ;
#1063 = VECTOR ( 'NONE', #617, 1000.000000000000000 ) ;
#1062 = PLANE ( 'NONE',  #1124 ) ;
#1064 = PRODUCT_RELATED_PRODUCT_CATEGORY ( 'part', '', ( #321 ) ) ;
#1065 = CARTESIAN_POINT ( 'NONE',  ( -109.4999999999999716, 0.0000000000000000000, 0.0000000000000000000 ) ) ;
#1066 = EDGE_CURVE ( 'NONE', #141, #1074, #401, .T. ) ;
#1067 = DIRECTION ( 'NONE',  ( -1.000000000000000000, 0.0000000000000000000, 0.0000000000000000000 ) ) ;
#1068 = FACE_OUTER_BOUND ( 'NONE', #835, .T. ) ;
#1069 = ORIENTED_EDGE ( 'NONE', *, *, #1066, .F. ) ;
#1070 = FACE_OUTER_BOUND ( 'NONE', #601, .T. ) ;
#1071 = DIRECTION ( 'NONE',  ( 1.000000000000000000, 0.0000000000000000000, 0.0000000000000000000 ) ) ;
#1072 = ADVANCED_FACE ( 'NONE', ( #89, #424 ), #557, .T. ) ;
#1073 = CARTESIAN_POINT ( 'NONE',  ( -109.4999999999999716, 5.550764553814779845, -40.00000000000000000 ) ) ;
#1074 = VERTEX_POINT ( 'NONE', #646 ) ;
#1075 = EDGE_LOOP ( 'NONE', ( #908, #772, #451, #860 ) ) ;
#1076 = PLANE ( 'NONE',  #130 ) ;
#1077 = LINE ( 'NONE', #224, #3 ) ;
#1078 = FACE_OUTER_BOUND ( 'NONE', #51, .T. ) ;
#1079 = ORIENTED_EDGE ( 'NONE', *, *, #59, .F. ) ;
#1080 = ORIENTED_EDGE ( 'NONE', *, *, #444, .T. ) ;
#1081 = DIRECTION ( 'NONE',  ( -0.0000000000000000000, 1.000000000000000000, -0.0000000000000000000 ) ) ;
#1082 = STYLED_ITEM ( 'NONE', ( #391 ), #416 ) ;
#1083 = CYLINDRICAL_SURFACE ( 'NONE', #840, 5.999999999999998224 ) ;
#1084 = CARTESIAN_POINT ( 'NONE',  ( -34.28948280075836408, -8.000000000000000000, -2.004275931565628444 ) ) ;
#1085 = DIRECTION ( 'NONE',  ( -0.0000000000000000000, 1.000000000000000000, -0.0000000000000000000 ) ) ;
#1086 = ORIENTED_EDGE ( 'NONE', *, *, #520, .T. ) ;
#1087 = EDGE_CURVE ( 'NONE', #809, #1046, #1215, .T. ) ;
#1088 = ORIENTED_EDGE ( 'NONE', *, *, #354, .T. ) ;
#1089 = FACE_OUTER_BOUND ( 'NONE', #491, .T. ) ;
#1090 = LINE ( 'NONE', #487, #1104 ) ;
#1091 = LINE ( 'NONE', #898, #777 ) ;
#1092 =( NAMED_UNIT ( * ) SI_UNIT ( $, .STERADIAN. ) SOLID_ANGLE_UNIT ( ) );
#1093 = ORIENTED_EDGE ( 'NONE', *, *, #776, .F. ) ;
#1094 = VERTEX_POINT ( 'NONE', #1134 ) ;
#1095 = DIRECTION ( 'NONE',  ( -1.000000000000000000, 0.0000000000000000000, -0.0000000000000000000 ) ) ;
#1096 = ADVANCED_FACE ( 'NONE', ( #959 ), #277, .T. ) ;
#1097 = CARTESIAN_POINT ( 'NONE',  ( -34.28948280075836408, 0.0000000000000000000, -2.004275931565628444 ) ) ;
#1098 = ORIENTED_EDGE ( 'NONE', *, *, #12, .T. ) ;
#1099 = VERTEX_POINT ( 'NONE', #661 ) ;
#1100 = CARTESIAN_POINT ( 'NONE',  ( -111.4999999999999716, 5.550764553814790503, 40.00000000000000000 ) ) ;
#1101 = DIRECTION ( 'NONE',  ( 0.0000000000000000000, -1.000000000000000000, 0.0000000000000000000 ) ) ;
#1102 = VECTOR ( 'NONE', #178, 1000.000000000000000 ) ;
#1103 = FACE_BOUND ( 'NONE', #541, .T. ) ;
#1104 = VECTOR ( 'NONE', #1162, 1000.000000000000000 ) ;
#1105 = CARTESIAN_POINT ( 'NONE',  ( 45.16752562030923457, -8.000000000000000000, -22.78294889159274916 ) ) ;
#1107 = DIRECTION ( 'NONE',  ( -0.0000000000000000000, 1.000000000000000000, -0.0000000000000000000 ) ) ;
#1106 = CIRCLE ( 'NONE', #967, 2.000000000000001776 ) ;
#1108 = ORIENTED_EDGE ( 'NONE', *, *, #968, .F. ) ;
#1109 = VERTEX_POINT ( 'NONE', #1223 ) ;
#1110 = CYLINDRICAL_SURFACE ( 'NONE', #618, 5.999999999999994671 ) ;
#1111 = CARTESIAN_POINT ( 'NONE',  ( -107.4999999999999716, 0.0000000000000000000, -38.00000000000000000 ) ) ;
#1112 = CARTESIAN_POINT ( 'NONE',  ( 45.16752562030922746, -8.000000000000000000, 3.995724068434366671 ) ) ;
#1113 = EDGE_CURVE ( 'NONE', #343, #407, #382, .T. ) ;
#1114 = VERTEX_POINT ( 'NONE', #452 ) ;
#1115 = ORIENTED_EDGE ( 'NONE', *, *, #359, .F. ) ;
#1116 = FACE_OUTER_BOUND ( 'NONE', #914, .T. ) ;
#1117 = DIRECTION ( 'NONE',  ( 0.0000000000000000000, 0.0000000000000000000, -1.000000000000000000 ) ) ;
#1118 = EDGE_CURVE ( 'NONE', #992, #1158, #366, .T. ) ;
#1119 = ORIENTED_EDGE ( 'NONE', *, *, #938, .T. ) ;
#1120 = ADVANCED_FACE ( 'NONE', ( #653 ), #1029, .T. ) ;
#1121 = VECTOR ( 'NONE', #832, 1000.000000000000000 ) ;
#1122 = VECTOR ( 'NONE', #1182, 1000.000000000000000 ) ;
#1123 = LINE ( 'NONE', #340, #1137 ) ;
#1124 = AXIS2_PLACEMENT_3D ( 'NONE', #696, #513, #17 ) ;
#1125 = CIRCLE ( 'NONE', #599, 2.000000000000003553 ) ;
#1126 = ORIENTED_EDGE ( 'NONE', *, *, #428, .F. ) ;
#1127 = ADVANCED_FACE ( 'NONE', ( #74 ), #157, .T. ) ;
#1128 = DIRECTION ( 'NONE',  ( 0.0000000000000000000, 0.0000000000000000000, -1.000000000000000000 ) ) ;
#1129 = VERTEX_POINT ( 'NONE', #361 ) ;
#1130 = EDGE_LOOP ( 'NONE', ( #553, #613, #933, #720 ) ) ;
#1131 = PLANE ( 'NONE',  #1022 ) ;
#1132 = DIRECTION ( 'NONE',  ( 0.0000000000000000000, -0.0000000000000000000, 1.000000000000000000 ) ) ;
#1133 = EDGE_LOOP ( 'NONE', ( #710, #1119, #393, #96 ) ) ;
#1134 = CARTESIAN_POINT ( 'NONE',  ( -34.28948280075836408, 0.0000000000000000000, 3.995724068434370224 ) ) ;
#1135 = DIRECTION ( 'NONE',  ( 0.0000000000000000000, 0.0000000000000000000, 1.000000000000000000 ) ) ;
#1136 = CARTESIAN_POINT ( 'NONE',  ( -34.28948280075836408, -8.000000000000000000, -0.004275931565625185754 ) ) ;
#1137 = VECTOR ( 'NONE', #717, 1000.000000000000000 ) ;
#1138 = ADVANCED_FACE ( 'NONE', ( #849 ), #176, .T. ) ;
#1139 = CYLINDRICAL_SURFACE ( 'NONE', #654, 2.000000000000003109 ) ;
#1140 = CIRCLE ( 'NONE', #503, 2.000000000000003553 ) ;
#1141 = ORIENTED_EDGE ( 'NONE', *, *, #833, .F. ) ;
#1142 = EDGE_LOOP ( 'NONE', ( #1108, #888, #703, #387 ) ) ;
#1143 = DIRECTION ( 'NONE',  ( -1.000000000000000000, 0.0000000000000000000, -0.0000000000000000000 ) ) ;
#1144 = DIRECTION ( 'NONE',  ( 0.0000000000000000000, 0.0000000000000000000, 1.000000000000000000 ) ) ;
#1145 = EDGE_CURVE ( 'NONE', #1007, #1033, #56, .T. ) ;
#1146 = ORIENTED_EDGE ( 'NONE', *, *, #322, .F. ) ;
#1147 = VERTEX_POINT ( 'NONE', #1234 ) ;
#1148 = CARTESIAN_POINT ( 'NONE',  ( -107.4999999999999716, 0.0000000000000000000, 38.00000000000000000 ) ) ;
#1149 = CARTESIAN_POINT ( 'NONE',  ( 45.16752562030922746, 0.0000000000000000000, -8.004275931565622670 ) ) ;
#1150 = VERTEX_POINT ( 'NONE', #862 ) ;
#1151 = VERTEX_POINT ( 'NONE', #376 ) ;
#1152 = DIRECTION ( 'NONE',  ( -0.0000000000000000000, 1.000000000000000000, -0.0000000000000000000 ) ) ;
#1153 = CARTESIAN_POINT ( 'NONE',  ( -34.28948280075835697, 0.0000000000000000000, -28.78294889159275272 ) ) ;
#1154 = DIRECTION ( 'NONE',  ( 0.0000000000000000000, 0.0000000000000000000, -1.000000000000000000 ) ) ;
#1155 = AXIS2_PLACEMENT_3D ( 'NONE', #328, #808, #1190 ) ;
#1156 = AXIS2_PLACEMENT_3D ( 'NONE', #892, #712, #519 ) ;
#1157 = AXIS2_PLACEMENT_3D ( 'NONE', #988, #304, #685 ) ;
#1158 = VERTEX_POINT ( 'NONE', #477 ) ;
#1159 = AXIS2_PLACEMENT_3D ( 'NONE', #145, #1101, #222 ) ;
#1160 = PRESENTATION_LAYER_ASSIGNMENT (  '', '', ( #886 ) ) ;
#1161 = EDGE_CURVE ( 'NONE', #811, #1221, #1243, .T. ) ;
#1162 = DIRECTION ( 'NONE',  ( -0.0000000000000000000, -1.000000000000000000, -0.0000000000000000000 ) ) ;
#1163 = CYLINDRICAL_SURFACE ( 'NONE', #299, 2.000000000000003109 ) ;
#1164 = CARTESIAN_POINT ( 'NONE',  ( -109.4999999999999716, -44.44923544618521305, 40.00000000000000000 ) ) ;
#1165 = ORIENTED_EDGE ( 'NONE', *, *, #752, .T. ) ;
#1166 = ORIENTED_EDGE ( 'NONE', *, *, #834, .T. ) ;
#1167 =( LENGTH_UNIT ( ) NAMED_UNIT ( * ) SI_UNIT ( .MILLI., .METRE. ) );
#1168 = CARTESIAN_POINT ( 'NONE',  ( 45.16752562030923457, 0.0000000000000000000, -28.78294889159275272 ) ) ;
#1169 = FACE_OUTER_BOUND ( 'NONE', #302, .T. ) ;
#1170 = DIRECTION ( 'NONE',  ( 0.0000000000000000000, 0.0000000000000000000, -1.000000000000000000 ) ) ;
#1171 = ORIENTED_EDGE ( 'NONE', *, *, #942, .T. ) ;
#1172 = EDGE_LOOP ( 'NONE', ( #825, #894, #320, #591 ) ) ;
#1173 = FACE_OUTER_BOUND ( 'NONE', #909, .T. ) ;
#1174 = CARTESIAN_POINT ( 'NONE',  ( -107.4999999999999716, 5.000000000000000000, -38.00000000000000000 ) ) ;
#1175 = CARTESIAN_POINT ( 'NONE',  ( -34.28948280075835697, -8.000000000000000000, -34.78294889159275272 ) ) ;
#1176 =( NAMED_UNIT ( * ) PLANE_ANGLE_UNIT ( ) SI_UNIT ( $, .RADIAN. ) );
#1177 = ORIENTED_EDGE ( 'NONE', *, *, #213, .T. ) ;
#1178 = VECTOR ( 'NONE', #955, 1000.000000000000000 ) ;
#1179 = ORIENTED_EDGE ( 'NONE', *, *, #160, .F. ) ;
#1180 = AXIS2_PLACEMENT_3D ( 'NONE', #186, #567, #956 ) ;
#1181 = DIRECTION ( 'NONE',  ( 0.0000000000000000000, 0.0000000000000000000, -1.000000000000000000 ) ) ;
#1182 = DIRECTION ( 'NONE',  ( -0.0000000000000000000, 1.000000000000000000, -0.0000000000000000000 ) ) ;
#1183 = VECTOR ( 'NONE', #268, 1000.000000000000000 ) ;
#1184 = ORIENTED_EDGE ( 'NONE', *, *, #490, .T. ) ;
#1185 = EDGE_CURVE ( 'NONE', #974, #590, #1106, .T. ) ;
#1186 = DIRECTION ( 'NONE',  ( 1.000000000000000000, 0.0000000000000000000, 0.0000000000000000000 ) ) ;
#1187 = ORIENTED_EDGE ( 'NONE', *, *, #569, .T. ) ;
#1188 = CARTESIAN_POINT ( 'NONE',  ( 45.16752562030923457, -8.000000000000000000, -22.78294889159275272 ) ) ;
#1189 = DIRECTION ( 'NONE',  ( -0.0000000000000000000, 1.000000000000000000, -0.0000000000000000000 ) ) ;
#1190 = DIRECTION ( 'NONE',  ( 0.0000000000000000000, -0.0000000000000000000, -1.000000000000000000 ) ) ;
#1191 = ORIENTED_EDGE ( 'NONE', *, *, #60, .T. ) ;
#1192 = ORIENTED_EDGE ( 'NONE', *, *, #1161, .T. ) ;
#1193 = CARTESIAN_POINT ( 'NONE',  ( 109.5000000000000284, 1.000000000000000000, -40.00000000000000000 ) ) ;
#1194 = PLANE ( 'NONE',  #1006 ) ;
#1195 = EDGE_LOOP ( 'NONE', ( #1179, #536 ) ) ;
#1196 = ORIENTED_EDGE ( 'NONE', *, *, #595, .T. ) ;
#1197 = CARTESIAN_POINT ( 'NONE',  ( -111.4999999999999716, -44.44923544618521305, 40.00000000000000000 ) ) ;
#1198 = AXIS2_PLACEMENT_3D ( 'NONE', #639, #168, #660 ) ;
#1199 = EDGE_CURVE ( 'NONE', #141, #997, #602, .T. ) ;
#1200 = CARTESIAN_POINT ( 'NONE',  ( -107.4999999999999716, 1.000000000000000000, 38.00000000000000000 ) ) ;
#1201 = CIRCLE ( 'NONE', #280, 6.000000000000005329 ) ;
#1203 = LINE ( 'NONE', #35, #460 ) ;
#1202 = PRODUCT_DEFINITION_FORMATION_WITH_SPECIFIED_SOURCE ( 'ANY', '', #321, .NOT_KNOWN. ) ;
#1204 = CARTESIAN_POINT ( 'NONE',  ( 45.16752562030922746, 0.0000000000000000000, 3.995724068434366671 ) ) ;
#1205 = SHAPE_DEFINITION_REPRESENTATION ( #904, #449 ) ;
#1206 = EDGE_LOOP ( 'NONE', ( #1141, #128, #901, #402 ) ) ;
#1207 = PLANE ( 'NONE',  #981 ) ;
#1208 = DIRECTION ( 'NONE',  ( 0.0000000000000000000, 0.0000000000000000000, -1.000000000000000000 ) ) ;
#1209 = CARTESIAN_POINT ( 'NONE',  ( 45.16752562030922746, -8.000000000000000000, 3.995724068434366671 ) ) ;
#1210 = EDGE_CURVE ( 'NONE', #824, #1094, #500, .T. ) ;
#1211 = ORIENTED_EDGE ( 'NONE', *, *, #931, .F. ) ;
#1212 = CARTESIAN_POINT ( 'NONE',  ( 107.5000000000000284, 0.0000000000000000000, 38.00000000000000000 ) ) ;
#1213 = FACE_OUTER_BOUND ( 'NONE', #1195, .T. ) ;
#1214 = ORIENTED_EDGE ( 'NONE', *, *, #820, .T. ) ;
#1215 = LINE ( 'NONE', #751, #344 ) ;
#1216 = DIRECTION ( 'NONE',  ( 0.0000000000000000000, 0.0000000000000000000, -1.000000000000000000 ) ) ;
#1217 = CIRCLE ( 'NONE', #522, 2.000000000000003553 ) ;
#1218 = VECTOR ( 'NONE', #146, 1000.000000000000000 ) ;
#1219 = VECTOR ( 'NONE', #906, 1000.000000000000000 ) ;
#1220 = EDGE_CURVE ( 'NONE', #1247, #546, #307, .T. ) ;
#1221 = VERTEX_POINT ( 'NONE', #1255 ) ;
#1222 = EDGE_CURVE ( 'NONE', #627, #747, #945, .T. ) ;
#1223 = CARTESIAN_POINT ( 'NONE',  ( -34.28948280075835697, -8.000000000000000000, -22.78294889159275627 ) ) ;
#1224 = FACE_OUTER_BOUND ( 'NONE', #184, .T. ) ;
#1225 = CARTESIAN_POINT ( 'NONE',  ( -34.28948280075836408, 0.0000000000000000000, -2.004275931565628444 ) ) ;
#1226 = FACE_OUTER_BOUND ( 'NONE', #565, .T. ) ;
#1227 = ORIENTED_EDGE ( 'NONE', *, *, #803, .T. ) ;
#1228 = DIRECTION ( 'NONE',  ( 0.0000000000000000000, -1.000000000000000000, 0.0000000000000000000 ) ) ;
#1229 = ADVANCED_FACE ( 'NONE', ( #770 ), #586, .F. ) ;
#1230 = ORIENTED_EDGE ( 'NONE', *, *, #331, .F. ) ;
#1231 = DIRECTION ( 'NONE',  ( 0.0000000000000000000, 0.0000000000000000000, -1.000000000000000000 ) ) ;
#1232 = LINE ( 'NONE', #191, #505 ) ;
#1233 = ORIENTED_EDGE ( 'NONE', *, *, #1054, .F. ) ;
#1234 = CARTESIAN_POINT ( 'NONE',  ( 45.16752562030923457, 0.0000000000000000000, -30.78294889159275627 ) ) ;
#1235 = ADVANCED_FACE ( 'NONE', ( #1173, #389 ), #1062, .T. ) ;
#1236 = ORIENTED_EDGE ( 'NONE', *, *, #535, .F. ) ;
#1237 = DIRECTION ( 'NONE',  ( 0.0000000000000000000, -1.000000000000000000, 0.0000000000000000000 ) ) ;
#1238 = PLANE ( 'NONE',  #543 ) ;
#1239 = AXIS2_PLACEMENT_3D ( 'NONE', #1016, #263, #922 ) ;
#1240 =( GEOMETRIC_REPRESENTATION_CONTEXT ( 3 ) GLOBAL_UNCERTAINTY_ASSIGNED_CONTEXT ( ( #858 ) ) GLOBAL_UNIT_ASSIGNED_CONTEXT ( ( #611, #1176, #1092 ) ) REPRESENTATION_CONTEXT ( 'NONE', 'WORKASPACE' ) );
#1241 = EDGE_LOOP ( 'NONE', ( #91, #575, #912, #874 ) ) ;
#1242 = VECTOR ( 'NONE', #46, 1000.000000000000000 ) ;
#1243 = LINE ( 'NONE', #97, #110 ) ;
#1244 = DIRECTION ( 'NONE',  ( 1.000000000000000000, -0.0000000000000000000, -0.0000000000000000000 ) ) ;
#1245 = DIRECTION ( 'NONE',  ( 0.0000000000000000000, -0.0000000000000000000, -1.000000000000000000 ) ) ;
#1246 = DIRECTION ( 'NONE',  ( -0.0000000000000000000, 1.000000000000000000, -0.0000000000000000000 ) ) ;
#1247 = VERTEX_POINT ( 'NONE', #789 ) ;
#1248 = CARTESIAN_POINT ( 'NONE',  ( -107.4999999999999716, 0.0000000000000000000, -38.00000000000000000 ) ) ;
#1249 =( LENGTH_UNIT ( ) NAMED_UNIT ( * ) SI_UNIT ( .MILLI., .METRE. ) );
#1250 = LINE ( 'NONE', #1148, #342 ) ;
#1251 = SURFACE_STYLE_USAGE ( .BOTH. , #870 ) ;
#1252 = VERTEX_POINT ( 'NONE', #413 ) ;
#1253 = EDGE_CURVE ( 'NONE', #429, #412, #795, .T. ) ;
#1254 = ORIENTED_EDGE ( 'NONE', *, *, #471, .F. ) ;
#1255 = CARTESIAN_POINT ( 'NONE',  ( 45.16752562030922746, 0.0000000000000000000, -4.004275931565631552 ) ) ;
#1256 = DIRECTION ( 'NONE',  ( 1.000000000000000000, 0.0000000000000000000, 0.0000000000000000000 ) ) ;
#1257 = CARTESIAN_POINT ( 'NONE',  ( -107.4999999999999716, 5.000000000000000000, 38.00000000000000000 ) ) ;
#1258 = CARTESIAN_POINT ( 'NONE',  ( -109.4999999999999716, -44.44923544618521305, 40.00000000000000000 ) ) ;
ENDSEC;
END-ISO-10303-21;
