ISO-10303-21;
HEADER;
FILE_DESCRIPTION (( 'STEP AP214' ),
    '1' );
FILE_NAME ('00712_SEP_PMD2_Spacer_Bar.STEP',
    '2021-09-20T15:23:46',
    ( '' ),
    ( '' ),
    'SwSTEP 2.0',
    'SolidWorks 2020',
    '' );
FILE_SCHEMA (( 'AUTOMOTIVE_DESIGN' ));
ENDSEC;

DATA;
#1 = DIRECTION ( 'NONE',  ( 0.000000000000000000, 0.000000000000000000, 1.000000000000000000 ) ) ;
#2 = VECTOR ( 'NONE', #461, 1000.000000000000000 ) ;
#3 = ORIENTED_EDGE ( 'NONE', *, *, #87, .F. ) ;
#4 = ORIENTED_EDGE ( 'NONE', *, *, #634, .T. ) ;
#5 = DIRECTION ( 'NONE',  ( 3.944304526105055524E-31, 1.000000000000000000, 0.000000000000000000 ) ) ;
#6 = DIRECTION ( 'NONE',  ( 1.000000000000000000, 1.972152263052529514E-31, -3.944304526105055524E-31 ) ) ;
#7 = ORIENTED_EDGE ( 'NONE', *, *, #962, .T. ) ;
#8 = CARTESIAN_POINT ( 'NONE',  ( 35.00000000000000711, 3.199999999999980638, 2.400000000000020339 ) ) ;
#9 = AXIS2_PLACEMENT_3D ( 'NONE', #232, #901, #675 ) ;
#10 = CARTESIAN_POINT ( 'NONE',  ( 72.22500000000007958, 3.200000000000001510, -2.399999999999978595 ) ) ;
#11 = UNCERTAINTY_MEASURE_WITH_UNIT (LENGTH_MEASURE( 1.000000000000000082E-05 ), #82, 'distance_accuracy_value', 'NONE');
#12 = SURFACE_SIDE_STYLE ('',( #308 ) ) ;
#13 = ORIENTED_EDGE ( 'NONE', *, *, #275, .F. ) ;
#14 = CARTESIAN_POINT ( 'NONE',  ( -72.22499999999998010, 0.000000000000000000, -2.081668171172168513E-14 ) ) ;
#15 =( NAMED_UNIT ( * ) PLANE_ANGLE_UNIT ( ) SI_UNIT ( $, .RADIAN. ) );
#16 = CARTESIAN_POINT ( 'NONE',  ( 72.22500000000006537, 3.469446951953614189E-14, 3.500000000000051514 ) ) ;
#17 = STYLED_ITEM ( 'NONE', ( #918 ), #289 ) ;
#18 = PRESENTATION_LAYER_ASSIGNMENT (  '', '', ( #607 ) ) ;
#19 = EDGE_LOOP ( 'NONE', ( #368, #771, #520, #56 ) ) ;
#20 = AXIS2_PLACEMENT_3D ( 'NONE', #523, #150, #784 ) ;
#21 = CARTESIAN_POINT ( 'NONE',  ( -72.22499999999998010, 0.000000000000000000, -2.081668171172168513E-14 ) ) ;
#22 =( NAMED_UNIT ( * ) SI_UNIT ( $, .STERADIAN. ) SOLID_ANGLE_UNIT ( ) );
#23 = DIRECTION ( 'NONE',  ( 3.944304526105055524E-31, 1.000000000000000000, -0.000000000000000000 ) ) ;
#24 = EDGE_CURVE ( 'NONE', #148, #70, #381, .T. ) ;
#25 = VERTEX_POINT ( 'NONE', #685 ) ;
#26 = CARTESIAN_POINT ( 'NONE',  ( 12.55000000000000604, 3.199999999999980638, 2.081668171172168513E-14 ) ) ;
#27 = CIRCLE ( 'NONE', #945, 1.649999999999988809 ) ;
#28 = PRESENTATION_STYLE_ASSIGNMENT (( #656 ) ) ;
#29 = VERTEX_POINT ( 'NONE', #81 ) ;
#30 = DIRECTION ( 'NONE',  ( 3.944304526105055524E-31, 1.000000000000000000, 0.000000000000000000 ) ) ;
#31 = AXIS2_PLACEMENT_3D ( 'NONE', #946, #23, #871 ) ;
#32 = ORIENTED_EDGE ( 'NONE', *, *, #858, .F. ) ;
#33 = DIRECTION ( 'NONE',  ( 3.944304526105055524E-31, 1.000000000000000000, 0.000000000000000000 ) ) ;
#34 = PRESENTATION_STYLE_ASSIGNMENT (( #407 ) ) ;
#35 = AXIS2_PLACEMENT_3D ( 'NONE', #450, #696, #397 ) ;
#36 = EDGE_CURVE ( 'NONE', #695, #410, #362, .T. ) ;
#37 = DIRECTION ( 'NONE',  ( 1.000000000000000000, 1.972152263052529514E-31, 0.000000000000000000 ) ) ;
#38 = DIRECTION ( 'NONE',  ( -1.000000000000000000, 0.000000000000000000, -3.944304526105059903E-31 ) ) ;
#39 = VERTEX_POINT ( 'NONE', #303 ) ;
#40 = DIRECTION ( 'NONE',  ( -1.000000000000000000, -1.972152263052529514E-31, 0.000000000000000000 ) ) ;
#41 = ORIENTED_EDGE ( 'NONE', *, *, #722, .F. ) ;
#42 = CARTESIAN_POINT ( 'NONE',  ( -12.45000000000001705, 3.200000000000008171, 1.999999999999979128 ) ) ;
#43 = DIRECTION ( 'NONE',  ( -1.000000000000000000, -1.972152263052529514E-31, 0.000000000000000000 ) ) ;
#44 = VECTOR ( 'NONE', #838, 1000.000000000000000 ) ;
#45 = DIRECTION ( 'NONE',  ( 3.944304526105055524E-31, 1.000000000000000000, -1.555753819465282663E-61 ) ) ;
#46 = EDGE_LOOP ( 'NONE', ( #281, #781 ) ) ;
#47 = DIRECTION ( 'NONE',  ( 3.944304526105055524E-31, 1.000000000000000000, 0.000000000000000000 ) ) ;
#48 = VECTOR ( 'NONE', #159, 1000.000000000000000 ) ;
#49 = SURFACE_STYLE_FILL_AREA ( #574 ) ;
#50 = CONICAL_SURFACE ( 'NONE', #824, 1.649999999999988809, 1.029744258676646984 ) ;
#51 = VERTEX_POINT ( 'NONE', #8 ) ;
#52 = COLOUR_RGB ( '',0.7764705882352941346, 0.7568627450980391913, 0.7372549019607843590 ) ;
#53 = CYLINDRICAL_SURFACE ( 'NONE', #260, 1.649999999999990141 ) ;
#54 = EDGE_LOOP ( 'NONE', ( #641, #291, #635, #516 ) ) ;
#55 = DIRECTION ( 'NONE',  ( 1.000000000000000000, 0.000000000000000000, 3.944304526105059903E-31 ) ) ;
#56 = ORIENTED_EDGE ( 'NONE', *, *, #268, .F. ) ;
#57 = CARTESIAN_POINT ( 'NONE',  ( -71.72499999999998010, -6.938893903907228378E-15, -4.000000000000023981 ) ) ;
#58 = STYLED_ITEM ( 'NONE', ( #28 ), #438 ) ;
#59 = EDGE_LOOP ( 'NONE', ( #176, #220, #388, #974 ) ) ;
#60 = AXIS2_PLACEMENT_3D ( 'NONE', #164, #687, #763 ) ;
#61 = AXIS2_PLACEMENT_3D ( 'NONE', #227, #756, #915 ) ;
#62 = EDGE_CURVE ( 'NONE', #885, #827, #533, .T. ) ;
#63 = AXIS2_PLACEMENT_3D ( 'NONE', #234, #79, #383 ) ;
#64 = EDGE_LOOP ( 'NONE', ( #659, #987, #532, #98 ) ) ;
#65 = SURFACE_SIDE_STYLE ('',( #631 ) ) ;
#66 = DIRECTION ( 'NONE',  ( 3.944304526105055524E-31, 1.000000000000000000, 0.000000000000000000 ) ) ;
#67 = ADVANCED_FACE ( 'NONE', ( #162 ), #316, .F. ) ;
#68 = CARTESIAN_POINT ( 'NONE',  ( -62.22500000000002984, 0.000000000000000000, -1.040834085586084257E-14 ) ) ;
#69 = ORIENTED_EDGE ( 'NONE', *, *, #115, .F. ) ;
#70 = VERTEX_POINT ( 'NONE', #551 ) ;
#71 = LINE ( 'NONE', #453, #863 ) ;
#72 = FACE_OUTER_BOUND ( 'NONE', #59, .T. ) ;
#73 = FACE_OUTER_BOUND ( 'NONE', #511, .T. ) ;
#74 = ADVANCED_FACE ( 'NONE', ( #869 ), #104, .F. ) ;
#75 = VERTEX_POINT ( 'NONE', #857 ) ;
#76 = AXIS2_PLACEMENT_3D ( 'NONE', #531, #43, #348 ) ;
#77 = ORIENTED_EDGE ( 'NONE', *, *, #822, .F. ) ;
#78 = DIRECTION ( 'NONE',  ( 3.944304526105055524E-31, 0.000000000000000000, 1.000000000000000000 ) ) ;
#79 = DIRECTION ( 'NONE',  ( -1.000000000000000000, -1.972152263052529514E-31, 0.000000000000000000 ) ) ;
#80 = EDGE_LOOP ( 'NONE', ( #219, #415 ) ) ;
#81 = CARTESIAN_POINT ( 'NONE',  ( -35.00000000000000000, -3.200000000000022382, 2.400000000000003020 ) ) ;
#82 =( LENGTH_UNIT ( ) NAMED_UNIT ( * ) SI_UNIT ( .MILLI., .METRE. ) );
#83 = CARTESIAN_POINT ( 'NONE',  ( 72.22500000000006537, 3.469446951953614189E-14, 3.469446951953614189E-14 ) ) ;
#84 = EDGE_LOOP ( 'NONE', ( #501, #903, #817, #360 ) ) ;
#85 = CARTESIAN_POINT ( 'NONE',  ( 71.72500000000000853, 3.469446951953614189E-14, 3.469446951953614189E-14 ) ) ;
#86 = DIRECTION ( 'NONE',  ( -1.000000000000000000, 0.000000000000000000, 3.944304526105055524E-31 ) ) ;
#87 = EDGE_CURVE ( 'NONE', #924, #699, #698, .T. ) ;
#88 = CYLINDRICAL_SURFACE ( 'NONE', #948, 1.999999999999994893 ) ;
#89 = DIRECTION ( 'NONE',  ( 0.000000000000000000, 0.000000000000000000, -1.000000000000000000 ) ) ;
#90 = VERTEX_POINT ( 'NONE', #482 ) ;
#91 = FACE_OUTER_BOUND ( 'NONE', #373, .T. ) ;
#92 =( LENGTH_UNIT ( ) NAMED_UNIT ( * ) SI_UNIT ( .MILLI., .METRE. ) );
#93 = AXIS2_PLACEMENT_3D ( 'NONE', #95, #710, #242 ) ;
#94 =( GEOMETRIC_REPRESENTATION_CONTEXT ( 3 ) GLOBAL_UNCERTAINTY_ASSIGNED_CONTEXT ( ( #816 ) ) GLOBAL_UNIT_ASSIGNED_CONTEXT ( ( #92, #475, #22 ) ) REPRESENTATION_CONTEXT ( 'NONE', 'WORKASPACE' ) );
#95 = CARTESIAN_POINT ( 'NONE',  ( -62.22500000000002984, 0.000000000000000000, -1.040834085586084257E-14 ) ) ;
#96 = PRODUCT ( '00712_SEP_PMD2_Spacer_Bar', '00712_SEP_PMD2_Spacer_Bar', '', ( #950 ) ) ;
#97 = VECTOR ( 'NONE', #358, 1000.000000000000000 ) ;
#98 = ORIENTED_EDGE ( 'NONE', *, *, #627, .T. ) ;
#99 = VECTOR ( 'NONE', #422, 1000.000000000000000 ) ;
#100 = FACE_OUTER_BOUND ( 'NONE', #545, .T. ) ;
#101 = PRODUCT_DEFINITION_CONTEXT ( 'detailed design', #735, 'design' ) ;
#102 = DIRECTION ( 'NONE',  ( 0.000000000000000000, 0.000000000000000000, 1.000000000000000000 ) ) ;
#103 = VERTEX_POINT ( 'NONE', #244 ) ;
#104 = CYLINDRICAL_SURFACE ( 'NONE', #775, 1.999999999999994893 ) ;
#105 = CARTESIAN_POINT ( 'NONE',  ( -30.00000000000000000, -3.200000000000008171, -2.428612866367529932E-14 ) ) ;
#106 = AXIS2_PLACEMENT_3D ( 'NONE', #85, #400, #700 ) ;
#107 = DIRECTION ( 'NONE',  ( -3.944304526105055524E-31, 0.000000000000000000, -1.000000000000000000 ) ) ;
#108 = EDGE_LOOP ( 'NONE', ( #420, #748, #819, #711 ) ) ;
#109 = DIRECTION ( 'NONE',  ( 0.000000000000000000, 0.000000000000000000, 1.000000000000000000 ) ) ;
#110 = DIRECTION ( 'NONE',  ( 3.944304526105055524E-31, 1.000000000000000000, 0.000000000000000000 ) ) ;
#111 = CIRCLE ( 'NONE', #194, 4.000000000000003553 ) ;
#112 =( LENGTH_UNIT ( ) NAMED_UNIT ( * ) SI_UNIT ( .MILLI., .METRE. ) );
#113 = ORIENTED_EDGE ( 'NONE', *, *, #730, .T. ) ;
#114 = MECHANICAL_DESIGN_GEOMETRIC_PRESENTATION_REPRESENTATION (  '', ( #440 ), #949 ) ;
#115 = EDGE_CURVE ( 'NONE', #90, #200, #266, .T. ) ;
#116 = LINE ( 'NONE', #725, #472 ) ;
#117 = VECTOR ( 'NONE', #979, 1000.000000000000000 ) ;
#118 = DIRECTION ( 'NONE',  ( -0.7071067811865496822, 8.659560562354892183E-17, -0.7071067811865454633 ) ) ;
#119 = DIRECTION ( 'NONE',  ( -1.000000000000000000, -1.972152263052529514E-31, 0.000000000000000000 ) ) ;
#120 = ORIENTED_EDGE ( 'NONE', *, *, #228, .T. ) ;
#121 = ADVANCED_FACE ( 'NONE', ( #555 ), #416, .F. ) ;
#122 =( NAMED_UNIT ( * ) PLANE_ANGLE_UNIT ( ) SI_UNIT ( $, .RADIAN. ) );
#123 = LINE ( 'NONE', #197, #137 ) ;
#124 = ADVANCED_BREP_SHAPE_REPRESENTATION ( '00712_SEP_PMD2_Spacer_Bar', ( #217, #733 ), #509 ) ;
#125 = CARTESIAN_POINT ( 'NONE',  ( 72.22500000000006537, 3.469446951953614189E-14, -1.649999999999955502 ) ) ;
#126 = EDGE_CURVE ( 'NONE', #729, #615, #502, .T. ) ;
#127 = EDGE_CURVE ( 'NONE', #394, #148, #515, .T. ) ;
#128 = DIRECTION ( 'NONE',  ( 0.000000000000000000, 0.000000000000000000, 1.000000000000000000 ) ) ;
#129 = AXIS2_PLACEMENT_3D ( 'NONE', #830, #626, #169 ) ;
#130 = ORIENTED_EDGE ( 'NONE', *, *, #158, .F. ) ;
#131 = STYLED_ITEM ( 'NONE', ( #34 ), #124 ) ;
#132 = CIRCLE ( 'NONE', #645, 1.649999999999991473 ) ;
#133 = CARTESIAN_POINT ( 'NONE',  ( -35.00000000000000000, 6.938893903907228378E-15, 0.000000000000000000 ) ) ;
#134 = ORIENTED_EDGE ( 'NONE', *, *, #508, .T. ) ;
#135 = ORIENTED_EDGE ( 'NONE', *, *, #36, .T. ) ;
#136 = SURFACE_STYLE_FILL_AREA ( #541 ) ;
#137 = VECTOR ( 'NONE', #888, 1000.000000000000000 ) ;
#138 = ORIENTED_EDGE ( 'NONE', *, *, #650, .T. ) ;
#139 = ADVANCED_FACE ( 'NONE', ( #91 ), #487, .F. ) ;
#140 = AXIS2_PLACEMENT_3D ( 'NONE', #265, #272, #174 ) ;
#141 = CARTESIAN_POINT ( 'NONE',  ( -12.45000000000001705, 3.200000000000001510, 1.999999999999991340 ) ) ;
#142 =( GEOMETRIC_REPRESENTATION_CONTEXT ( 3 ) GLOBAL_UNCERTAINTY_ASSIGNED_CONTEXT ( ( #558 ) ) GLOBAL_UNIT_ASSIGNED_CONTEXT ( ( #795, #483, #412 ) ) REPRESENTATION_CONTEXT ( 'NONE', 'WORKASPACE' ) );
#143 = ADVANCED_FACE ( 'NONE', ( #346 ), #728, .T. ) ;
#144 = VECTOR ( 'NONE', #514, 1000.000000000000000 ) ;
#145 = DIRECTION ( 'NONE',  ( -1.000000000000000000, -1.972152263052529514E-31, 0.000000000000000000 ) ) ;
#146 = VECTOR ( 'NONE', #118, 1000.000000000000114 ) ;
#147 = CARTESIAN_POINT ( 'NONE',  ( 72.22500000000006537, 3.469446951953614189E-14, 3.469446951953614189E-14 ) ) ;
#148 = VERTEX_POINT ( 'NONE', #463 ) ;
#149 = CARTESIAN_POINT ( 'NONE',  ( 30.00000000000001421, 3.200000000000022382, -1.999999999999975797 ) ) ;
#150 = DIRECTION ( 'NONE',  ( -1.000000000000000000, -1.972152263052529514E-31, 0.000000000000000000 ) ) ;
#151 = EDGE_CURVE ( 'NONE', #191, #75, #417, .T. ) ;
#152 = DIRECTION ( 'NONE',  ( 0.000000000000000000, 0.000000000000000000, -1.000000000000000000 ) ) ;
#153 = EDGE_LOOP ( 'NONE', ( #637, #69, #4, #900 ) ) ;
#154 = AXIS2_PLACEMENT_3D ( 'NONE', #26, #777, #172 ) ;
#155 = EDGE_LOOP ( 'NONE', ( #562, #786 ) ) ;
#156 = DIRECTION ( 'NONE',  ( 1.000000000000000000, 1.972152263052529514E-31, 0.000000000000000000 ) ) ;
#157 = CARTESIAN_POINT ( 'NONE',  ( -30.00000000000000000, 3.200000000000015277, 1.999999999999979128 ) ) ;
#158 = EDGE_CURVE ( 'NONE', #395, #25, #173, .T. ) ;
#159 = DIRECTION ( 'NONE',  ( 1.000000000000000000, 1.972152263052529514E-31, -0.000000000000000000 ) ) ;
#160 = ORIENTED_EDGE ( 'NONE', *, *, #457, .F. ) ;
#161 = AXIS2_PLACEMENT_3D ( 'NONE', #192, #491, #800 ) ;
#162 = FACE_OUTER_BOUND ( 'NONE', #754, .T. ) ;
#163 = DIRECTION ( 'NONE',  ( 1.000000000000000000, 1.972152263052529514E-31, 0.000000000000000000 ) ) ;
#164 = CARTESIAN_POINT ( 'NONE',  ( 72.22500000000006537, 3.469446951953614189E-14, 3.469446951953614189E-14 ) ) ;
#165 = CARTESIAN_POINT ( 'NONE',  ( -12.45000000000001705, -3.200000000000015277, -6.938893903907228378E-15 ) ) ;
#166 = VERTEX_POINT ( 'NONE', #205 ) ;
#167 = DIRECTION ( 'NONE',  ( 0.000000000000000000, 0.000000000000000000, -1.000000000000000000 ) ) ;
#168 = CARTESIAN_POINT ( 'NONE',  ( 72.22500000000006537, 3.469446951953614189E-14, -1.649999999999956835 ) ) ;
#169 = DIRECTION ( 'NONE',  ( 0.000000000000000000, 0.000000000000000000, -1.000000000000000000 ) ) ;
#170 = CARTESIAN_POINT ( 'NONE',  ( -30.00000000000000000, -3.200000000000008171, 1.999999999999968914 ) ) ;
#171 = ORIENTED_EDGE ( 'NONE', *, *, #904, .T. ) ;
#172 = DIRECTION ( 'NONE',  ( 0.000000000000000000, 0.000000000000000000, 1.000000000000000000 ) ) ;
#173 = CIRCLE ( 'NONE', #430, 1.649999999999991473 ) ;
#174 = DIRECTION ( 'NONE',  ( 0.000000000000000000, 0.000000000000000000, 1.000000000000000000 ) ) ;
#175 = DIRECTION ( 'NONE',  ( 3.944304526105055524E-31, 1.000000000000000000, -0.000000000000000000 ) ) ;
#176 = ORIENTED_EDGE ( 'NONE', *, *, #581, .F. ) ;
#177 = CARTESIAN_POINT ( 'NONE',  ( -30.00000000000000000, 3.200000000000015277, -1.040834085586084257E-14 ) ) ;
#178 = SURFACE_STYLE_FILL_AREA ( #492 ) ;
#179 = COLOUR_RGB ( '',0.7764705882352941346, 0.7568627450980391913, 0.7372549019607843590 ) ;
#180 = PLANE ( 'NONE',  #977 ) ;
#181 = AXIS2_PLACEMENT_3D ( 'NONE', #307, #922, #454 ) ;
#182 = ORIENTED_EDGE ( 'NONE', *, *, #584, .T. ) ;
#183 = LINE ( 'NONE', #796, #932 ) ;
#184 = DIRECTION ( 'NONE',  ( 3.944304526105055524E-31, 1.000000000000000000, -0.000000000000000000 ) ) ;
#185 = EDGE_CURVE ( 'NONE', #166, #827, #251, .T. ) ;
#186 = VERTEX_POINT ( 'NONE', #496 ) ;
#187 = CARTESIAN_POINT ( 'NONE',  ( 62.22500000000007248, -1.387778780781445676E-14, 4.163336342344337027E-14 ) ) ;
#188 = DIRECTION ( 'NONE',  ( -1.000000000000000000, -1.972152263052529514E-31, -0.000000000000000000 ) ) ;
#189 = FACE_OUTER_BOUND ( 'NONE', #971, .T. ) ;
#190 = ADVANCED_FACE ( 'NONE', ( #736, #209, #447, #500, #280 ), #504, .T. ) ;
#191 = VERTEX_POINT ( 'NONE', #583 ) ;
#192 = CARTESIAN_POINT ( 'NONE',  ( -71.72499999999998010, -6.938893903907228378E-15, -2.081668171172168513E-14 ) ) ;
#193 = FACE_OUTER_BOUND ( 'NONE', #153, .T. ) ;
#194 = AXIS2_PLACEMENT_3D ( 'NONE', #633, #689, #470 ) ;
#195 = SURFACE_SIDE_STYLE ('',( #877 ) ) ;
#196 = CIRCLE ( 'NONE', #629, 1.999999999999989564 ) ;
#197 = CARTESIAN_POINT ( 'NONE',  ( 62.22500000000007248, -1.367572108595514439E-14, 1.650000000000030331 ) ) ;
#198 = EDGE_CURVE ( 'NONE', #809, #231, #27, .T. ) ;
#199 = PLANE ( 'NONE',  #892 ) ;
#200 = VERTEX_POINT ( 'NONE', #350 ) ;
#201 = PRODUCT_RELATED_PRODUCT_CATEGORY ( 'part', '', ( #96 ) ) ;
#202 =( LENGTH_UNIT ( ) NAMED_UNIT ( * ) SI_UNIT ( .MILLI., .METRE. ) );
#203 = COLOUR_RGB ( '',0.7764705882352941346, 0.7568627450980391913, 0.7372549019607843590 ) ;
#204 = AXIS2_PLACEMENT_3D ( 'NONE', #864, #787, #342 ) ;
#205 = CARTESIAN_POINT ( 'NONE',  ( -12.45000000000001705, 3.200000000000008171, -1.999999999999998224 ) ) ;
#206 = ORIENTED_EDGE ( 'NONE', *, *, #198, .F. ) ;
#207 = SURFACE_STYLE_FILL_AREA ( #815 ) ;
#208 = CIRCLE ( 'NONE', #764, 4.000000000000003553 ) ;
#209 = FACE_BOUND ( 'NONE', #920, .T. ) ;
#210 = CONICAL_SURFACE ( 'NONE', #846, 4.000000000000003553, 0.7853981633974447263 ) ;
#211 = DIRECTION ( 'NONE',  ( 3.944304526105055524E-31, 1.000000000000000000, 0.000000000000000000 ) ) ;
#212 = EDGE_CURVE ( 'NONE', #103, #200, #123, .T. ) ;
#213 = VERTEX_POINT ( 'NONE', #958 ) ;
#214 = FILL_AREA_STYLE_COLOUR ( '', #766 ) ;
#215 = EDGE_LOOP ( 'NONE', ( #919, #957, #462, #914 ) ) ;
#216 = DIRECTION ( 'NONE',  ( 3.944304526105055524E-31, 0.000000000000000000, 1.000000000000000000 ) ) ;
#217 = MANIFOLD_SOLID_BREP ( 'Mirror6', #790 ) ;
#218 = COLOUR_RGB ( '',0.7764705882352941346, 0.7568627450980391913, 0.7372549019607843590 ) ;
#219 = ORIENTED_EDGE ( 'NONE', *, *, #127, .T. ) ;
#220 = ORIENTED_EDGE ( 'NONE', *, *, #722, .T. ) ;
#221 = EDGE_CURVE ( 'NONE', #351, #924, #359, .T. ) ;
#222 = CARTESIAN_POINT ( 'NONE',  ( -34.99999999999999289, -3.200000000000036149, -7.163548903125607659 ) ) ;
#223 = CYLINDRICAL_SURFACE ( 'NONE', #20, 4.000000000000003553 ) ;
#224 = COLOUR_RGB ( '',0.7764705882352941346, 0.7568627450980391913, 0.7372549019607843590 ) ;
#225 = CARTESIAN_POINT ( 'NONE',  ( -30.00000000000000000, -3.200000000000008171, -2.000000000000017319 ) ) ;
#226 = ORIENTED_EDGE ( 'NONE', *, *, #377, .T. ) ;
#227 = CARTESIAN_POINT ( 'NONE',  ( -62.22500000000002984, 0.000000000000000000, -1.040834085586084257E-14 ) ) ;
#228 = EDGE_CURVE ( 'NONE', #309, #351, #322, .T. ) ;
#229 = CARTESIAN_POINT ( 'NONE',  ( 35.00000000000000000, -3.200000000000022382, -7.163548903125614764 ) ) ;
#230 = FACE_OUTER_BOUND ( 'NONE', #549, .T. ) ;
#231 = VERTEX_POINT ( 'NONE', #580 ) ;
#232 = CARTESIAN_POINT ( 'NONE',  ( 72.22500000000006537, 3.469446951953614189E-14, 3.469446951953614189E-14 ) ) ;
#233 = DIRECTION ( 'NONE',  ( 3.944304526105055524E-31, 1.000000000000000000, 0.000000000000000000 ) ) ;
#234 = CARTESIAN_POINT ( 'NONE',  ( 72.22500000000006537, 3.469446951953614189E-14, 3.469446951953614189E-14 ) ) ;
#235 = CARTESIAN_POINT ( 'NONE',  ( -72.22499999999998010, 0.000000000000000000, -2.081668171172168513E-14 ) ) ;
#236 = ORIENTED_EDGE ( 'NONE', *, *, #744, .T. ) ;
#237 = AXIS2_PLACEMENT_3D ( 'NONE', #299, #606, #152 ) ;
#238 = FILL_AREA_STYLE_COLOUR ( '', #203 ) ;
#239 = SURFACE_STYLE_USAGE ( .BOTH. , #65 ) ;
#240 = CARTESIAN_POINT ( 'NONE',  ( 12.55000000000000604, 3.200000000000008171, 2.081668171172168513E-14 ) ) ;
#241 = CONICAL_SURFACE ( 'NONE', #61, 1.649999999999988809, 1.029744258676646984 ) ;
#242 = DIRECTION ( 'NONE',  ( 0.000000000000000000, 0.000000000000000000, 1.000000000000000000 ) ) ;
#243 = ORIENTED_EDGE ( 'NONE', *, *, #853, .T. ) ;
#244 = CARTESIAN_POINT ( 'NONE',  ( 61.23357997860455271, -1.387778780781445676E-14, 4.510281037539698445E-14 ) ) ;
#245 = LINE ( 'NONE', #222, #367 ) ;
#246 = DIRECTION ( 'NONE',  ( 0.000000000000000000, 0.000000000000000000, -1.000000000000000000 ) ) ;
#247 = FILL_AREA_STYLE ('',( #544 ) ) ;
#248 = ORIENTED_EDGE ( 'NONE', *, *, #24, .T. ) ;
#249 = EDGE_CURVE ( 'NONE', #51, #718, #357, .T. ) ;
#250 = SURFACE_STYLE_FILL_AREA ( #256 ) ;
#251 = CIRCLE ( 'NONE', #379, 1.999999999999989564 ) ;
#252 = DIRECTION ( 'NONE',  ( 0.000000000000000000, 0.000000000000000000, 1.000000000000000000 ) ) ;
#253 = FACE_OUTER_BOUND ( 'NONE', #490, .T. ) ;
#254 = VERTEX_POINT ( 'NONE', #510 ) ;
#255 = DIRECTION ( 'NONE',  ( 1.000000000000000000, 1.972152263052529514E-31, 0.000000000000000000 ) ) ;
#256 = FILL_AREA_STYLE ('',( #563 ) ) ;
#257 = STYLED_ITEM ( 'NONE', ( #654 ), #217 ) ;
#258 = ADVANCED_FACE ( 'NONE', ( #813 ), #905, .T. ) ;
#259 = CARTESIAN_POINT ( 'NONE',  ( -12.45000000000001705, 3.200000000000008171, -1.040834085586084257E-14 ) ) ;
#260 = AXIS2_PLACEMENT_3D ( 'NONE', #292, #597, #902 ) ;
#261 = EDGE_LOOP ( 'NONE', ( #433, #616, #160, #653 ) ) ;
#262 = CARTESIAN_POINT ( 'NONE',  ( 72.22500000000006537, 3.469446951953614189E-14, 3.469446951953614189E-14 ) ) ;
#263 = FACE_BOUND ( 'NONE', #155, .T. ) ;
#264 = ORIENTED_EDGE ( 'NONE', *, *, #720, .T. ) ;
#265 = CARTESIAN_POINT ( 'NONE',  ( -12.45000000000001705, 3.200000000000001510, -3.469446951953614189E-15 ) ) ;
#266 = CIRCLE ( 'NONE', #399, 1.649999999999988809 ) ;
#267 = CARTESIAN_POINT ( 'NONE',  ( -71.72499999999998010, -6.938893903907228378E-15, -2.081668171172168513E-14 ) ) ;
#268 = EDGE_CURVE ( 'NONE', #880, #471, #405, .T. ) ;
#269 = ORIENTED_EDGE ( 'NONE', *, *, #853, .F. ) ;
#270 = DIRECTION ( 'NONE',  ( -1.000000000000000000, -1.972152263052529514E-31, 0.000000000000000000 ) ) ;
#271 = ORIENTED_EDGE ( 'NONE', *, *, #377, .F. ) ;
#272 = DIRECTION ( 'NONE',  ( 3.944304526105055524E-31, 1.000000000000000000, 0.000000000000000000 ) ) ;
#273 =( GEOMETRIC_REPRESENTATION_CONTEXT ( 3 ) GLOBAL_UNCERTAINTY_ASSIGNED_CONTEXT ( ( #476 ) ) GLOBAL_UNIT_ASSIGNED_CONTEXT ( ( #770, #849, #831 ) ) REPRESENTATION_CONTEXT ( 'NONE', 'WORKASPACE' ) );
#274 = PLANE ( 'NONE',  #287 ) ;
#275 = EDGE_CURVE ( 'NONE', #231, #25, #116, .T. ) ;
#276 = VECTOR ( 'NONE', #972, 1000.000000000000114 ) ;
#277 = ORIENTED_EDGE ( 'NONE', *, *, #495, .F. ) ;
#278 = CIRCLE ( 'NONE', #521, 1.999999999999989564 ) ;
#279 = CARTESIAN_POINT ( 'NONE',  ( 35.00000000000000000, -3.200000000000022382, -2.400000000000006128 ) ) ;
#280 = FACE_OUTER_BOUND ( 'NONE', #108, .T. ) ;
#281 = ORIENTED_EDGE ( 'NONE', *, *, #650, .F. ) ;
#282 = LINE ( 'NONE', #57, #424 ) ;
#283 = CARTESIAN_POINT ( 'NONE',  ( 35.00000000000000000, 3.199999999999994404, -7.163548903125600553 ) ) ;
#284 = EDGE_CURVE ( 'NONE', #39, #51, #935, .T. ) ;
#285 = CARTESIAN_POINT ( 'NONE',  ( 12.55000000000000604, 3.199999999999980638, 2.000000000000015543 ) ) ;
#286 = VERTEX_POINT ( 'NONE', #384 ) ;
#287 = AXIS2_PLACEMENT_3D ( 'NONE', #578, #431, #216 ) ;
#288 = CARTESIAN_POINT ( 'NONE',  ( -72.22499999999998010, 2.020667218593120429E-16, -1.650000000000011013 ) ) ;
#289 = ADVANCED_FACE ( 'NONE', ( #622 ), #930, .F. ) ;
#290 = ORIENTED_EDGE ( 'NONE', *, *, #546, .T. ) ;
#291 = ORIENTED_EDGE ( 'NONE', *, *, #572, .T. ) ;
#292 = CARTESIAN_POINT ( 'NONE',  ( -72.22499999999998010, 0.000000000000000000, -2.081668171172168513E-14 ) ) ;
#293 = AXIS2_PLACEMENT_3D ( 'NONE', #648, #954, #167 ) ;
#294 = ORIENTED_EDGE ( 'NONE', *, *, #115, .T. ) ;
#295 = EDGE_LOOP ( 'NONE', ( #941, #130 ) ) ;
#296 = CARTESIAN_POINT ( 'NONE',  ( -30.00000000000000000, 3.200000000000015277, -1.040834085586084257E-14 ) ) ;
#297 = FACE_OUTER_BOUND ( 'NONE', #767, .T. ) ;
#298 = UNCERTAINTY_MEASURE_WITH_UNIT (LENGTH_MEASURE( 1.000000000000000082E-05 ), #938, 'distance_accuracy_value', 'NONE');
#299 = CARTESIAN_POINT ( 'NONE',  ( -12.45000000000001705, -3.200000000000015277, -6.938893903907228378E-15 ) ) ;
#300 =( GEOMETRIC_REPRESENTATION_CONTEXT ( 3 ) GLOBAL_UNCERTAINTY_ASSIGNED_CONTEXT ( ( #524 ) ) GLOBAL_UNIT_ASSIGNED_CONTEXT ( ( #112, #122, #636 ) ) REPRESENTATION_CONTEXT ( 'NONE', 'WORKASPACE' ) );
#301 = ORIENTED_EDGE ( 'NONE', *, *, #24, .F. ) ;
#302 = AXIS2_PLACEMENT_3D ( 'NONE', #834, #908, #78 ) ;
#303 = CARTESIAN_POINT ( 'NONE',  ( -34.99999999999999289, 3.199999999999987743, 2.399999999999982148 ) ) ;
#304 = PRODUCT_DEFINITION_FORMATION_WITH_SPECIFIED_SOURCE ( 'ANY', '', #96, .NOT_KNOWN. ) ;
#305 = CARTESIAN_POINT ( 'NONE',  ( 12.55000000000000604, -3.200000000000015277, -1.387778780781445676E-14 ) ) ;
#306 = AXIS2_PLACEMENT_3D ( 'NONE', #83, #446, #917 ) ;
#307 = CARTESIAN_POINT ( 'NONE',  ( 30.00000000000001421, 3.200000000000022382, 2.081668171172168513E-14 ) ) ;
#308 = SURFACE_STYLE_FILL_AREA ( #247 ) ;
#309 = VERTEX_POINT ( 'NONE', #170 ) ;
#310 = ORIENTED_EDGE ( 'NONE', *, *, #964, .T. ) ;
#311 = FACE_OUTER_BOUND ( 'NONE', #84, .T. ) ;
#312 = FACE_OUTER_BOUND ( 'NONE', #845, .T. ) ;
#313 = UNCERTAINTY_MEASURE_WITH_UNIT (LENGTH_MEASURE( 1.000000000000000082E-05 ), #596, 'distance_accuracy_value', 'NONE');
#314 = FACE_BOUND ( 'NONE', #295, .T. ) ;
#315 = ORIENTED_EDGE ( 'NONE', *, *, #657, .F. ) ;
#316 = CYLINDRICAL_SURFACE ( 'NONE', #984, 1.649999999999990141 ) ;
#317 = PLANE ( 'NONE',  #556 ) ;
#318 = FACE_OUTER_BOUND ( 'NONE', #554, .T. ) ;
#319 = EDGE_CURVE ( 'NONE', #695, #191, #780, .T. ) ;
#320 = DIRECTION ( 'NONE',  ( -0.7071067811865496822, -1.394522238736843756E-31, 0.7071067811865454633 ) ) ;
#321 = VERTEX_POINT ( 'NONE', #328 ) ;
#322 = CIRCLE ( 'NONE', #820, 1.999999999999994893 ) ;
#323 = PRESENTATION_LAYER_ASSIGNMENT (  '', '', ( #17 ) ) ;
#324 = DIRECTION ( 'NONE',  ( 3.944304526105055524E-31, 1.000000000000000000, 0.000000000000000000 ) ) ;
#325 = DIRECTION ( 'NONE',  ( 3.944304526105055524E-31, 0.000000000000000000, 1.000000000000000000 ) ) ;
#326 = DIRECTION ( 'NONE',  ( 0.000000000000000000, 0.000000000000000000, 1.000000000000000000 ) ) ;
#327 = CIRCLE ( 'NONE', #630, 1.649999999999991473 ) ;
#328 = CARTESIAN_POINT ( 'NONE',  ( 12.55000000000000604, 3.200000000000008171, 2.000000000000010658 ) ) ;
#329 = MECHANICAL_DESIGN_GEOMETRIC_PRESENTATION_REPRESENTATION (  '', ( #607 ), #94 ) ;
#330 = ORIENTED_EDGE ( 'NONE', *, *, #851, .T. ) ;
#331 =( NAMED_UNIT ( * ) PLANE_ANGLE_UNIT ( ) SI_UNIT ( $, .RADIAN. ) );
#332 =( NAMED_UNIT ( * ) PLANE_ANGLE_UNIT ( ) SI_UNIT ( $, .RADIAN. ) );
#333 = DIRECTION ( 'NONE',  ( 3.944304526105055524E-31, 1.000000000000000000, 0.000000000000000000 ) ) ;
#334 = CARTESIAN_POINT ( 'NONE',  ( 72.22500000000006537, 3.489653624139545741E-14, 1.650000000000025002 ) ) ;
#335 = EDGE_LOOP ( 'NONE', ( #458, #983, #608, #349 ) ) ;
#336 = ADVANCED_FACE ( 'NONE', ( #230, #314 ), #466, .F. ) ;
#337 = STYLED_ITEM ( 'NONE', ( #745 ), #67 ) ;
#338 = CYLINDRICAL_SURFACE ( 'NONE', #732, 1.649999999999990141 ) ;
#339 = CARTESIAN_POINT ( 'NONE',  ( 72.22500000000006537, -3.199999999999994404, -2.399999999999985256 ) ) ;
#340 = ORIENTED_EDGE ( 'NONE', *, *, #185, .F. ) ;
#341 = EDGE_CURVE ( 'NONE', #231, #809, #841, .T. ) ;
#342 = DIRECTION ( 'NONE',  ( -6.938893903907240211E-15, 0.000000000000000000, -1.000000000000000000 ) ) ;
#343 = DIRECTION ( 'NONE',  ( 1.000000000000000000, 0.000000000000000000, 0.000000000000000000 ) ) ;
#344 = DIRECTION ( 'NONE',  ( 0.000000000000000000, 8.881784197001252323E-16, -1.000000000000000000 ) ) ;
#345 = DIRECTION ( 'NONE',  ( 0.000000000000000000, 0.000000000000000000, -1.000000000000000000 ) ) ;
#346 = FACE_OUTER_BOUND ( 'NONE', #54, .T. ) ;
#347 = DIRECTION ( 'NONE',  ( 0.000000000000000000, 0.000000000000000000, -1.000000000000000000 ) ) ;
#348 = DIRECTION ( 'NONE',  ( 0.000000000000000000, 0.000000000000000000, 1.000000000000000000 ) ) ;
#349 = ORIENTED_EDGE ( 'NONE', *, *, #791, .T. ) ;
#350 = CARTESIAN_POINT ( 'NONE',  ( 62.22500000000007248, -1.367572108595514439E-14, 1.650000000000030331 ) ) ;
#351 = VERTEX_POINT ( 'NONE', #225 ) ;
#352 = AXIS2_PLACEMENT_3D ( 'NONE', #794, #33, #109 ) ;
#353 = EDGE_CURVE ( 'NONE', #885, #765, #963, .T. ) ;
#354 = DIRECTION ( 'NONE',  ( 0.000000000000000000, 0.000000000000000000, 1.000000000000000000 ) ) ;
#355 = ORIENTED_EDGE ( 'NONE', *, *, #581, .T. ) ;
#356 = MECHANICAL_DESIGN_GEOMETRIC_PRESENTATION_REPRESENTATION (  '', ( #257 ), #385 ) ;
#357 = LINE ( 'NONE', #283, #878 ) ;
#358 = DIRECTION ( 'NONE',  ( 1.000000000000000000, 1.972152263052529514E-31, 0.000000000000000000 ) ) ;
#359 = LINE ( 'NONE', #965, #588 ) ;
#360 = ORIENTED_EDGE ( 'NONE', *, *, #806, .F. ) ;
#361 = DIRECTION ( 'NONE',  ( 1.000000000000000000, 1.972152263052529514E-31, 0.000000000000000000 ) ) ;
#362 = CIRCLE ( 'NONE', #9, 3.500000000000019984 ) ;
#363 = ORIENTED_EDGE ( 'NONE', *, *, #126, .T. ) ;
#364 = FACE_OUTER_BOUND ( 'NONE', #737, .T. ) ;
#365 = VECTOR ( 'NONE', #956, 1000.000000000000000 ) ;
#366 = VECTOR ( 'NONE', #927, 1000.000000000000000 ) ;
#367 = VECTOR ( 'NONE', #459, 1000.000000000000000 ) ;
#368 = ORIENTED_EDGE ( 'NONE', *, *, #572, .F. ) ;
#369 = CONICAL_SURFACE ( 'NONE', #306, 3.500000000000019984, 0.7853981633974447263 ) ;
#370 = ORIENTED_EDGE ( 'NONE', *, *, #457, .T. ) ;
#371 = CIRCLE ( 'NONE', #966, 1.999999999999989564 ) ;
#372 = CARTESIAN_POINT ( 'NONE',  ( 62.22500000000007248, -1.387778780781445676E-14, -1.649999999999947065 ) ) ;
#373 = EDGE_LOOP ( 'NONE', ( #380, #248, #684, #694 ) ) ;
#374 = ORIENTED_EDGE ( 'NONE', *, *, #435, .F. ) ;
#375 = DIRECTION ( 'NONE',  ( -3.944304526105055524E-31, 0.000000000000000000, -1.000000000000000000 ) ) ;
#376 = VECTOR ( 'NONE', #449, 1000.000000000000000 ) ;
#377 = EDGE_CURVE ( 'NONE', #286, #809, #403, .T. ) ;
#378 =( NAMED_UNIT ( * ) SI_UNIT ( $, .STERADIAN. ) SOLID_ANGLE_UNIT ( ) );
#379 = AXIS2_PLACEMENT_3D ( 'NONE', #664, #807, #731 ) ;
#380 = ORIENTED_EDGE ( 'NONE', *, *, #530, .F. ) ;
#381 = LINE ( 'NONE', #149, #376 ) ;
#382 = DIRECTION ( 'NONE',  ( 3.944304526105055524E-31, 1.000000000000000000, 0.000000000000000000 ) ) ;
#383 = DIRECTION ( 'NONE',  ( 0.000000000000000000, 0.000000000000000000, 1.000000000000000000 ) ) ;
#384 = CARTESIAN_POINT ( 'NONE',  ( -61.23357997860451007, -1.387778780781445676E-14, -1.040834085586084257E-14 ) ) ;
#385 =( GEOMETRIC_REPRESENTATION_CONTEXT ( 3 ) GLOBAL_UNCERTAINTY_ASSIGNED_CONTEXT ( ( #681 ) ) GLOBAL_UNIT_ASSIGNED_CONTEXT ( ( #808, #970, #378 ) ) REPRESENTATION_CONTEXT ( 'NONE', 'WORKASPACE' ) );
#386 = VERTEX_POINT ( 'NONE', #408 ) ;
#387 = CIRCLE ( 'NONE', #929, 3.500000000000006217 ) ;
#388 = ORIENTED_EDGE ( 'NONE', *, *, #858, .T. ) ;
#389 = AXIS2_PLACEMENT_3D ( 'NONE', #305, #692, #617 ) ;
#390 = CARTESIAN_POINT ( 'NONE',  ( 30.00000000000001421, 3.200000000000022382, 2.000000000000017319 ) ) ;
#391 = AXIS2_PLACEMENT_3D ( 'NONE', #133, #55, #746 ) ;
#392 = FACE_OUTER_BOUND ( 'NONE', #64, .T. ) ;
#393 = CARTESIAN_POINT ( 'NONE',  ( -72.22499999999998010, 0.000000000000000000, -2.081668171172168513E-14 ) ) ;
#394 = VERTEX_POINT ( 'NONE', #537 ) ;
#395 = VERTEX_POINT ( 'NONE', #525 ) ;
#396 = EDGE_CURVE ( 'NONE', #718, #51, #111, .T. ) ;
#397 = DIRECTION ( 'NONE',  ( 0.000000000000000000, 0.000000000000000000, -1.000000000000000000 ) ) ;
#398 = ORIENTED_EDGE ( 'NONE', *, *, #396, .F. ) ;
#399 = AXIS2_PLACEMENT_3D ( 'NONE', #187, #473, #712 ) ;
#400 = DIRECTION ( 'NONE',  ( -1.000000000000000000, -1.972152263052529514E-31, -0.000000000000000000 ) ) ;
#401 = CARTESIAN_POINT ( 'NONE',  ( -62.22500000000002984, 0.000000000000000000, 1.649999999999978373 ) ) ;
#402 = PLANE ( 'NONE',  #707 ) ;
#403 = LINE ( 'NONE', #923, #605 ) ;
#404 = ORIENTED_EDGE ( 'NONE', *, *, #904, .F. ) ;
#405 = CIRCLE ( 'NONE', #161, 4.000000000000003553 ) ;
#406 = AXIS2_PLACEMENT_3D ( 'NONE', #393, #6, #774 ) ;
#407 = SURFACE_STYLE_USAGE ( .BOTH. , #639 ) ;
#408 = CARTESIAN_POINT ( 'NONE',  ( 12.55000000000000604, -3.200000000000015277, -2.000000000000007105 ) ) ;
#409 = CIRCLE ( 'NONE', #60, 3.500000000000019984 ) ;
#410 = VERTEX_POINT ( 'NONE', #451 ) ;
#411 = DIRECTION ( 'NONE',  ( 0.000000000000000000, 0.000000000000000000, -1.000000000000000000 ) ) ;
#412 =( NAMED_UNIT ( * ) SI_UNIT ( $, .STERADIAN. ) SOLID_ANGLE_UNIT ( ) );
#413 = SURFACE_STYLE_USAGE ( .BOTH. , #778 ) ;
#414 = DIRECTION ( 'NONE',  ( 1.000000000000000000, 1.972152263052529514E-31, 0.000000000000000000 ) ) ;
#415 = ORIENTED_EDGE ( 'NONE', *, *, #530, .T. ) ;
#416 = CYLINDRICAL_SURFACE ( 'NONE', #154, 1.999999999999994893 ) ;
#417 = CIRCLE ( 'NONE', #106, 4.000000000000003553 ) ;
#418 = FILL_AREA_STYLE_COLOUR ( '', #224 ) ;
#419 = FACE_BOUND ( 'NONE', #755, .T. ) ;
#420 = ORIENTED_EDGE ( 'NONE', *, *, #683, .T. ) ;
#421 = AXIS2_PLACEMENT_3D ( 'NONE', #267, #414, #345 ) ;
#422 = DIRECTION ( 'NONE',  ( -1.000000000000000000, -1.972152263052529514E-31, 0.000000000000000000 ) ) ;
#423 = FACE_BOUND ( 'NONE', #80, .T. ) ;
#424 = VECTOR ( 'NONE', #887, 1000.000000000000114 ) ;
#425 = EDGE_LOOP ( 'NONE', ( #936, #704, #959, #610 ) ) ;
#426 = FILL_AREA_STYLE_COLOUR ( '', #688 ) ;
#427 = CARTESIAN_POINT ( 'NONE',  ( 72.22500000000006537, 3.469446951953614189E-14, 4.000000000000038192 ) ) ;
#428 = FACE_BOUND ( 'NONE', #868, .T. ) ;
#429 = ORIENTED_EDGE ( 'NONE', *, *, #600, .T. ) ;
#430 = AXIS2_PLACEMENT_3D ( 'NONE', #14, #884, #128 ) ;
#431 = DIRECTION ( 'NONE',  ( -3.944304526105055524E-31, -1.000000000000000000, 1.555753819465282663E-61 ) ) ;
#432 = CIRCLE ( 'NONE', #663, 1.999999999999994893 ) ;
#433 = ORIENTED_EDGE ( 'NONE', *, *, #584, .F. ) ;
#434 = CARTESIAN_POINT ( 'NONE',  ( -71.72499999999998010, -6.449035184248286996E-15, 3.999999999999982681 ) ) ;
#435 = EDGE_CURVE ( 'NONE', #765, #885, #660, .T. ) ;
#436 = MECHANICAL_DESIGN_GEOMETRIC_PRESENTATION_REPRESENTATION (  '', ( #337 ), #598 ) ;
#437 = SURFACE_STYLE_USAGE ( .BOTH. , #443 ) ;
#438 = ADVANCED_FACE ( 'NONE', ( #73 ), #988, .F. ) ;
#439 =( NAMED_UNIT ( * ) PLANE_ANGLE_UNIT ( ) SI_UNIT ( $, .RADIAN. ) );
#440 = STYLED_ITEM ( 'NONE', ( #612 ), #982 ) ;
#441 = EDGE_LOOP ( 'NONE', ( #527, #761, #294 ) ) ;
#442 = VECTOR ( 'NONE', #145, 1000.000000000000000 ) ;
#443 = SURFACE_SIDE_STYLE ('',( #136 ) ) ;
#444 = DIRECTION ( 'NONE',  ( 3.944304526105055524E-31, 1.000000000000000000, 0.000000000000000000 ) ) ;
#445 = EDGE_CURVE ( 'NONE', #186, #592, #717, .T. ) ;
#446 = DIRECTION ( 'NONE',  ( -1.000000000000000000, -1.972152263052529514E-31, 0.000000000000000000 ) ) ;
#447 = FACE_BOUND ( 'NONE', #46, .T. ) ;
#448 = EDGE_LOOP ( 'NONE', ( #374, #760, #467, #539 ) ) ;
#449 = DIRECTION ( 'NONE',  ( 3.944304526105055524E-31, 1.000000000000000000, 0.000000000000000000 ) ) ;
#450 = CARTESIAN_POINT ( 'NONE',  ( 62.22500000000007248, -1.387778780781445676E-14, 4.163336342344337027E-14 ) ) ;
#451 = CARTESIAN_POINT ( 'NONE',  ( 72.22500000000006537, 3.515371206921640500E-14, -3.499999999999982236 ) ) ;
#452 = ORIENTED_EDGE ( 'NONE', *, *, #943, .F. ) ;
#453 = CARTESIAN_POINT ( 'NONE',  ( 12.55000000000000604, 3.199999999999980638, -1.999999999999974021 ) ) ;
#454 = DIRECTION ( 'NONE',  ( 0.000000000000000000, 0.000000000000000000, 1.000000000000000000 ) ) ;
#455 = FILL_AREA_STYLE ('',( #836 ) ) ;
#456 = CIRCLE ( 'NONE', #31, 1.999999999999994893 ) ;
#457 = EDGE_CURVE ( 'NONE', #592, #254, #208, .T. ) ;
#458 = ORIENTED_EDGE ( 'NONE', *, *, #779, .F. ) ;
#459 = DIRECTION ( 'NONE',  ( 0.000000000000000000, -5.551115123125779004E-17, 1.000000000000000000 ) ) ;
#460 = CONICAL_SURFACE ( 'NONE', #35, 1.649999999999988809, 1.029744258676646984 ) ;
#461 = DIRECTION ( 'NONE',  ( 0.000000000000000000, 5.551115123125779004E-17, -1.000000000000000000 ) ) ;
#462 = ORIENTED_EDGE ( 'NONE', *, *, #275, .T. ) ;
#463 = CARTESIAN_POINT ( 'NONE',  ( 30.00000000000001421, -3.199999999999973532, -2.000000000000015543 ) ) ;
#464 = LINE ( 'NONE', #390, #882 ) ;
#465 = DIRECTION ( 'NONE',  ( 0.000000000000000000, 0.000000000000000000, 1.000000000000000000 ) ) ;
#466 = PLANE ( 'NONE',  #406 ) ;
#467 = ORIENTED_EDGE ( 'NONE', *, *, #185, .T. ) ;
#468 = DIRECTION ( 'NONE',  ( 0.000000000000000000, 0.000000000000000000, -1.000000000000000000 ) ) ;
#469 = CARTESIAN_POINT ( 'NONE',  ( 72.22500000000006537, 3.512309589923772122E-14, -3.499999999999985345 ) ) ;
#470 = DIRECTION ( 'NONE',  ( 0.000000000000000000, 0.000000000000000000, -1.000000000000000000 ) ) ;
#471 = VERTEX_POINT ( 'NONE', #565 ) ;
#472 = VECTOR ( 'NONE', #40, 1000.000000000000000 ) ;
#473 = DIRECTION ( 'NONE',  ( 1.000000000000000000, 1.972152263052529514E-31, 0.000000000000000000 ) ) ;
#474 = APPLICATION_PROTOCOL_DEFINITION ( 'draft international standard', 'automotive_design', 1998, #735 ) ;
#475 =( NAMED_UNIT ( * ) PLANE_ANGLE_UNIT ( ) SI_UNIT ( $, .RADIAN. ) );
#476 = UNCERTAINTY_MEASURE_WITH_UNIT (LENGTH_MEASURE( 1.000000000000000082E-05 ), #770, 'distance_accuracy_value', 'NONE');
#477 = PRESENTATION_LAYER_ASSIGNMENT (  '', '', ( #131 ) ) ;
#478 = ADVANCED_FACE ( 'NONE', ( #940 ), #199, .F. ) ;
#479 = CIRCLE ( 'NONE', #181, 1.999999999999989564 ) ;
#480 = DIRECTION ( 'NONE',  ( 0.000000000000000000, 0.000000000000000000, 1.000000000000000000 ) ) ;
#481 = ORIENTED_EDGE ( 'NONE', *, *, #158, .T. ) ;
#482 = CARTESIAN_POINT ( 'NONE',  ( 62.22500000000007248, -1.387778780781445676E-14, -1.649999999999947065 ) ) ;
#483 =( NAMED_UNIT ( * ) PLANE_ANGLE_UNIT ( ) SI_UNIT ( $, .RADIAN. ) );
#484 = CARTESIAN_POINT ( 'NONE',  ( -12.45000000000001705, -3.200000000000015277, 1.999999999999986233 ) ) ;
#485 = DIRECTION ( 'NONE',  ( 0.000000000000000000, 0.000000000000000000, -1.000000000000000000 ) ) ;
#486 = ORIENTED_EDGE ( 'NONE', *, *, #627, .F. ) ;
#487 = CYLINDRICAL_SURFACE ( 'NONE', #352, 1.999999999999996669 ) ;
#488 = LINE ( 'NONE', #640, #747 ) ;
#489 = DIRECTION ( 'NONE',  ( 1.000000000000000000, 1.972152263052529514E-31, -3.944304526105055524E-31 ) ) ;
#490 = EDGE_LOOP ( 'NONE', ( #301, #623, #856, #850 ) ) ;
#491 = DIRECTION ( 'NONE',  ( 1.000000000000000000, 1.972152263052529514E-31, 0.000000000000000000 ) ) ;
#492 = FILL_AREA_STYLE ('',( #418 ) ) ;
#493 = DIRECTION ( 'NONE',  ( 1.000000000000000000, 0.000000000000000000, -3.944304526105055524E-31 ) ) ;
#494 = AXIS2_PLACEMENT_3D ( 'NONE', #240, #66, #848 ) ;
#495 = EDGE_CURVE ( 'NONE', #828, #386, #456, .T. ) ;
#496 = CARTESIAN_POINT ( 'NONE',  ( -35.00000000000000000, -3.200000000000036149, -2.400000000000003020 ) ) ;
#497 = ORIENTED_EDGE ( 'NONE', *, *, #739, .F. ) ;
#498 = EDGE_CURVE ( 'NONE', #200, #213, #651, .T. ) ;
#499 = CARTESIAN_POINT ( 'NONE',  ( 35.00000000000000711, -6.938893903907228378E-15, 3.469446951953614189E-14 ) ) ;
#500 = FACE_BOUND ( 'NONE', #670, .T. ) ;
#501 = ORIENTED_EDGE ( 'NONE', *, *, #890, .F. ) ;
#502 = CIRCLE ( 'NONE', #740, 3.500000000000006217 ) ;
#503 = LINE ( 'NONE', #372, #117 ) ;
#504 = PLANE ( 'NONE',  #939 ) ;
#505 = AXIS2_PLACEMENT_3D ( 'NONE', #147, #753, #682 ) ;
#506 = SURFACE_STYLE_USAGE ( .BOTH. , #891 ) ;
#507 = ADVANCED_FACE ( 'NONE', ( #253 ), #553, .F. ) ;
#508 = EDGE_CURVE ( 'NONE', #471, #880, #589, .T. ) ;
#509 =( GEOMETRIC_REPRESENTATION_CONTEXT ( 3 ) GLOBAL_UNCERTAINTY_ASSIGNED_CONTEXT ( ( #298 ) ) GLOBAL_UNIT_ASSIGNED_CONTEXT ( ( #938, #332, #783 ) ) REPRESENTATION_CONTEXT ( 'NONE', 'WORKASPACE' ) );
#510 = CARTESIAN_POINT ( 'NONE',  ( 35.00000000000001421, -3.200000000000001510, 2.399999999999961275 ) ) ;
#511 = EDGE_LOOP ( 'NONE', ( #271, #310, #978 ) ) ;
#512 = FACE_OUTER_BOUND ( 'NONE', #776, .T. ) ;
#513 = ADVANCED_FACE ( 'NONE', ( #189, #419 ), #180, .T. ) ;
#514 = DIRECTION ( 'NONE',  ( -1.000000000000000000, -1.972152263052529514E-31, 0.000000000000000000 ) ) ;
#515 = CIRCLE ( 'NONE', #204, 1.999999999999996669 ) ;
#516 = ORIENTED_EDGE ( 'NONE', *, *, #550, .F. ) ;
#517 = EDGE_CURVE ( 'NONE', #25, #395, #538, .T. ) ;
#518 = FACE_OUTER_BOUND ( 'NONE', #19, .T. ) ;
#519 = AXIS2_PLACEMENT_3D ( 'NONE', #235, #697, #1 ) ;
#520 = ORIENTED_EDGE ( 'NONE', *, *, #550, .T. ) ;
#521 = AXIS2_PLACEMENT_3D ( 'NONE', #855, #5, #326 ) ;
#522 = DIRECTION ( 'NONE',  ( 0.000000000000000000, 0.000000000000000000, -1.000000000000000000 ) ) ;
#523 = CARTESIAN_POINT ( 'NONE',  ( 72.22500000000006537, 3.469446951953614189E-14, 3.469446951953614189E-14 ) ) ;
#524 = UNCERTAINTY_MEASURE_WITH_UNIT (LENGTH_MEASURE( 1.000000000000000082E-05 ), #112, 'distance_accuracy_value', 'NONE');
#525 = CARTESIAN_POINT ( 'NONE',  ( -72.22499999999998010, 2.020667218593130043E-16, -1.650000000000010791 ) ) ;
#526 = ORIENTED_EDGE ( 'NONE', *, *, #943, .T. ) ;
#527 = ORIENTED_EDGE ( 'NONE', *, *, #212, .F. ) ;
#528 = CARTESIAN_POINT ( 'NONE',  ( -35.00000000000000000, 6.938893903907228378E-15, 0.000000000000000000 ) ) ;
#529 = LINE ( 'NONE', #229, #2 ) ;
#530 = EDGE_CURVE ( 'NONE', #148, #394, #912, .T. ) ;
#531 = CARTESIAN_POINT ( 'NONE',  ( -62.22500000000002984, 0.000000000000000000, -1.040834085586084257E-14 ) ) ;
#532 = ORIENTED_EDGE ( 'NONE', *, *, #806, .T. ) ;
#533 = LINE ( 'NONE', #141, #44 ) ;
#534 = DIRECTION ( 'NONE',  ( -0.5150380749100602618, -1.015733504992093566E-31, 0.8571673007021086699 ) ) ;
#535 = FACE_OUTER_BOUND ( 'NONE', #441, .T. ) ;
#536 = ADVANCED_FACE ( 'NONE', ( #646, #423, #428, #263, #727 ), #274, .T. ) ;
#537 = CARTESIAN_POINT ( 'NONE',  ( 30.00000000000001421, -3.199999999999973532, 1.999999999999974021 ) ) ;
#538 = CIRCLE ( 'NONE', #673, 1.649999999999991473 ) ;
#539 = ORIENTED_EDGE ( 'NONE', *, *, #62, .F. ) ;
#540 = VECTOR ( 'NONE', #534, 1000.000000000000000 ) ;
#541 = FILL_AREA_STYLE ('',( #238 ) ) ;
#542 = AXIS2_PLACEMENT_3D ( 'NONE', #883, #184, #485 ) ;
#543 = CARTESIAN_POINT ( 'NONE',  ( -30.00000000000000000, 3.200000000000015277, -1.040834085586084257E-14 ) ) ;
#544 = FILL_AREA_STYLE_COLOUR ( '', #179 ) ;
#545 = EDGE_LOOP ( 'NONE', ( #567, #602, #793 ) ) ;
#546 = EDGE_CURVE ( 'NONE', #809, #395, #669, .T. ) ;
#547 = DIRECTION ( 'NONE',  ( 0.000000000000000000, 0.000000000000000000, -1.000000000000000000 ) ) ;
#548 = DIRECTION ( 'NONE',  ( -1.000000000000000000, -1.972152263052529514E-31, 0.000000000000000000 ) ) ;
#549 = EDGE_LOOP ( 'NONE', ( #363, #330 ) ) ;
#550 = EDGE_CURVE ( 'NONE', #729, #471, #282, .T. ) ;
#551 = CARTESIAN_POINT ( 'NONE',  ( 30.00000000000001421, 3.200000000000022382, -1.999999999999967137 ) ) ;
#552 = CARTESIAN_POINT ( 'NONE',  ( 0.000000000000000000, 0.000000000000000000, 0.000000000000000000 ) ) ;
#553 = CYLINDRICAL_SURFACE ( 'NONE', #719, 1.999999999999996669 ) ;
#554 = EDGE_LOOP ( 'NONE', ( #269, #665, #798, #41 ) ) ;
#555 = FACE_OUTER_BOUND ( 'NONE', #832, .T. ) ;
#556 = AXIS2_PLACEMENT_3D ( 'NONE', #762, #86, #325 ) ;
#557 = CARTESIAN_POINT ( 'NONE',  ( 62.22500000000007248, -1.387778780781445676E-14, 4.163336342344337027E-14 ) ) ;
#558 = UNCERTAINTY_MEASURE_WITH_UNIT (LENGTH_MEASURE( 1.000000000000000082E-05 ), #795, 'distance_accuracy_value', 'NONE');
#559 = AXIS2_PLACEMENT_3D ( 'NONE', #296, #233, #989 ) ;
#560 = VECTOR ( 'NONE', #835, 1000.000000000000000 ) ;
#561 = DIRECTION ( 'NONE',  ( -3.944304526105055524E-31, 0.000000000000000000, -1.000000000000000000 ) ) ;
#562 = ORIENTED_EDGE ( 'NONE', *, *, #353, .T. ) ;
#563 = FILL_AREA_STYLE_COLOUR ( '', #881 ) ;
#564 = CARTESIAN_POINT ( 'NONE',  ( 62.22500000000007248, -1.387778780781445676E-14, 4.163336342344337027E-14 ) ) ;
#565 = CARTESIAN_POINT ( 'NONE',  ( -71.72499999999998010, 3.518432823919562522E-14, -4.000000000000021316 ) ) ;
#566 = ADVANCED_FACE ( 'NONE', ( #364 ), #811, .F. ) ;
#567 = ORIENTED_EDGE ( 'NONE', *, *, #594, .F. ) ;
#568 = CARTESIAN_POINT ( 'NONE',  ( 0.000000000000000000, 3.200000000000008171, -6.938893903907228378E-15 ) ) ;
#569 = APPLICATION_PROTOCOL_DEFINITION ( 'draft international standard', 'automotive_design', 1998, #969 ) ;
#570 = DIRECTION ( 'NONE',  ( 0.000000000000000000, 0.000000000000000000, -1.000000000000000000 ) ) ;
#571 = DIRECTION ( 'NONE',  ( 1.000000000000000000, 1.972152263052529514E-31, -0.000000000000000000 ) ) ;
#572 = EDGE_CURVE ( 'NONE', #615, #880, #976, .T. ) ;
#573 = ORIENTED_EDGE ( 'NONE', *, *, #975, .F. ) ;
#574 = FILL_AREA_STYLE ('',( #426 ) ) ;
#575 = MECHANICAL_DESIGN_GEOMETRIC_PRESENTATION_REPRESENTATION (  '', ( #17 ), #273 ) ;
#576 = CARTESIAN_POINT ( 'NONE',  ( -72.22499999999998010, 0.000000000000000000, -2.081668171172168513E-14 ) ) ;
#577 = MECHANICAL_DESIGN_GEOMETRIC_PRESENTATION_REPRESENTATION (  '', ( #131 ), #142 ) ;
#578 = CARTESIAN_POINT ( 'NONE',  ( 0.000000000000000000, -3.200000000000008171, -6.938893903907228378E-15 ) ) ;
#579 = AXIS2_PLACEMENT_3D ( 'NONE', #564, #37, #802 ) ;
#580 = CARTESIAN_POINT ( 'NONE',  ( -62.22500000000002984, 0.000000000000000000, 1.649999999999978373 ) ) ;
#581 = EDGE_CURVE ( 'NONE', #75, #471, #593, .T. ) ;
#582 = LINE ( 'NONE', #125, #97 ) ;
#583 = CARTESIAN_POINT ( 'NONE',  ( 71.72500000000000853, 3.469446951953612927E-14, 4.000000000000034639 ) ) ;
#584 = EDGE_CURVE ( 'NONE', #29, #186, #662, .T. ) ;
#585 = CARTESIAN_POINT ( 'NONE',  ( 12.55000000000000604, 3.199999999999980638, 2.081668171172168513E-14 ) ) ;
#586 = CARTESIAN_POINT ( 'NONE',  ( -30.00000000000000000, -3.200000000000008171, -2.428612866367529932E-14 ) ) ;
#587 = VERTEX_POINT ( 'NONE', #672 ) ;
#588 = VECTOR ( 'NONE', #874, 1000.000000000000000 ) ;
#589 = CIRCLE ( 'NONE', #421, 4.000000000000003553 ) ;
#590 = DIRECTION ( 'NONE',  ( 3.944304526105055524E-31, 1.000000000000000000, 0.000000000000000000 ) ) ;
#591 = PRESENTATION_LAYER_ASSIGNMENT (  '', '', ( #440 ) ) ;
#592 = VERTEX_POINT ( 'NONE', #279 ) ;
#593 = LINE ( 'NONE', #666, #442 ) ;
#594 = EDGE_CURVE ( 'NONE', #103, #90, #503, .T. ) ;
#595 = ORIENTED_EDGE ( 'NONE', *, *, #634, .F. ) ;
#596 =( LENGTH_UNIT ( ) NAMED_UNIT ( * ) SI_UNIT ( .MILLI., .METRE. ) );
#597 = DIRECTION ( 'NONE',  ( -1.000000000000000000, -1.972152263052529514E-31, 0.000000000000000000 ) ) ;
#598 =( GEOMETRIC_REPRESENTATION_CONTEXT ( 3 ) GLOBAL_UNCERTAINTY_ASSIGNED_CONTEXT ( ( #313 ) ) GLOBAL_UNIT_ASSIGNED_CONTEXT ( ( #596, #331, #638 ) ) REPRESENTATION_CONTEXT ( 'NONE', 'WORKASPACE' ) );
#599 = AXIS2_PLACEMENT_3D ( 'NONE', #177, #324, #721 ) ;
#600 = EDGE_CURVE ( 'NONE', #828, #321, #818, .T. ) ;
#601 = EDGE_LOOP ( 'NONE', ( #486, #3 ) ) ;
#602 = ORIENTED_EDGE ( 'NONE', *, *, #212, .T. ) ;
#603 = DIRECTION ( 'NONE',  ( -1.000000000000000000, 0.000000000000000000, -3.944304526105059903E-31 ) ) ;
#604 = DIRECTION ( 'NONE',  ( 1.000000000000000000, 0.000000000000000000, -3.944304526105055524E-31 ) ) ;
#605 = VECTOR ( 'NONE', #703, 1000.000000000000000 ) ;
#606 = DIRECTION ( 'NONE',  ( 3.944304526105055524E-31, 1.000000000000000000, -0.000000000000000000 ) ) ;
#607 = STYLED_ITEM ( 'NONE', ( #726 ), #895 ) ;
#608 = ORIENTED_EDGE ( 'NONE', *, *, #62, .T. ) ;
#609 =( GEOMETRIC_REPRESENTATION_CONTEXT ( 3 ) GLOBAL_UNCERTAINTY_ASSIGNED_CONTEXT ( ( #614 ) ) GLOBAL_UNIT_ASSIGNED_CONTEXT ( ( #202, #439, #661 ) ) REPRESENTATION_CONTEXT ( 'NONE', 'WORKASPACE' ) );
#610 = ORIENTED_EDGE ( 'NONE', *, *, #396, .T. ) ;
#611 = ADVANCED_FACE ( 'NONE', ( #518 ), #210, .T. ) ;
#612 = PRESENTATION_STYLE_ASSIGNMENT (( #239 ) ) ;
#613 = LINE ( 'NONE', #632, #366 ) ;
#614 = UNCERTAINTY_MEASURE_WITH_UNIT (LENGTH_MEASURE( 1.000000000000000082E-05 ), #202, 'distance_accuracy_value', 'NONE');
#615 = VERTEX_POINT ( 'NONE', #894 ) ;
#616 = ORIENTED_EDGE ( 'NONE', *, *, #720, .F. ) ;
#617 = DIRECTION ( 'NONE',  ( 0.000000000000000000, 0.000000000000000000, -1.000000000000000000 ) ) ;
#618 = PRODUCT_DEFINITION ( 'UNKNOWN', '', #304, #101 ) ;
#619 = CYLINDRICAL_SURFACE ( 'NONE', #63, 4.000000000000003553 ) ;
#620 = PRODUCT_DEFINITION_SHAPE ( 'NONE', 'NONE',  #618 ) ;
#621 = ADVANCED_FACE ( 'NONE', ( #512 ), #53, .F. ) ;
#622 = FACE_OUTER_BOUND ( 'NONE', #215, .T. ) ;
#623 = ORIENTED_EDGE ( 'NONE', *, *, #127, .F. ) ;
#624 = ORIENTED_EDGE ( 'NONE', *, *, #600, .F. ) ;
#625 = FACE_OUTER_BOUND ( 'NONE', #805, .T. ) ;
#626 = DIRECTION ( 'NONE',  ( -1.000000000000000000, -1.972152263052529514E-31, -0.000000000000000000 ) ) ;
#627 = EDGE_CURVE ( 'NONE', #699, #924, #371, .T. ) ;
#628 = ORIENTED_EDGE ( 'NONE', *, *, #495, .T. ) ;
#629 = AXIS2_PLACEMENT_3D ( 'NONE', #655, #870, #252 ) ;
#630 = AXIS2_PLACEMENT_3D ( 'NONE', #933, #163, #522 ) ;
#631 = SURFACE_STYLE_FILL_AREA ( #768 ) ;
#632 = CARTESIAN_POINT ( 'NONE',  ( -35.00000000000001421, 3.199999999999994404, -7.163548903125607659 ) ) ;
#633 = CARTESIAN_POINT ( 'NONE',  ( 35.00000000000000711, -6.938893903907228378E-15, 3.469446951953614189E-14 ) ) ;
#634 = EDGE_CURVE ( 'NONE', #90, #981, #582, .T. ) ;
#635 = ORIENTED_EDGE ( 'NONE', *, *, #508, .F. ) ;
#636 =( NAMED_UNIT ( * ) SI_UNIT ( $, .STERADIAN. ) SOLID_ANGLE_UNIT ( ) );
#637 = ORIENTED_EDGE ( 'NONE', *, *, #498, .F. ) ;
#638 =( NAMED_UNIT ( * ) SI_UNIT ( $, .STERADIAN. ) SOLID_ANGLE_UNIT ( ) );
#639 = SURFACE_SIDE_STYLE ('',( #250 ) ) ;
#640 = CARTESIAN_POINT ( 'NONE',  ( -30.00000000000000000, 3.200000000000015277, 1.999999999999984457 ) ) ;
#641 = ORIENTED_EDGE ( 'NONE', *, *, #851, .F. ) ;
#642 = VECTOR ( 'NONE', #571, 1000.000000000000000 ) ;
#643 = EDGE_CURVE ( 'NONE', #70, #587, #479, .T. ) ;
#644 = CARTESIAN_POINT ( 'NONE',  ( 72.22500000000006537, 3.469446951953614189E-14, 3.469446951953614189E-14 ) ) ;
#645 = AXIS2_PLACEMENT_3D ( 'NONE', #769, #702, #246 ) ;
#646 = FACE_BOUND ( 'NONE', #714, .T. ) ;
#647 = ORIENTED_EDGE ( 'NONE', *, *, #792, .F. ) ;
#648 = CARTESIAN_POINT ( 'NONE',  ( -71.72499999999998010, -6.938893903907228378E-15, -2.081668171172168513E-14 ) ) ;
#649 = DIRECTION ( 'NONE',  ( 0.000000000000000000, 0.000000000000000000, 1.000000000000000000 ) ) ;
#650 = EDGE_CURVE ( 'NONE', #321, #906, #812, .T. ) ;
#651 = LINE ( 'NONE', #334, #365 ) ;
#652 = ADVANCED_FACE ( 'NONE', ( #318 ), #369, .T. ) ;
#653 = ORIENTED_EDGE ( 'NONE', *, *, #445, .F. ) ;
#654 = PRESENTATION_STYLE_ASSIGNMENT (( #804 ) ) ;
#655 = CARTESIAN_POINT ( 'NONE',  ( 30.00000000000001421, 3.200000000000022382, 2.081668171172168513E-14 ) ) ;
#656 = SURFACE_STYLE_USAGE ( .BOTH. , #195 ) ;
#657 = EDGE_CURVE ( 'NONE', #254, #592, #529, .T. ) ;
#658 = DIRECTION ( 'NONE',  ( 3.944304526105055524E-31, 0.000000000000000000, 1.000000000000000000 ) ) ;
#659 = ORIENTED_EDGE ( 'NONE', *, *, #221, .F. ) ;
#660 = CIRCLE ( 'NONE', #237, 1.999999999999994893 ) ;
#661 =( NAMED_UNIT ( * ) SI_UNIT ( $, .STERADIAN. ) SOLID_ANGLE_UNIT ( ) );
#662 = CIRCLE ( 'NONE', #391, 4.000000000000003553 ) ;
#663 = AXIS2_PLACEMENT_3D ( 'NONE', #105, #960, #570 ) ;
#664 = CARTESIAN_POINT ( 'NONE',  ( -12.45000000000001705, 3.200000000000008171, -1.040834085586084257E-14 ) ) ;
#665 = ORIENTED_EDGE ( 'NONE', *, *, #36, .F. ) ;
#666 = CARTESIAN_POINT ( 'NONE',  ( 72.22500000000006537, 3.518432823919508248E-14, -3.999999999999968914 ) ) ;
#667 = DIRECTION ( 'NONE',  ( 3.944304526105055524E-31, 1.000000000000000000, -0.000000000000000000 ) ) ;
#668 = EDGE_LOOP ( 'NONE', ( #814, #226, #931 ) ) ;
#669 = LINE ( 'NONE', #288, #144 ) ;
#670 = EDGE_LOOP ( 'NONE', ( #674, #340 ) ) ;
#671 = VECTOR ( 'NONE', #320, 1000.000000000000114 ) ;
#672 = CARTESIAN_POINT ( 'NONE',  ( 30.00000000000001421, 3.200000000000022382, 2.000000000000010658 ) ) ;
#673 = AXIS2_PLACEMENT_3D ( 'NONE', #867, #119, #797 ) ;
#674 = ORIENTED_EDGE ( 'NONE', *, *, #791, .F. ) ;
#675 = DIRECTION ( 'NONE',  ( 0.000000000000000000, 0.000000000000000000, -1.000000000000000000 ) ) ;
#676 = ADVANCED_FACE ( 'NONE', ( #72, #773 ), #619, .T. ) ;
#677 = ORIENTED_EDGE ( 'NONE', *, *, #890, .T. ) ;
#678 = EDGE_LOOP ( 'NONE', ( #724, #243, #690, #821 ) ) ;
#679 = PLANE ( 'NONE',  #302 ) ;
#680 = CARTESIAN_POINT ( 'NONE',  ( -12.45000000000001705, -3.200000000000015277, -2.000000000000000000 ) ) ;
#681 = UNCERTAINTY_MEASURE_WITH_UNIT (LENGTH_MEASURE( 1.000000000000000082E-05 ), #808, 'distance_accuracy_value', 'NONE');
#682 = DIRECTION ( 'NONE',  ( 0.000000000000000000, 0.000000000000000000, 1.000000000000000000 ) ) ;
#683 = EDGE_CURVE ( 'NONE', #718, #833, #934, .T. ) ;
#684 = ORIENTED_EDGE ( 'NONE', *, *, #643, .T. ) ;
#685 = CARTESIAN_POINT ( 'NONE',  ( -72.22499999999998010, 0.000000000000000000, 1.649999999999970823 ) ) ;
#686 = FACE_OUTER_BOUND ( 'NONE', #691, .T. ) ;
#687 = DIRECTION ( 'NONE',  ( 1.000000000000000000, 1.972152263052529514E-31, 0.000000000000000000 ) ) ;
#688 = COLOUR_RGB ( '',0.7764705882352941346, 0.7568627450980391913, 0.7372549019607843590 ) ;
#689 = DIRECTION ( 'NONE',  ( 1.000000000000000000, 0.000000000000000000, 3.944304526105059903E-31 ) ) ;
#690 = ORIENTED_EDGE ( 'NONE', *, *, #151, .F. ) ;
#691 = EDGE_LOOP ( 'NONE', ( #370, #742 ) ) ;
#692 = DIRECTION ( 'NONE',  ( 3.944304526105055524E-31, 1.000000000000000000, -0.000000000000000000 ) ) ;
#693 = DIRECTION ( 'NONE',  ( 3.944304526105055524E-31, 1.000000000000000000, 0.000000000000000000 ) ) ;
#694 = ORIENTED_EDGE ( 'NONE', *, *, #928, .F. ) ;
#695 = VERTEX_POINT ( 'NONE', #16 ) ;
#696 = DIRECTION ( 'NONE',  ( 1.000000000000000000, 1.972152263052529514E-31, 0.000000000000000000 ) ) ;
#697 = DIRECTION ( 'NONE',  ( -1.000000000000000000, -1.972152263052529514E-31, 0.000000000000000000 ) ) ;
#698 = CIRCLE ( 'NONE', #599, 1.999999999999989564 ) ;
#699 = VERTEX_POINT ( 'NONE', #157 ) ;
#700 = DIRECTION ( 'NONE',  ( 0.000000000000000000, 0.000000000000000000, -1.000000000000000000 ) ) ;
#701 = FILL_AREA_STYLE_COLOUR ( '', #52 ) ;
#702 = DIRECTION ( 'NONE',  ( 1.000000000000000000, 1.972152263052529514E-31, 0.000000000000000000 ) ) ;
#703 = DIRECTION ( 'NONE',  ( -0.5150380749100602618, 1.049727191138613026E-16, -0.8571673007021086699 ) ) ;
#704 = ORIENTED_EDGE ( 'NONE', *, *, #942, .T. ) ;
#705 = DIRECTION ( 'NONE',  ( 0.000000000000000000, 0.000000000000000000, 1.000000000000000000 ) ) ;
#706 = AXIS2_PLACEMENT_3D ( 'NONE', #585, #211, #738 ) ;
#707 = AXIS2_PLACEMENT_3D ( 'NONE', #751, #604, #375 ) ;
#708 = LINE ( 'NONE', #469, #146 ) ;
#709 = EDGE_CURVE ( 'NONE', #981, #213, #132, .T. ) ;
#710 = DIRECTION ( 'NONE',  ( -1.000000000000000000, -1.972152263052529514E-31, 0.000000000000000000 ) ) ;
#711 = ORIENTED_EDGE ( 'NONE', *, *, #249, .T. ) ;
#712 = DIRECTION ( 'NONE',  ( 0.000000000000000000, 0.000000000000000000, -1.000000000000000000 ) ) ;
#713 = LINE ( 'NONE', #427, #99 ) ;
#714 = EDGE_LOOP ( 'NONE', ( #120, #677 ) ) ;
#715 = ADVANCED_FACE ( 'NONE', ( #535 ), #460, .F. ) ;
#716 = DIRECTION ( 'NONE',  ( -1.000000000000000000, -1.972152263052529514E-31, -0.000000000000000000 ) ) ;
#717 = LINE ( 'NONE', #339, #642 ) ;
#718 = VERTEX_POINT ( 'NONE', #909 ) ;
#719 = AXIS2_PLACEMENT_3D ( 'NONE', #961, #860, #480 ) ;
#720 = EDGE_CURVE ( 'NONE', #254, #29, #840, .T. ) ;
#721 = DIRECTION ( 'NONE',  ( 0.000000000000000000, 0.000000000000000000, 1.000000000000000000 ) ) ;
#722 = EDGE_CURVE ( 'NONE', #75, #191, #782, .T. ) ;
#723 = CYLINDRICAL_SURFACE ( 'NONE', #140, 1.999999999999994893 ) ;
#724 = ORIENTED_EDGE ( 'NONE', *, *, #730, .F. ) ;
#725 = CARTESIAN_POINT ( 'NONE',  ( -72.22499999999998010, 0.000000000000000000, 1.649999999999969491 ) ) ;
#726 = PRESENTATION_STYLE_ASSIGNMENT (( #413 ) ) ;
#727 = FACE_OUTER_BOUND ( 'NONE', #873, .T. ) ;
#728 = CONICAL_SURFACE ( 'NONE', #293, 4.000000000000003553, 0.7853981633974447263 ) ;
#729 = VERTEX_POINT ( 'NONE', #990 ) ;
#730 = EDGE_CURVE ( 'NONE', #410, #695, #409, .T. ) ;
#731 = DIRECTION ( 'NONE',  ( 0.000000000000000000, 0.000000000000000000, 1.000000000000000000 ) ) ;
#732 = AXIS2_PLACEMENT_3D ( 'NONE', #644, #156, #547 ) ;
#733 = AXIS2_PLACEMENT_3D ( 'NONE', #552, #705, #343 ) ;
#734 = DIRECTION ( 'NONE',  ( 0.000000000000000000, 0.000000000000000000, -1.000000000000000000 ) ) ;
#735 = APPLICATION_CONTEXT ( 'automotive_design' ) ;
#736 = FACE_BOUND ( 'NONE', #601, .T. ) ;
#737 = EDGE_LOOP ( 'NONE', ( #404, #277, #429, #138 ) ) ;
#738 = DIRECTION ( 'NONE',  ( 0.000000000000000000, 0.000000000000000000, 1.000000000000000000 ) ) ;
#739 = EDGE_CURVE ( 'NONE', #833, #39, #613, .T. ) ;
#740 = AXIS2_PLACEMENT_3D ( 'NONE', #21, #716, #468 ) ;
#741 = PRESENTATION_STYLE_ASSIGNMENT (( #506 ) ) ;
#742 = ORIENTED_EDGE ( 'NONE', *, *, #657, .T. ) ;
#743 = PRESENTATION_LAYER_ASSIGNMENT (  '', '', ( #257 ) ) ;
#744 = EDGE_CURVE ( 'NONE', #906, #321, #278, .T. ) ;
#745 = PRESENTATION_STYLE_ASSIGNMENT (( #437 ) ) ;
#746 = DIRECTION ( 'NONE',  ( 0.000000000000000000, 0.000000000000000000, -1.000000000000000000 ) ) ;
#747 = VECTOR ( 'NONE', #110, 1000.000000000000000 ) ;
#748 = ORIENTED_EDGE ( 'NONE', *, *, #739, .T. ) ;
#749 = EDGE_LOOP ( 'NONE', ( #947, #398 ) ) ;
#750 = LINE ( 'NONE', #401, #540 ) ;
#751 = CARTESIAN_POINT ( 'NONE',  ( -34.99999999999999289, -3.200000000000036149, -7.163548903125607659 ) ) ;
#752 = ADVANCED_FACE ( 'NONE', ( #392 ), #88, .F. ) ;
#753 = DIRECTION ( 'NONE',  ( -1.000000000000000000, -1.972152263052529514E-31, 0.000000000000000000 ) ) ;
#754 = EDGE_LOOP ( 'NONE', ( #77, #889, #526, #595 ) ) ;
#755 = EDGE_LOOP ( 'NONE', ( #913, #452 ) ) ;
#756 = DIRECTION ( 'NONE',  ( -1.000000000000000000, -1.972152263052529514E-31, 0.000000000000000000 ) ) ;
#757 = CARTESIAN_POINT ( 'NONE',  ( 72.22500000000006537, -3.200000000000015277, 2.400000000000027001 ) ) ;
#758 = ADVANCED_FACE ( 'NONE', ( #312 ), #402, .T. ) ;
#759 = CARTESIAN_POINT ( 'NONE',  ( 72.22500000000006537, 3.469446951953614189E-14, 3.500000000000054623 ) ) ;
#760 = ORIENTED_EDGE ( 'NONE', *, *, #779, .T. ) ;
#761 = ORIENTED_EDGE ( 'NONE', *, *, #594, .T. ) ;
#762 = CARTESIAN_POINT ( 'NONE',  ( 35.00000000000000000, -3.200000000000022382, -7.163548903125614764 ) ) ;
#763 = DIRECTION ( 'NONE',  ( 0.000000000000000000, 0.000000000000000000, -1.000000000000000000 ) ) ;
#764 = AXIS2_PLACEMENT_3D ( 'NONE', #499, #38, #102 ) ;
#765 = VERTEX_POINT ( 'NONE', #680 ) ;
#766 = COLOUR_RGB ( '',0.7764705882352941346, 0.7568627450980391913, 0.7372549019607843590 ) ;
#767 = EDGE_LOOP ( 'NONE', ( #925, #355, #134, #32 ) ) ;
#768 = FILL_AREA_STYLE ('',( #701 ) ) ;
#769 = CARTESIAN_POINT ( 'NONE',  ( 72.22500000000006537, 3.469446951953614189E-14, 3.469446951953614189E-14 ) ) ;
#770 =( LENGTH_UNIT ( ) NAMED_UNIT ( * ) SI_UNIT ( .MILLI., .METRE. ) );
#771 = ORIENTED_EDGE ( 'NONE', *, *, #126, .F. ) ;
#772 = ADVANCED_FACE ( 'NONE', ( #985, #297 ), #223, .T. ) ;
#773 = FACE_BOUND ( 'NONE', #261, .T. ) ;
#774 = DIRECTION ( 'NONE',  ( -3.944304526105055524E-31, 0.000000000000000000, -1.000000000000000000 ) ) ;
#775 = AXIS2_PLACEMENT_3D ( 'NONE', #852, #30, #937 ) ;
#776 = EDGE_LOOP ( 'NONE', ( #206, #290, #481, #13 ) ) ;
#777 = DIRECTION ( 'NONE',  ( 3.944304526105055524E-31, 1.000000000000000000, 0.000000000000000000 ) ) ;
#778 = SURFACE_SIDE_STYLE ('',( #178 ) ) ;
#779 = EDGE_CURVE ( 'NONE', #765, #166, #183, .T. ) ;
#780 = LINE ( 'NONE', #759, #671 ) ;
#781 = ORIENTED_EDGE ( 'NONE', *, *, #744, .F. ) ;
#782 = CIRCLE ( 'NONE', #129, 4.000000000000003553 ) ;
#783 =( NAMED_UNIT ( * ) SI_UNIT ( $, .STERADIAN. ) SOLID_ANGLE_UNIT ( ) );
#784 = DIRECTION ( 'NONE',  ( 0.000000000000000000, 0.000000000000000000, 1.000000000000000000 ) ) ;
#785 = CARTESIAN_POINT ( 'NONE',  ( 72.22500000000006537, 3.469446951953614189E-14, 3.469446951953614189E-14 ) ) ;
#786 = ORIENTED_EDGE ( 'NONE', *, *, #435, .T. ) ;
#787 = DIRECTION ( 'NONE',  ( 3.944304526105055524E-31, 1.000000000000000000, -0.000000000000000000 ) ) ;
#788 = FACE_OUTER_BOUND ( 'NONE', #335, .T. ) ;
#789 = CARTESIAN_POINT ( 'NONE',  ( 35.00000000000000000, 3.199999999999994404, -7.163548903125600553 ) ) ;
#790 = CLOSED_SHELL ( 'NONE', ( #143, #621, #982, #258, #67, #844, #952, #139, #121, #74, #772, #676, #886, #566, #507, #752, #513, #336, #715, #895, #652, #438, #289, #611, #899, #478, #190, #758, #916, #536 ) ) ;
#791 = EDGE_CURVE ( 'NONE', #827, #166, #910, .T. ) ;
#792 = EDGE_CURVE ( 'NONE', #587, #70, #196, .T. ) ;
#793 = ORIENTED_EDGE ( 'NONE', *, *, #822, .T. ) ;
#794 = CARTESIAN_POINT ( 'NONE',  ( 30.00000000000001421, 3.200000000000022382, 2.081668171172168513E-14 ) ) ;
#795 =( LENGTH_UNIT ( ) NAMED_UNIT ( * ) SI_UNIT ( .MILLI., .METRE. ) );
#796 = CARTESIAN_POINT ( 'NONE',  ( -12.45000000000001705, 3.200000000000001510, -1.999999999999998224 ) ) ;
#797 = DIRECTION ( 'NONE',  ( 0.000000000000000000, 0.000000000000000000, 1.000000000000000000 ) ) ;
#798 = ORIENTED_EDGE ( 'NONE', *, *, #319, .T. ) ;
#799 = MECHANICAL_DESIGN_GEOMETRIC_PRESENTATION_REPRESENTATION (  '', ( #58 ), #300 ) ;
#800 = DIRECTION ( 'NONE',  ( 0.000000000000000000, 0.000000000000000000, -1.000000000000000000 ) ) ;
#801 = CIRCLE ( 'NONE', #843, 4.000000000000003553 ) ;
#802 = DIRECTION ( 'NONE',  ( 0.000000000000000000, 0.000000000000000000, -1.000000000000000000 ) ) ;
#803 = MECHANICAL_DESIGN_GEOMETRIC_PRESENTATION_REPRESENTATION (  '', ( #826 ), #609 ) ;
#804 = SURFACE_STYLE_USAGE ( .BOTH. , #879 ) ;
#805 = EDGE_LOOP ( 'NONE', ( #497, #862 ) ) ;
#806 = EDGE_CURVE ( 'NONE', #309, #699, #488, .T. ) ;
#807 = DIRECTION ( 'NONE',  ( 3.944304526105055524E-31, 1.000000000000000000, 0.000000000000000000 ) ) ;
#808 =( LENGTH_UNIT ( ) NAMED_UNIT ( * ) SI_UNIT ( .MILLI., .METRE. ) );
#809 = VERTEX_POINT ( 'NONE', #944 ) ;
#810 = CIRCLE ( 'NONE', #579, 1.649999999999988809 ) ;
#811 = CYLINDRICAL_SURFACE ( 'NONE', #706, 1.999999999999994893 ) ;
#812 = CIRCLE ( 'NONE', #494, 1.999999999999989564 ) ;
#813 = FACE_OUTER_BOUND ( 'NONE', #678, .T. ) ;
#814 = ORIENTED_EDGE ( 'NONE', *, *, #964, .F. ) ;
#815 = FILL_AREA_STYLE ('',( #214 ) ) ;
#816 = UNCERTAINTY_MEASURE_WITH_UNIT (LENGTH_MEASURE( 1.000000000000000082E-05 ), #92, 'distance_accuracy_value', 'NONE');
#817 = ORIENTED_EDGE ( 'NONE', *, *, #87, .T. ) ;
#818 = LINE ( 'NONE', #285, #865 ) ;
#819 = ORIENTED_EDGE ( 'NONE', *, *, #284, .T. ) ;
#820 = AXIS2_PLACEMENT_3D ( 'NONE', #586, #667, #973 ) ;
#821 = ORIENTED_EDGE ( 'NONE', *, *, #319, .F. ) ;
#822 = EDGE_CURVE ( 'NONE', #200, #90, #810, .T. ) ;
#823 = CARTESIAN_POINT ( 'NONE',  ( -30.00000000000000000, 3.200000000000015277, -1.040834085586084257E-14 ) ) ;
#824 = AXIS2_PLACEMENT_3D ( 'NONE', #557, #866, #347 ) ;
#825 = CIRCLE ( 'NONE', #389, 1.999999999999994893 ) ;
#826 = STYLED_ITEM ( 'NONE', ( #741 ), #621 ) ;
#827 = VERTEX_POINT ( 'NONE', #42 ) ;
#828 = VERTEX_POINT ( 'NONE', #955 ) ;
#829 =( NAMED_UNIT ( * ) SI_UNIT ( $, .STERADIAN. ) SOLID_ANGLE_UNIT ( ) );
#830 = CARTESIAN_POINT ( 'NONE',  ( 71.72500000000000853, 3.469446951953614189E-14, 3.469446951953614189E-14 ) ) ;
#831 =( NAMED_UNIT ( * ) SI_UNIT ( $, .STERADIAN. ) SOLID_ANGLE_UNIT ( ) );
#832 = EDGE_LOOP ( 'NONE', ( #837, #171, #236, #624 ) ) ;
#833 = VERTEX_POINT ( 'NONE', #876 ) ;
#834 = CARTESIAN_POINT ( 'NONE',  ( -35.00000000000001421, 3.199999999999994404, -7.163548903125607659 ) ) ;
#835 = DIRECTION ( 'NONE',  ( -1.000000000000000000, -1.972152263052529514E-31, 0.000000000000000000 ) ) ;
#836 = FILL_AREA_STYLE_COLOUR ( '', #218 ) ;
#837 = ORIENTED_EDGE ( 'NONE', *, *, #962, .F. ) ;
#838 = DIRECTION ( 'NONE',  ( 3.944304526105055524E-31, 1.000000000000000000, 0.000000000000000000 ) ) ;
#839 = CARTESIAN_POINT ( 'NONE',  ( -30.00000000000000000, 3.200000000000015277, -1.999999999999998224 ) ) ;
#840 = LINE ( 'NONE', #757, #896 ) ;
#841 = CIRCLE ( 'NONE', #93, 1.649999999999988809 ) ;
#842 = SURFACE_STYLE_USAGE ( .BOTH. , #12 ) ;
#843 = AXIS2_PLACEMENT_3D ( 'NONE', #528, #603, #926 ) ;
#844 = ADVANCED_FACE ( 'NONE', ( #100 ), #50, .F. ) ;
#845 = EDGE_LOOP ( 'NONE', ( #986, #182 ) ) ;
#846 = AXIS2_PLACEMENT_3D ( 'NONE', #898, #361, #734 ) ;
#847 = FACE_OUTER_BOUND ( 'NONE', #668, .T. ) ;
#848 = DIRECTION ( 'NONE',  ( 0.000000000000000000, 0.000000000000000000, 1.000000000000000000 ) ) ;
#849 =( NAMED_UNIT ( * ) PLANE_ANGLE_UNIT ( ) SI_UNIT ( $, .RADIAN. ) );
#850 = ORIENTED_EDGE ( 'NONE', *, *, #792, .T. ) ;
#851 = EDGE_CURVE ( 'NONE', #615, #729, #387, .T. ) ;
#852 = CARTESIAN_POINT ( 'NONE',  ( -12.45000000000001705, 3.200000000000001510, -3.469446951953614189E-15 ) ) ;
#853 = EDGE_CURVE ( 'NONE', #410, #75, #708, .T. ) ;
#854 = CYLINDRICAL_SURFACE ( 'NONE', #559, 1.999999999999994893 ) ;
#855 = CARTESIAN_POINT ( 'NONE',  ( 12.55000000000000604, 3.200000000000008171, 2.081668171172168513E-14 ) ) ;
#856 = ORIENTED_EDGE ( 'NONE', *, *, #928, .T. ) ;
#857 = CARTESIAN_POINT ( 'NONE',  ( 71.72500000000000853, 3.518432823919506986E-14, -3.999999999999965361 ) ) ;
#858 = EDGE_CURVE ( 'NONE', #191, #880, #713, .T. ) ;
#859 = DIRECTION ( 'NONE',  ( 3.944304526105055524E-31, 1.000000000000000000, 0.000000000000000000 ) ) ;
#860 = DIRECTION ( 'NONE',  ( 3.944304526105055524E-31, 1.000000000000000000, 0.000000000000000000 ) ) ;
#861 = PRESENTATION_LAYER_ASSIGNMENT (  '', '', ( #58 ) ) ;
#862 = ORIENTED_EDGE ( 'NONE', *, *, #942, .F. ) ;
#863 = VECTOR ( 'NONE', #382, 1000.000000000000000 ) ;
#864 = CARTESIAN_POINT ( 'NONE',  ( 30.00000000000000000, -3.199999999999973532, -2.081668171172168513E-14 ) ) ;
#865 = VECTOR ( 'NONE', #590, 1000.000000000000000 ) ;
#866 = DIRECTION ( 'NONE',  ( 1.000000000000000000, 1.972152263052529514E-31, 0.000000000000000000 ) ) ;
#867 = CARTESIAN_POINT ( 'NONE',  ( -72.22499999999998010, 0.000000000000000000, -2.081668171172168513E-14 ) ) ;
#868 = EDGE_LOOP ( 'NONE', ( #628, #7 ) ) ;
#869 = FACE_OUTER_BOUND ( 'NONE', #448, .T. ) ;
#870 = DIRECTION ( 'NONE',  ( 3.944304526105055524E-31, 1.000000000000000000, 0.000000000000000000 ) ) ;
#871 = DIRECTION ( 'NONE',  ( 0.000000000000000000, 0.000000000000000000, -1.000000000000000000 ) ) ;
#872 = PRESENTATION_LAYER_ASSIGNMENT (  '', '', ( #337 ) ) ;
#873 = EDGE_LOOP ( 'NONE', ( #264, #573, #953, #315 ) ) ;
#874 = DIRECTION ( 'NONE',  ( 3.944304526105055524E-31, 1.000000000000000000, 0.000000000000000000 ) ) ;
#875 = SHAPE_DEFINITION_REPRESENTATION ( #620, #124 ) ;
#876 = CARTESIAN_POINT ( 'NONE',  ( -35.00000000000000000, 3.199999999999987743, -2.400000000000016787 ) ) ;
#877 = SURFACE_STYLE_FILL_AREA ( #455 ) ;
#878 = VECTOR ( 'NONE', #893, 1000.000000000000000 ) ;
#879 = SURFACE_SIDE_STYLE ('',( #49 ) ) ;
#880 = VERTEX_POINT ( 'NONE', #951 ) ;
#881 = COLOUR_RGB ( '',0.7764705882352941346, 0.7568627450980391913, 0.7372549019607843590 ) ;
#882 = VECTOR ( 'NONE', #444, 1000.000000000000000 ) ;
#883 = CARTESIAN_POINT ( 'NONE',  ( 30.00000000000000000, -3.199999999999973532, -2.081668171172168513E-14 ) ) ;
#884 = DIRECTION ( 'NONE',  ( -1.000000000000000000, -1.972152263052529514E-31, 0.000000000000000000 ) ) ;
#885 = VERTEX_POINT ( 'NONE', #484 ) ;
#886 = ADVANCED_FACE ( 'NONE', ( #788 ), #723, .F. ) ;
#887 = DIRECTION ( 'NONE',  ( 0.7071067811865496822, 1.394522238736843756E-31, -0.7071067811865454633 ) ) ;
#888 = DIRECTION ( 'NONE',  ( 0.5150380749100602618, 1.049727191138614998E-16, 0.8571673007021086699 ) ) ;
#889 = ORIENTED_EDGE ( 'NONE', *, *, #498, .T. ) ;
#890 = EDGE_CURVE ( 'NONE', #351, #309, #432, .T. ) ;
#891 = SURFACE_SIDE_STYLE ('',( #207 ) ) ;
#892 = AXIS2_PLACEMENT_3D ( 'NONE', #789, #493, #107 ) ;
#893 = DIRECTION ( 'NONE',  ( 0.000000000000000000, 5.551115123125779004E-17, -1.000000000000000000 ) ) ;
#894 = CARTESIAN_POINT ( 'NONE',  ( -72.22499999999998010, -6.479651354226965261E-15, 3.499999999999982236 ) ) ;
#895 = ADVANCED_FACE ( 'NONE', ( #193 ), #338, .F. ) ;
#896 = VECTOR ( 'NONE', #548, 1000.000000000000000 ) ;
#897 = ORIENTED_EDGE ( 'NONE', *, *, #643, .F. ) ;
#898 = CARTESIAN_POINT ( 'NONE',  ( -71.72499999999998010, -6.938893903907228378E-15, -2.081668171172168513E-14 ) ) ;
#899 = ADVANCED_FACE ( 'NONE', ( #625 ), #679, .F. ) ;
#900 = ORIENTED_EDGE ( 'NONE', *, *, #709, .T. ) ;
#901 = DIRECTION ( 'NONE',  ( 1.000000000000000000, 1.972152263052529514E-31, 0.000000000000000000 ) ) ;
#902 = DIRECTION ( 'NONE',  ( 0.000000000000000000, 0.000000000000000000, 1.000000000000000000 ) ) ;
#903 = ORIENTED_EDGE ( 'NONE', *, *, #221, .T. ) ;
#904 = EDGE_CURVE ( 'NONE', #386, #906, #71, .T. ) ;
#905 = CONICAL_SURFACE ( 'NONE', #505, 3.500000000000019984, 0.7853981633974447263 ) ;
#906 = VERTEX_POINT ( 'NONE', #921 ) ;
#907 = AXIS2_PLACEMENT_3D ( 'NONE', #165, #175, #89 ) ;
#908 = DIRECTION ( 'NONE',  ( -1.000000000000000000, 0.000000000000000000, 3.944304526105055524E-31 ) ) ;
#909 = CARTESIAN_POINT ( 'NONE',  ( 35.00000000000000000, 3.199999999999994404, -2.399999999999985256 ) ) ;
#910 = CIRCLE ( 'NONE', #967, 1.999999999999989564 ) ;
#911 = CARTESIAN_POINT ( 'NONE',  ( 72.22500000000006537, 3.199999999999987743, 2.400000000000027001 ) ) ;
#912 = CIRCLE ( 'NONE', #542, 1.999999999999996669 ) ;
#913 = ORIENTED_EDGE ( 'NONE', *, *, #709, .F. ) ;
#914 = ORIENTED_EDGE ( 'NONE', *, *, #517, .T. ) ;
#915 = DIRECTION ( 'NONE',  ( 0.000000000000000000, 0.000000000000000000, 1.000000000000000000 ) ) ;
#916 = ADVANCED_FACE ( 'NONE', ( #686 ), #317, .T. ) ;
#917 = DIRECTION ( 'NONE',  ( 0.000000000000000000, 0.000000000000000000, 1.000000000000000000 ) ) ;
#918 = PRESENTATION_STYLE_ASSIGNMENT (( #842 ) ) ;
#919 = ORIENTED_EDGE ( 'NONE', *, *, #546, .F. ) ;
#920 = EDGE_LOOP ( 'NONE', ( #647, #897 ) ) ;
#921 = CARTESIAN_POINT ( 'NONE',  ( 12.55000000000000604, 3.200000000000008171, -1.999999999999967137 ) ) ;
#922 = DIRECTION ( 'NONE',  ( 3.944304526105055524E-31, 1.000000000000000000, 0.000000000000000000 ) ) ;
#923 = CARTESIAN_POINT ( 'NONE',  ( -62.22500000000002984, 2.020667218593118950E-16, -1.649999999999999023 ) ) ;
#924 = VERTEX_POINT ( 'NONE', #839 ) ;
#925 = ORIENTED_EDGE ( 'NONE', *, *, #151, .T. ) ;
#926 = DIRECTION ( 'NONE',  ( 0.000000000000000000, 0.000000000000000000, 1.000000000000000000 ) ) ;
#927 = DIRECTION ( 'NONE',  ( 0.000000000000000000, -5.551115123125779004E-17, 1.000000000000000000 ) ) ;
#928 = EDGE_CURVE ( 'NONE', #394, #587, #464, .T. ) ;
#929 = AXIS2_PLACEMENT_3D ( 'NONE', #576, #188, #344 ) ;
#930 = CYLINDRICAL_SURFACE ( 'NONE', #519, 1.649999999999990141 ) ;
#931 = ORIENTED_EDGE ( 'NONE', *, *, #198, .T. ) ;
#932 = VECTOR ( 'NONE', #859, 1000.000000000000000 ) ;
#933 = CARTESIAN_POINT ( 'NONE',  ( 72.22500000000006537, 3.469446951953614189E-14, 3.469446951953614189E-14 ) ) ;
#934 = LINE ( 'NONE', #10, #560 ) ;
#935 = LINE ( 'NONE', #911, #48 ) ;
#936 = ORIENTED_EDGE ( 'NONE', *, *, #284, .F. ) ;
#937 = DIRECTION ( 'NONE',  ( 0.000000000000000000, 0.000000000000000000, 1.000000000000000000 ) ) ;
#938 =( LENGTH_UNIT ( ) NAMED_UNIT ( * ) SI_UNIT ( .MILLI., .METRE. ) );
#939 = AXIS2_PLACEMENT_3D ( 'NONE', #568, #45, #658 ) ;
#940 = FACE_OUTER_BOUND ( 'NONE', #749, .T. ) ;
#941 = ORIENTED_EDGE ( 'NONE', *, *, #517, .F. ) ;
#942 = EDGE_CURVE ( 'NONE', #39, #833, #801, .T. ) ;
#943 = EDGE_CURVE ( 'NONE', #213, #981, #327, .T. ) ;
#944 = CARTESIAN_POINT ( 'NONE',  ( -62.22500000000002984, 2.020667218593118950E-16, -1.649999999999999023 ) ) ;
#945 = AXIS2_PLACEMENT_3D ( 'NONE', #68, #270, #354 ) ;
#946 = CARTESIAN_POINT ( 'NONE',  ( 12.55000000000000604, -3.200000000000015277, -1.387778780781445676E-14 ) ) ;
#947 = ORIENTED_EDGE ( 'NONE', *, *, #249, .F. ) ;
#948 = AXIS2_PLACEMENT_3D ( 'NONE', #543, #693, #465 ) ;
#949 =( GEOMETRIC_REPRESENTATION_CONTEXT ( 3 ) GLOBAL_UNCERTAINTY_ASSIGNED_CONTEXT ( ( #11 ) ) GLOBAL_UNIT_ASSIGNED_CONTEXT ( ( #82, #15, #829 ) ) REPRESENTATION_CONTEXT ( 'NONE', 'WORKASPACE' ) );
#950 = PRODUCT_CONTEXT ( 'NONE', #969, 'mechanical' ) ;
#951 = CARTESIAN_POINT ( 'NONE',  ( -71.72499999999998010, 3.469446951953580741E-14, 3.999999999999979128 ) ) ;
#952 = ADVANCED_FACE ( 'NONE', ( #311 ), #854, .F. ) ;
#953 = ORIENTED_EDGE ( 'NONE', *, *, #445, .T. ) ;
#954 = DIRECTION ( 'NONE',  ( 1.000000000000000000, 1.972152263052529514E-31, 0.000000000000000000 ) ) ;
#955 = CARTESIAN_POINT ( 'NONE',  ( 12.55000000000000604, -3.200000000000015277, 1.999999999999979128 ) ) ;
#956 = DIRECTION ( 'NONE',  ( 1.000000000000000000, 1.972152263052529514E-31, 0.000000000000000000 ) ) ;
#957 = ORIENTED_EDGE ( 'NONE', *, *, #341, .F. ) ;
#958 = CARTESIAN_POINT ( 'NONE',  ( 72.22500000000006537, 3.489653624139545741E-14, 1.650000000000024780 ) ) ;
#959 = ORIENTED_EDGE ( 'NONE', *, *, #683, .F. ) ;
#960 = DIRECTION ( 'NONE',  ( 3.944304526105055524E-31, 1.000000000000000000, -0.000000000000000000 ) ) ;
#961 = CARTESIAN_POINT ( 'NONE',  ( 30.00000000000001421, 3.200000000000022382, 2.081668171172168513E-14 ) ) ;
#962 = EDGE_CURVE ( 'NONE', #386, #828, #825, .T. ) ;
#963 = CIRCLE ( 'NONE', #907, 1.999999999999994893 ) ;
#964 = EDGE_CURVE ( 'NONE', #286, #231, #750, .T. ) ;
#965 = CARTESIAN_POINT ( 'NONE',  ( -30.00000000000000000, 3.200000000000015277, -2.000000000000005329 ) ) ;
#966 = AXIS2_PLACEMENT_3D ( 'NONE', #823, #47, #968 ) ;
#967 = AXIS2_PLACEMENT_3D ( 'NONE', #259, #333, #649 ) ;
#968 = DIRECTION ( 'NONE',  ( 0.000000000000000000, 0.000000000000000000, 1.000000000000000000 ) ) ;
#969 = APPLICATION_CONTEXT ( 'automotive_design' ) ;
#970 =( NAMED_UNIT ( * ) PLANE_ANGLE_UNIT ( ) SI_UNIT ( $, .RADIAN. ) );
#971 = EDGE_LOOP ( 'NONE', ( #135, #113 ) ) ;
#972 = DIRECTION ( 'NONE',  ( 0.7071067811865496822, 8.659560562354919300E-17, 0.7071067811865454633 ) ) ;
#973 = DIRECTION ( 'NONE',  ( 0.000000000000000000, 0.000000000000000000, -1.000000000000000000 ) ) ;
#974 = ORIENTED_EDGE ( 'NONE', *, *, #268, .T. ) ;
#975 = EDGE_CURVE ( 'NONE', #186, #29, #245, .T. ) ;
#976 = LINE ( 'NONE', #434, #276 ) ;
#977 = AXIS2_PLACEMENT_3D ( 'NONE', #785, #489, #561 ) ;
#978 = ORIENTED_EDGE ( 'NONE', *, *, #341, .T. ) ;
#979 = DIRECTION ( 'NONE',  ( 0.5150380749100602618, 1.015733504992093566E-31, -0.8571673007021086699 ) ) ;
#980 = PRESENTATION_LAYER_ASSIGNMENT (  '', '', ( #826 ) ) ;
#981 = VERTEX_POINT ( 'NONE', #168 ) ;
#982 = ADVANCED_FACE ( 'NONE', ( #847 ), #241, .F. ) ;
#983 = ORIENTED_EDGE ( 'NONE', *, *, #353, .F. ) ;
#984 = AXIS2_PLACEMENT_3D ( 'NONE', #262, #255, #411 ) ;
#985 = FACE_BOUND ( 'NONE', #425, .T. ) ;
#986 = ORIENTED_EDGE ( 'NONE', *, *, #975, .T. ) ;
#987 = ORIENTED_EDGE ( 'NONE', *, *, #228, .F. ) ;
#988 = CONICAL_SURFACE ( 'NONE', #76, 1.649999999999988809, 1.029744258676646984 ) ;
#989 = DIRECTION ( 'NONE',  ( 0.000000000000000000, 0.000000000000000000, 1.000000000000000000 ) ) ;
#990 = CARTESIAN_POINT ( 'NONE',  ( -72.22499999999998010, 0.000000000000000000, -3.500000000000027089 ) ) ;
ENDSEC;
END-ISO-10303-21;
